Abandonment 
Jos 24:16 
Ps 16:10 
Ps 27:9,10 
Ps 37:25 
Ps 119:8 
Isa 31:7 
Isa 54:7 
Isa 55:7 
Jer 49:11 
Eze 14:6 
Mt 10:37 
Mt 19:30 
2Th 2:3
Abasement 
Ex 10:3 
De 8:3 
Job 40:12 
Job 42:5,6 
Eze 21:26 
Da 4:37 
Mal 4:1 
Mt 23:12 
Lu 1:52 
Lu 15:19 
Lu 18:13 
Ro 7:24 
1Co 1:19 
2Co 6:10 
Ga 6:3 
Phm 1:25 
Jas 4:10
Abbreviation 
Ge 29:20 
Job 10:20 
Job 14:1,2 
Job 21:17,21 
Ps 89:45 
Ps 90:4,10,12 
Ps 102:23 
Pr 10:27 
Isa 28:20 
Ro 9:28 
1Co 7:29
Abeyance 
Ge 19:22 
Ex 32:1 
Jos 10:13 
Jude 1:25 
1Sa 22:3 
Ps 37:7 
Ps 39:7 
Isa 46:13 
La 3:25 
Da 12:12 
Hab 2:3 
Mt 24:48 
Mt 26:38 
Lu 19:13 
Joh 21:22 
Ro 8:25 
2Th 3:5 
Jas 1:4 
2Pe 3:4 
Re 2:25
Abhorrence 
De 7:26 
Job 42:6 
Ps 5:6 
Ps 10:3 
Ps 36:4 
Ps 107:18 
Ps 119:163 
Pr 1:7 
Pr 14:21 
Eze 11:21 
Ro 12:9 
1Co 11:22
Ability 
2Sa 22:33 
Ezr 2:69 
Ne 5:8 
Ps 62:11 
Da 1:4 
Mr 9:23 
Mr 10:39 
Mr 14:8 
Ro 12:18 
1Pe 4:10,11
Abnegation 
1Sa 10:19 
Isa 53:3 
Ho 4:6 
Ho 11:8 
Mt 16:24 
Mt 21:42 
Lu 12:9 
Lu 22:34 
2Co 4:1,2 
Php 2:8 
1Ti 5:8
Abnormality 
Eze 8:10 
Da 7:4-7 
Mt 10:1 
Mr 1:23 
Mr 5:13 
Lu 8:2 
Joh 6:70 
Re 4:6,8 
Re 5:6 
Re 16:13
Abode 
2Ki 19:27 
Ps 61:7 
Lu 24:29 
Joh 14:23 
Joh 15:4 
2Co 5:1 
1Ti 5:4 
1Jo 2:28
Abolition 
Isa 2:18 
Isa 51:6 
Ro 6:18 
Ga 4:7 
Eph 2:14 
2Ti 1:10 
Re 21:4
Abomination 
De 25:16 
Pr 11:1 
Pr 12:22 
Pr 13:19 
Pr 15:8,26 
Pr 16:5 
Pr 29:27 
Eze 14:6 
Lu 16:15
Absence 
Ge 31:49 
Ru 1:16 
Joh 6:22 
Joh 16:7 
1Co 5:3 
2Co 5:3,9 
Php 2:12
Absolution 
Mt 9:2,6 
Lu 5:21 
Joh 8:36 
Ac 10:43 
Ro 3:25 
Ro 6:18 
Heb 9:22
Abstinence 
Pr 20:1 
Pr 23:31 
Ac 27:21 
Eph 5:18 
1Th 5:22 
1Pe 2:11
Abundance 
Le 26:5 
De 30:9 
Ps 16:11 
Ps 86:5 
Pr 21:5 
Pr 28:19-20 
Isa 8:8 
Isa 11:9 
Isa 30:23 
Jer 2:7 
Jer 33:6 
Am 9:13 
Mt 6:34 
Mt 12:34 
Mt 13:12 
Lu 6:38 
Joh 10:10 
Ro 5:20 
1Co 15:58 
2Co 8:7 
2Co 9:8 
2Co 12:7 
Eph 1:23 
Php 4:18-19 
2Pe 1:11
Abuse 
Ex 21:20 
Ex 22:22,28 
Nu 22:28 
1Sa 31:4 
Eze 22:26 
Hab 2:15 
Mt 5:11 
Mt 18:6 
Mt 27:39 
1Co 4:12 
1Co 6:9 
1Co 7:31 
1Co 9:18 
1Pe 2:23
Abyss 
Ps 88:6 
Pr 9:18 
Isa 14:9,15 
Eze 31:16
Accent 
Ge 11:1,7,9 
Jg 12:6 
2Ki 18:26 
Isa 55:12 
Jer 14:9 
Jer 34:5 
Mr 7:32 
Mr 14:70 
Mr 16:17 
Ac 2:4,8 
Ro 14:11 
1Co 12:30 
1Co 13:1
Acceptance 
2Sa 24:23 
Ps 19:14 
Pr 21:3 
Isa 60:7 
Isa 61:2 
Jer 6:20 
Ho 2:23 
Lu 4:24 
Ac 2:22 
Ro 12:1 
2Co 6:2 
Eph 5:10 
1Ti 1:15 
2Ti 2:15 
1Pe 2:20
Access 
Ps 24:7 
Isa 48:16 
Mt 11:28 
Ro 5:2 
2Co 2:12 
Eph 2:18 
Eph 3:12 
Heb 4:16 
Re 3:8,20 
Re 4:1 
Re 22:17
Accident 
De 32:35 
1Sa 4:16,18 
2Sa 18:10 
2Sa 22:19 
Pr 6:15 
Ec 4:10 
Mt 17:15 
Ac 1:16,18
Acclamation 
1Sa 10:24 
Ps 47:5 
Ps 90:2 
Isa 42:11-12 
Ho 2:23 
Joe 3:17 
Mt 26:49 
Mt 27:29 
Lu 1:28
Accomplice 
Ps 2:2 
Ps 64:5 
Ps 83:5 
Ps 119:115 
Pr 29:13 
2Co 6:14-15
Accomplishment 
Ge 1:31 
2Ch 8:16 
2Ch 34:7 
Ps 119:33,106 
Ps 138:8 
Isa 40:2 
Lu 2:39 
Lu 14:28 
Joh 19:30 
2Co 8:11 
2Ti 3:17 
Re 16:17
Accord 
Am 3:3 
Ac 1:14 
Ac 8:6 
Php 2:2
Account 
Ge 30:33 
2Ki 22:7 
Job 28:16 
Job 31:14 
Ps 144:3 
Mt 12:36 
Mt 18:33 
Lu 14:28 
Lu 16:5 
Lu 22:24 
Ro 14:10 
1Co 4:1 
Heb 6:2 
Heb 13:17 
Jas 2:12 
1Pe 3:15,21 
Jude 1:6 
Re 14:17
Accumulation 
1Ch 29:26,28 
Ps 39:6 
Ps 73:12 
Ps 144:13 
Pr 3:10 
Job 27:16,17 
Lu 12:18,19,21
Accuracy 
Le 19:35-36 
De 25:15 
Job 28:25 
Job 31:6 
Ps 19:9 
Ps 89:37 
Pr 11:1 
Pr 14:5 
Pr 16:11 
Am 8:5 
Mic 6:11 
Zec 2:1 
Mt 7:2 
Mt 25:21 
Lu 6:38 
Lu 12:42 
Joh 5:32 
Joh 19:35 
Eph 4:13 
3Jo 1:12 
Re 19:9
Accusation 
2Sa 3:8 
Mt 27:13 
Mr 15:3 
Lu 3:14 
Lu 19:8 
Joh 8:10 
Joh 18:29 
Ac 6:11
Achievement 
Ge 2:1 
Pr 13:19 
Eze 27:4 
Joe 2:21 
Lu 12:50 
Joh 4:34 
Joh 19:28 
2Ti 4:7 
Heb 6:1
Acquaintance 
Job 22:21 
Ps 55:12,13 
Ps 139:3 
Ec 2:3 
Isa 53:3 
Mt 25:12 
Lu 15:9 
Lu 22:57 
Lu 23:49
Acquiescence 
Pr 1:10 
Pr 7:21 
Ec 10:4 
La 3:30 
Da 1:14 
Mt 5:25 
Mt 8:9 
Mt 20:13 
Mt 22:21 
Lu 6:46 
Lu 11:48 
Ac 24:9 
Ro 6:13 
Eph 5:22
Acquisition 
De 8:18 
Job 1:9 
Ps 119:104 
Pr 1:19 
Pr 4:7 
Pr 15:27 
Pr 16:16 
Pr 21:26 
Pr 28:8 
Ec 3:6 
Jer 17:11 
Mic 7:3 
Mt 16:26 
Lu 12:21 
Lu 19:16 
Jas 4:13
Acquittal 
Job 4:7 
Job 10:14 
Ps 7:8 
Ps 19:13 
Isa 38:17 
Da 6:22 
Mic 7:19 
Na 1:3 
Mt 12:7 
Mt 27:23-24 
Ac 3:17 
2Ti 4:8
Action 
Ge 19:14 
Ex 10:11 
De 11:7 
Jg 4:14 
1Sa 2:3 
1Ch 22:16 
Ps 150:2 
Joh 5:8 
Ac 7:22 
Tit 3:5 
Jas 1:22-24 
Jas 2:17 
1Jo 3:18
Activity 
Ge 47:6 
Ex 5:13 
Ex 20:9 
1Ki 20:40 
Ne 4:6 
Ps 127:2 
Pr 22:29 
Jer 32:19 
Lu 17:14 
Joh 9:4 
Ga 6:9 
Col 1:10 
2Ti 2:15
Adaptation 
Job 29:15 
Ec 3:1,2 
Isa 28:24 
Lu 7:33,34 
1Co 6:12 
1Co 9:19,22
Addition 
De 4:2 
Jg 5:19 
Ps 69:27 
Ps 90:17 
Pr 3:2 
Pr 15:27 
Pr 16:23 
Isa 28:10 
Jer 45:3 
Mt 6:33 
Ac 2:47 
Ac 11:24 
Ga 3:19 
2Pe 1:5
Adept 
2Ch 2:14 
Ps 33:3 
Ps 90:17 
Ec 9:11 
Song 3:8 
Da 9:22 
Ac 26:3
Adequacy 
Ge 34:21 
De 14:29 
De 28:11-12 
Ps 17:15 
Ps 31:23 
Ps 103:8 
Ps 107:9 
Ps 145:16 
Pr 13:25 
Pr 30:15,16 
Ec 1:7 
Ec 5:10 
Hab 2:5 
Mt 6:34 
Mt 9:37 
Joh 14:2,8 
2Co 3:5 
2Co 9:6,8 
2Co 12:9 
Re 21:13
Administration 
Ps 119:5 
Pr 16:3 
Isa 9:6 
Isa 61:8 
1Co 12:5 
2Co 8:19-20 
2Co 9:12
Admiration 
Ps 30:1 
Ps 48:2 
Pr 27:2 
Ec 3:11 
Mt 7:28 
Lu 2:18 
2Th 1:10 
Jude 1:16 
Re 17:6
Admission 
Ge 28:17 
Ps 84:10 
Ps 100:4 
Ps 119:130 
Isa 26:2 
Eze 43:4 
Mt 7:13,14,21 
Mt 19:24 
Mt 25:10 
Lu 11:7 
Lu 13:24 
Joh 10:9 
1Th 2:1 
2Pe 1:11 
Re 1:18 
Re 22:14
Admonition 
Pr 5:12 
Pr 6:23 
Pr 10:17 
Eze 3:19 
Mr 13:37 
1Co 10:11 
Eph 6:4
Adoption 
Joh 1:12 
Ro 8:15-17,23 
2Co 6:17,18 
Ga 4:4,5,7 
Eph 1:5 
1Jo 3:1
Adoration 
Ex 3:5 
De 9:18 
1Ch 16:29 
Ps 95:6 
Ps 96:1 
Ps 99:9 
Ps 103:1 
Ps 111:9 
Ps 115:1 
Ps 148:12,13 
Isa 6:3 
Mt 2:2 
Ac 1:14 
1Ti 2:8 
Jude 1:25 
Re 4:8 
Re 5:9 
Re 15:8 
Re 19:10
Adornment 
Isa 52:1 
Isa 61:3,10 
Zec 3:4 
Mt 22:12 
Mr 1:41 
1Ti 2:8,9 
Tit 2:10 
1Pe 3:3,4
Adulation 
Ps 5:9 
Ps 12:2 
Ps 55:21 
Pr 7:21 
Song 4:1 
Song 6:4 
Joh 12:43
Adult 
Jg 8:21 
1Ch 29:26,28 
Job 8:16 
Job 10:5 
Ps 104:23 
Ps 144:12 
Pr 3:2 
Pr 22:6 
Lu 3:23 
Joh 9:23 
1Co 2:11 
1Co 13:11
Adulteration 
Le 19:35 
De 32:33 
Pr 23:30 
Isa 1:22 
Jer 8:14 
Da 2:42-43
Adultery 
Ex 20:14 
Job 24:15 
Mt 5:28 
Mt 15:19 
1Co 6:9 
1Co 7:10 
Ga 5:16
Advance 
Ex 14:15 
De 10:11 
Jos 1:2 
Jos 6:20 
Jg 19:9 
2Sa 18:2 
1Ki 19:8 
Ps 68:7 
Ps 78:50,52 
Joe 2:7 
Hab 3:13 
Joh 14:31 
Ga 5:16
Advantage 
1Sa 12:21 
1Sa 15:22 
Job 22:2 
Job 35:3 
Pr 8:11 
Pr 11:4 
Pr 14:23 
Ec 1:3 
Ec 7:1 
Mr 5:26 
Lu 9:25 
1Co 9:19 
Php 1:21 
Php 3:7 
1Ti 4:8 
Heb 12:11
Advent 
Mt 11:3,10 
Mt 21:5,9 
Lu 21:27,28,32 
Joh 1:23,30 
Ac 1:11 
Ac 2:20 
1Co 4:5 
1Co 11:26 
2Pe 3:10 
Jude 1:14 
Re 1:7
Adventure 
Ex 13:21 
Ex 15:21 
La 5:9 
Ac 27:10,40,44 
Ro 8:36-37 
2Co 11:21,26 
2Co 12:4 
2Ti 2:3 
2Ti 3:1 
Heb 11:8,33-34
Adversary 
1Sa 28:16 
Ezr 8:31 
Job 1:6 
Job 31:35 
Pr 25:21 
Isa 50:8 
La 1:10 
Mt 5:25,44 
Mt 10:36 
Mt 12:30 
Joh 19:11 
1Co 15:25,26 
Eph 6:11 
1Ti 5:14 
Jas 4:4 
1Pe 5:8
Adversity 
Le 26:16 
De 28:48 
De 32:24 
2Ch 15:6 
Job 10:2 
Job 14:1 
Ps 34:19 
Ps 46:1 
Ps 91:5 
Ps 119:71 
Pr 17:17 
Ec 7:14 
Isa 8:22 
Isa 45:3 
Isa 48:10 
Ho 2:15 
Joh 16:33 
Ro 12:12 
Heb 13:3 
Jas 1:2,3 
1Pe 4:13 
Re 7:14
Advice 
Ex 18:17,19 
1Ki 12:8 
Job 38:2 
Ps 55:14 
Pr 12:15 
Pr 19:20 
Isa 1:18 
Jer 49:20 
Eze 3:21 
Col 3:16 
2Th 3:15
Advocate 
Isa 53:12 
Ro 8:26 
Heb 7:25 
Heb 8:1 
1Jo 2:1
Affectation 
Ps 119:104 
Ps 120:3 
Pr 11:9 
Mt 6:16 
Mr 12:38,40 
Php 1:10,16 
1Pe 3:3
Affection 
2Sa 1:26 
Ps 36:7 
Ps 63:3 
Pr 15:17 
Song 2:4 
Song 8:6-7 
Isa 63:7 
Jer 31:3 
Ho 11:4 
Mt 6:21 
Joh 3:16 
Ro 12:10 
Col 3:2,14 
1Ti 4:12 
2Pe 1:5,7 
1Jo 4:12
Affirmation 
Ps 72:19 
Ps 106:48 
Lu 22:59 
Joh 3:3 
Ac 25:19 
2Co 1:20 
Tit 3:8
Affliction 
Job 16:12 
Job 34:29 
Ps 4:1 
Ps 34:6,22 
Ps 90:7 
Ps 102:9,10 
Pr 24:10 
Isa 51:22 
Isa 54:7,11 
Isa 63:9 
La 3:33 
Mal 1:4 
Mt 5:11 
Ro 8:35 
2Co 4:8,17 
2Co 12:10 
Jas 1:27
Affront 
Nu 14:11 
2Ki 2:23 
Job 11:3 
Ps 1:1 
Ps 44:13 
Ps 78:40 
Pr 1:22 
Pr 18:19 
Ec 10:4 
Isa 28:14 
Jer 20:7 
Hab 1:10 
Mr 10:34 
Lu 18:32 
1Co 10:32 
1Co 13:4,5 
2Co 9:2 
Ga 6:7 
2Pe 3:3
Aftermath 
Job 4:8 
Ps 126:5 
Pr 22:8 
Ho 8:7 
Mt 24:6-7 
Mt 27:25 
Mr 4:28 
2Co 9:6 
Ga 6:9 
Re 18:2
Age 
Ge 42:38 
De 31:2 
1Sa 2:33 
Job 32:6 
Job 42:12 
Ps 37:37 
Ps 39:5 
Ps 71:9 
Ps 90:9,12 
Ps 92:14,15 
Pr 16:31 
Isa 64:6 
Joe 2:28 
Joh 21:18 
1Ti 5:1
Age, Golden 
Ge 2:8 
Ge 6:4 
1Sa 3:1 
Isa 11:6,9 
Isa 40:11 
Isa 65:17 
Ho 2:23 
Ho 14:7 
Joe 2:28 
Joe 3:18 
Am 9:14 
Mic 4:1,3,4 
Zep 3:20 
Zec 8:5 
Zec 14:20 
Mal 3:12 
Eph 1:10 
Heb 8:8 
Re 20:4
Agent 
Ps 103:21 
Pr 13:17 
Isa 6:8 
Mt 4:19 
Mt 10:16 
Mt 16:18 
Mt 28:19 
Joh 3:16 
Joh 5:26,27 
Joh 6:57 
Joh 15:8 
2Co 5:20 
Eph 6:20 
Heb 1:7
Aggressiveness 
Nu 14:11 
De 31:20 
Jg 2:12 
Ps 95:8 
Pr 6:14 
Ac 19:23 
2Co 11:21 
Eph 4:31 
Php 1:20
Agitation 
De 2:25 
Job 4:14 
Job 9:2,6 
Ps 2:1 
Ps 46:3 
Ps 60:2 
Ps 65:5,7 
Ps 104:29 
Ps 107:28 
Ps 119:120 
Isa 8:22 
Joe 2:10 
Zec 12:2 
Joh 5:4 
1Co 14:33 
Php 2:12 
Jas 3:16 
1Pe 3:14
Agnosticism 
Ex 4:1 
Ps 78:22 
Mt 21:21 
Mr 6:6 
Mr 9:24 
Lu 22:67 
Joh 4:22,48 
Joh 8:19 
Joh 10:38 
Joh 20:25 
1Ti 5:8 
Heb 3:12
Agony 
Job 7:11 
Job 15:20 
Ps 69:20 
Ps 116:3 
Ps 119:143 
Isa 53:11 
Jer 4:31 
Lu 22:44 
Ro 8:22 
2Co 2:4 
Re 16:10
Agreement 
2Ki 18:31 
Isa 28:18 
Mt 5:25 
Mt 18:19 
Ac 4:24 
1Jo 5:8
Aid 
Ex 18:4 
Jg 3:9 
1Ki 17:4,6 
2Ch 14:11 
Ps 33:20 
Ps 72:12 
Ac 16:9 
2Co 1:11 
2Co 6:12
Ailment 
De 7:15 
De 28:58,59,60 
1Sa 11:5 
Job 13:4 
Ps 41:3 
Ps 103:3 
Ps 114:5 
Pr 13:12 
Jer 8:22 
Mt 4:23 
Mt 9:12 
Mt 10:1 
Mt 25:36 
Lu 4:23 
Jas 5:15
Aim 
Pr 4:26-27 
Pr 16:9 
Isa 14:26 
Joh 18:37 
Ac 10:29 
Ac 11:23 
Ro 1:11 
Ro 10:4 
2Co 1:17
Aimlessness 
Job 12:25 
Job 13:25 
Ps 119:10 
La 4:14 
Ho 13:3 
1Ti 5:13 
Jas 1:6
Air 
Ge 1:26 
Job 28:7,25 
Job 38:1 
Ec 5:16 
Isa 32:2 
Mt 8:20,27 
Eph 2:2
Alarm 
Jg 7:16 
2Ch 13:12 
Ps 127:1 
Isa 51:9 
Isa 58:1 
La 2:19 
Eze 33:5 
Joe 2:1 
Zec 9:14 
1Co 14:8 
Eph 5:14
Alertness 
Ex 34:2 
Ps 130:6 
Pr 8:34 
Mt 24:42 
Mt 26:41 
Lu 12:35,37 
Lu 22:33 
Eph 6:18 
2Ti 4:5 
Tit 3:1 
Re 3:2
Alien 
Ge 23:4 
Ex 18:3 
De 10:19 
Ru 1:16 
Eph 2:12 
Eph 4:18 
Col 3:11 
Heb 11:9,34 
Heb 13:2
All 
Ps 103:19 
Ps 145:9 
Ec 5:9 
Ac 17:25 
Ro 1:16 
Ro 3:23 
1Co 3:22 
1Co 12:29 
1Co 15:22 
Eph 4:6 
Col 3:11 
Heb 11:8 
1Jo 4:7 
Re 22:17
All Saints 
1Sa 2:9 
Ps 31:23 
Ps 116:15 
1Co 1:2 
2Co 13:13 
Eph 3:8 
Col 1:12 
Heb 11:13 
Heb 12:1 
Heb 13:25 
Jude 1:14 
Re 7:3 
Re 19:6,9
All Souls 
Ps 72:17 
Ps 97:10 
Isa 40:5 
Isa 56:7 
Jer 32:27 
Eze 18:4 
Mt 11:28 
Lu 2:10 
Lu 3:6 
Ac 17:26
Allegiance 
Jos 23:11 
Jos 24:15 
1Sa 18:1 
1Ki 20:4 
Ps 22:27 
Ps 31:14 
Ps 119:38 
Pr 27:6 
Mt 4:10 
Mt 22:37 
Mt 24:46 
Lu 16:13 
Heb 3:1,2 
1Pe 2:17
Allegory 
Pr 1:5,6 
Eze 17:12 
Da 5:16 
Zec 4:5 
Ga 4:24
Alleluia 
De 27:15 
2Ch 20:21 
Ps 41:13 
Ps 106:48 
Ps 148:1 
Lu 24:53 
Re 19:3,4
Alleviation 
Job 4:3 
Job 16:6 
Ps 40:11 
Ps 41:3 
Ps 85:3 
Isa 35:6 
Isa 54:7 
Isa 61:3 
La 1:16 
Eze 34:4,16 
Ac 2:24
Alliance 
De 2:7 
De 31:8 
Jos 1:9 
Ru 1:17 
2Ki 6:16 
Job 5:23 
Ps 20:7 
Hab 3:19 
Mt 18:20 
Ro 8:35
Allotment 
Ge 17:8 
Nu 32:22 
De 4:22 
De 12:1 
2Ki 25:30 
Ps 16:5,9 
Eze 48:29 
Mt 20:21 
Ac 13:19
Allurement 
Jg 16:5 
Pr 1:10 
Pr 7:10 
Pr 30:20 
Jer 31:3 
Ho 2:14 
Col 2:4 
Jas 1:14 
2Pe 2:18
Ally 
Ge 28:20,21 
Jos 9:6,15 
Jos 24:15 
Ru 1:16,17 
2Ki 6:16-17 
1Ch 12:1 
Ps 46:7 
Ps 146:5 
Isa 31:1,5 
Mt 12:30 
Mt 28:20 
1Co 11:1 
Heb 13:6
Almighty 
Ge 17:1 
Job 5:17 
Job 22:3 
Job 32:8 
Ps 91:1 
Mt 22:29 
Lu 9:43 
1Pe 1:5 
Re 4:8 
Re 19:6 
Re 21:22
Almsgiving 
Le 19:10 
Le 25:35 
De 15:7,11 
Job 29:16 
Pr 28:27 
Mt 6:3 
Mt 25:37 
Mr 12:43 
Lu 11:41 
Lu 18:22 
Ac 10:4 
1Co 13:3 
Heb 13:16
Alpha 
Ho 1:2 
Mr 1:1 
Col 1:13,15,17,18 
Heb 1:6 
Re 1:8 
Re 3:14
Altar 
Ge 28:17 
Ge 33:20 
Ex 3:5 
Ps 24:3 
Ps 63:2 
Ps 77:13 
Isa 6:6 
Isa 57:15 
Am 9:1 
Joh 4:21
Alteration 
Ps 89:34 
Ps 102:26 
Jer 13:23 
Da 6:8 
Mt 5:18 
Lu 9:29 
Ro 1:25 
1Co 15:51
Altitude 
Ge 28:12 
Job 22:12 
Ps 139:8 
Ps 148:1 
Pr 25:3 
Isa 2:2 
Isa 7:11 
Isa 14:13-14 
Da 4:11 
Am 9:2 
Ob 1:4
Altruism 
Le 19:18 
2Sa 9:7 
Ne 1:10 
Job 42:10 
Isa 41:6 
Mt 7:2 
Mt 27:42 
Lu 6:31 
Joh 21:15 
Ac 20:13 
Ro 15:2,3 
1Co 10:23 
Php 2:4
Amazement 
Ge 32:30 
Jos 3:5 
Ps 4:4 
Ps 71:7 
Ps 77:11 
Ps 88:12 
Ps 119:18 
Isa 9:6 
Da 4:3 
Mt 21:42 
Mr 2:12 
Mr 6:51 
Lu 4:22 
Lu 24:5 
Ac 3:10 
Re 12:1
Ambassador 
Ge 24:7 
Ps 119:46 
Pr 13:17 
Pr 25:13 
Isa 6:8 
Jer 1:5 
Mal 2:7 
Mal 3:1 
Lu 9:1 
Lu 20:13 
Ac 3:20 
Ac 22:21 
Ac 26:16 
1Co 9:16 
1Co 15:3 
2Co 5:20
Ambition 
Ge 11:4 
2Sa 15:1,4 
Jer 22:14 
Mt 20:16,21,26 
Mr 9:34 
Mr 10:44 
Lu 12:18 
Lu 13:24 
Lu 14:7 
Joh 5:44 
Joh 6:15 
Ro 15:20 
1Co 9:24,25 
1Co 12:31 
1Co 14:12 
Php 3:13,14 
2Ti 2:24 
Tit 3:9
Amen 
Ps 72:19 
Ps 106:48 
Mt 6:13 
Lu 24:52,53 
Ro 9:5 
2Co 1:20
Amendment 
Le 26:23,24 
Ps 89:34 
Ec 7:13 
Jer 7:3 
Jer 13:23 
Jer 25:5 
Da 6:8 
Ho 12:6 
Mal 3:6 
Mt 3:8 
Mt 18:3 
Mt 21:29 
Mr 1:15 
Lu 7:47 
1Co 15:51 
Eph 4:12 
2Ti 3:16
Amends 
Ex 22:3 
Le 5:16 
Job 20:18 
Isa 51:3 
Isa 54:8 
Isa 61:2 
Jer 7:3 
Jer 31:10 
Joe 2:25 
Lu 6:21 
Lu 19:8
Amnesty 
Ge 18:26 
2Ch 30:20 
Job 5:23 
Isa 11:6,9 
Isa 40:2 
Jer 33:8 
Am 9:11,14
Ampleness 
Jg 18:10 
1Ch 4:40 
Ps 24:1 
Ps 31:8 
Ps 68:9 
Pr 3:10 
Pr 8:18 
Pr 25:16 
Isa 30:23 
Am 5:24 
Am 9:13 
Hab 3:19 
2Co 3:5 
2Co 12:9 
1Ti 6:17
Amusement 
Ge 21:6 
Ex 32:6 
Job 29:20 
Ps 126:2 
Ps 149:3,5 
Pr 15:13 
Ec 3:13 
Ec 8:15 
Ec 10:19 
Song 2:8 
Isa 22:13 
Zec 8:5 
Lu 6:21 
Lu 15:23 
Re 11:10
Anarchy 
Jg 2:19 
Pr 25:28 
Pr 29:2 
Isa 22:3 
Jer 51:46 
Hab 1:14
Anathema 
Ge 27:12 
De 28:15,19,21,23 
Mal 2:2 
Mt 25:41 
1Co 12:3 
1Co 16:22 
Ancestor
Ge 6:4 
Ex 20:5 
Le 26:45 
De 24:16 
1Ki 8:57 
Ps 16:5,6 
Ps 22:4 
Ps 77:5 
Ps 145:4 
Pr 10:7 
Jer 31:29 
Mt 3:9 
Ro 9:6,7 
Heb 11:40
Anchor 
Ps 89:28 
Ps 112:7 
Ac 27:29 
1Co 16:13 
Ga 5:1 
1Th 3:8 
1Th 5:21 
2Th 2:15 
Heb 3:6 
Heb 6:19 
Heb 10:23 
Re 2:25
Angel 
Ge 24:7 
Ge 28:12 
Ge 32:26 
Ps 1:6 
Ps 103:20 
Da 6:22 
Mt 4:11 
Mt 22:30 
Lu 24:23 
Ac 6:15 
1Th 4:16 
Heb 13:2 
1Pe 1:12
Anger 
Ne 9:17 
Ps 6:1 
Ps 30:5 
Ps 37:8 
Ps 76:7 
Ps 145:8 
Pr 14:17 
Pr 15:1,18 
Pr 16:32 
Pr 19:11 
Pr 21:19 
Pr 22:24-25 
Pr 27:4 
Pr 29:22 
Ec 7:9 
Jon 4:1 
Mt 5:22 
Eph 4:26,31-32 
Col 3:8,21 
Jas 1:19-20
Angler 
Ne 13:16 
Isa 19:8,10 
Eze 29:4 
Mt 4:19 
Mt 17:27 
Lu 5:4 
Joh 21:6,10
Anguish 
Ps 107:6 
Ps 116:3 
Ps 119:143 
Pr 1:27,28 
Isa 53:5 
Lu 22:43,44 
Ro 2:9 
2Co 2:4 
Re 21:4
Animal 
Le 10:10 
Le 11:46 
Ho 2:18 
Job 5:23 
Ps 8:6 
Ps 36:6 
Ps 50:10 
Pr 12:10 
Isa 11:6 
Joh 1:20 
Joh 2:22 
Lu 12:6 
Ac 10:14 
1Co 8:13
Animosity 
Ge 27:41 
Le 19:17 
Job 8:22 
Ps 25:19 
Ps 89:23 
Ps 129:2 
Lu 6:22 
Joh 3:13
Annals 
Ge 5:1 
1Ch 9:1 
Ezr 4:15 
Es 6:1 
Ps 40:7 
Ec 12:12 
Mt 1:1,17 
Lu 1:1 
Joh 21:25 
Php 4:3 
Joh 5:11
Annihilation 
Ge 6:7 
Ge 7:22 
Ex 22:20 
2Ki 21:12,13 
Job 5:22 
Ps 90:3 
Ps 91:5,6 
Ps 103:2,4 
Pr 16:18 
2Th 1:9
Anniversary 
Ge 40:20 
Ex 3:15 
Ex 12:14,17 
Ps 135:13 
Pr 10:7 
Ec 9:5 
Mt 26:13,18 
Mr 6:21 
Lu 1:14 
Lu 22:19 
Ro 14:5-6 
Ga 4:10 
Heb 10:32 
2Pe 1:15 
2Pe 3:1
Announcement 
Le 25:10 
Jg 7:3 
Ps 68:11 
Isa 30:30 
Isa 61:1 
Jer 7:2 
Ac 13:32 
Ac 17:23 
1Co 3:13 
1Co 15:1
Annoyance 
Ex 22:21 
De 28:20 
Jg 16:16 
1Ki 18:17 
2Ch 15:5 
Job 3:17 
Job 19:2 
Job 27:2 
Ps 3:1 
Ps 6:2 
Ps 7:11 
Ec 1:14 
Ec 4:6 
Song 2:15 
Isa 7:13 
Isa 63:10 
Mal 2:17 
Mr 5:35 
Lu 7:6 
Lu 11:7 
Lu 18:5 
Ga 4:12
Annulment 
Job 40:8 
Ps 33:10 
Ps 89:34,39 
Ps 119:126 
Isa 2:18 
Isa 14:27 
Isa 28:18 
Isa 51:6 
Mt 15:6 
Ro 3:3,31 
Ro 8:2 
Ga 3:15,17,18 
Eph 2:14,15 
2Ti 1:10 
Heb 9:26
Annunciation 
Lu 1:28,31,35
Anointing 
De 7:6 
1Sa 2:10 
2Ki 9:6 
1Ch 29:5 
Ps 23:5 
Isa 61:1 
Eze 43:26 
Lu 7:37,38 
Ac 10:38 
2Co 1:21 
1Pe 2:4
Answer 
Job 35:12 
Ps 91:15 
Pr 1:28 
Pr 24:26 
Lu 2:47 
Ro 9:20 
1Pe 3:15
Antagonism 
Ge 4:8 
Ge 44:18 
1Sa 14:20 
1Sa 15:23 
2Ki 19:22 
Ps 27:2 
Ps 30:1 
Ps 89:23 
Isa 19:2 
Mt 10:36 
Lu 12:52 
Ac 2:34,35
Anthem 
1Ch 6:32 
1Ch 16:9 
2Ch 20:21 
Ps 33:2 
Ps 51:14 
Ps 66:2 
Ps 67:4 
Ps 137:3 
Ec 2:8 
Isa 38:20
Antichrist 
1Jo 2:18,22 
1Jo 4:3
Anticipation 
Ps 9:18 
Ps 62:5 
Ps 119:166 
Ro 8:19,25 
1Co 13:4,7 
2Co 4:18 
Php 3:14 
Tit 2:13 
Heb 4:9 
Heb 9:28 
2Pe 3:12,13
Antidote 
2Ki 2:21 
2Ch 36:16 
Pr 6:15 
Pr 29:1 
Jer 8:22 
Jer 30:13 
Jer 33:6 
Jer 46:11 
Jer 51:8 
Eze 47:12 
Re 22:2
Antipathy 
Job 16:9 
Job 19:19 
Ps 11:5 
Ps 25:19 
Ps 62:3 
Ps 109:5 
Ps 120:6 
La 2:5 
Eze 35:5 
Mt 10:35 
Mt 12:25 
Ro 7:15
Antiquity 
De 2:20 
1Sa 3:1 
1Sa 24:13 
Job 12:12 
Ps 77:5 
Pr 22:28 
Ec 7:10 
Isa 9:15 
Isa 23:7 
Isa 46:9 
Jer 5:15 
Da 7:13 
Joe 1:2 
Zec 8:11 
Mt 23:29,30 
Heb 10:32
Antithesis 
Ge 1:5 
Pr 25:3 
Ec 3:3,6-8 
Mt 5:18,34-35 
Mt 25:2 
Lu 16:19-20 
Lu 18:10,11 
Re 21:1
Anvil 
Ex 39:3 
1Sa 13:19 
Isa 2:4 
Isa 41:7 
Isa 44:12 
Isa 54:16 
Ho 8:4
Anxiety 
Ps 23:4 
Ps 37:1 
Ps 38:6 
Ps 91:11 
Ps 121:4 
Mt 6:27,28,34 
Mr 4:19 
Lu 10:41 
Lu 12:11 
Lu 24:38 
1Co 7:32 
2Co 4:8 
Php 4:6 
1Pe 5:7
Apathy 
De 28:56 
Job 30:16 
Ps 95:8 
Ps 142:4 
Isa 47:8 
Isa 56:10 
Jer 22:18 
Am 6:6 
Zep 3:15,16 
Mt 23:37 
1Co 7:32 
Php 2:20,21
Apocalypse 
Eze 1:1 
Da 7:2 
Da 10:7 
1Co 14:6 
2Co 12:2 
Ga 2:2 
Re 1:7,10 
Re 4:1 
Re 12:1 
Re 21:1,2
Apocrypha 
Pr 1:6 
Isa 45:3 
Isa 48:6 
1Co 2:7 
1Co 4:5
Apostasy 
Pr 14:14 
Isa 1:4 
Jer 3:6,12 
Jer 7:24 
Jer 15:6 
La 1:8 
Ho 4:16 
Ho 14:4 
Lu 6:16 
Lu 9:62 
Lu 12:9 
2Ti 3:1,2,4
Apostle 
Mt 4:20 
Mt 10:24 
Lu 5:11 
Lu 14:26 
Joh 8:12,31 
Joh 13:5 
Joh 15:8 
Joh 18:17 
1Co 4:16 
1Co 9:1 
1Co 12:29 
1Co 15:9 
2Co 1:1 
Eph 4:11 
1Pe 3:13
Apparel 
Ge 2:25 
De 2:4 
De 10:17,18 
Job 7:5 
Pr 23:21 
Jer 2:32 
Mt 3:17 
Mt 6:25,28-30 
2Co 5:3 
1Ti 6:8 
Jas 2:2-4 
1Pe 5:5 
Re 7:13
Appeal 
De 4:26 
1Ki 18:24 
Ne 1:6 
Job 5:1 
Job 6:8 
Ps 4:1 
Ps 13:3 
Ps 20:5 
Ps 60:5 
Ps 145:18 
Isa 55:6 
Isa 65:24 
Ac 28:19 
Ro 10:12 
Eph 4:1 
Php 4:6 
Jas 4:3
Appearance 
Ex 3:2 
Le 16:2 
1Sa 16:7 
Ps 42:2 
Ps 102:28 
Jer 31:3 
Mt 6:16 
Mt 17:3 
Mt 23:7 
Joh 7:24 
Ac 2:3 
2Co 5:10 
Heb 9:28 
Jas 1:26 
1Pe 5:4 
1Jo 3:2
Appetite 
Ge 2:17 
Ps 141:4 
Pr 23:2,20,21 
Isa 22:13 
Mt 11:19 
Lu 6:25 
Lu 12:19 
Ro 14:17,20 
1Co 4:11 
Eph 5:18 
Php 4:12 
1Pe 4:3
Applause 
Ps 47:1 
Ps 89:8 
Pr 16:7 
Isa 55:12 
Mt 3:17 
Mt 5:16 
Mt 25:21,40 
Mt 26:10,13 
Lu 10:42 
Ro 15:11 
Col 1:10
Appointment 
2Sa 15:15 
Ps 78:70 
Isa 6:8 
Jer 1:7,10 
Jer 49:19 
Eze 2:1 
Am 7:15 
Lu 10:1,3 
Ac 9:15 
Ac 16:9 
Ro 1:1 
1Co 7:22 
1Th 3:3 
1Ti 1:11 
Heb 1:2
Appraisal 
1Sa 26:21 
2Sa 18:3 
1Ki 21:2 
Job 6:2 
Job 13:4 
Job 24:25 
Job 28:12,16 
Job 31:6 
Pr 10:20 
Song 8:7 
Da 5:27 
Mt 10:31 
Mt 27:9 
2Co 12:14
Appreciation 
Ge 1:31 
2Sa 22:4 
Pr 3:15 
Pr 12:4 
Pr 27:2 
Ec 7:1 
Isa 31:9 
Mt 10:31 
Mt 11:11 
Php 2:3 
1Th 5:13
Apprehension 
Job 33:14 
Ps 34:4 
Ec 12:5 
Isa 4:3 
Jer 32:40 
Ho 14:9 
2Co 7:5 
Php 3:13 
Col 1:9 
1Ti 6:12 
Heb 6:18 
Heb 11:3
Approach 
1Sa 14:36 
2Ki 16:12 
Ps 24:7 
Ps 73:28 
Ps 107:18 
Isa 26:2 
Isa 29:3 
Isa 34:1 
Isa 58:2 
Jer 30:21 
Eze 42:13 
Mt 7:13 
Lu 10:9 
Ac 14:27 
1Ti 6:16 
Heb 10:22 
Jas 4:8 
Re 15:4
Approval 
Ps 149:4 
Isa 42:21 
Mt 3:17 
Mt 24:46 
Mt 25:21 
Lu 16:10 
Heb 13:16 
Jas 2:8 
1Pe 2:14 
1Jo 3:22
Aptitude 
1Ki 22:53 
Isa 11:3 
Ro 1:11 
1Ti 3:2 
1Ti 4:14
Arbitration 
Ge 16:5 
Ge 31:53 
1Sa 24:15 
Isa 1:18 
Isa 2:4 
Isa 5:3 
Lu 2:14
Archangel 
Da 12:1 
Lu 1:19,26,27 
1Th 4:16 
Re 8:2 
Re 12:7 
Re 15:1 
Re 16:5,7 
Re 17:1 
Re 18:1 
Re 19:17
Architecture 
1Ki 6:32 
Ezr 5:15 
Ps 78:69 
Ps 96:6 
Ps 127:1 
Pr 24:3 
Isa 60:13 
Jer 31:38 
La 2:15 
Eze 27:4 
Lu 6:48 
Ac 3:2 
1Co 3:10 
2Co 5:1 
Heb 11:10
Argument 
Job 6:25 
Job 13:3 
Job 15:3 
Job 23:4 
Pr 25:9 
Jer 25:31 
Mt 16:8 
2Co 12:20
Aridity 
Ex 15:22 
Ps 63:1 
Ps 107:35 
Pr 17:1 
Pr 25:14 
Isa 25:5 
Isa 32:2 
Isa 35:7 
Eze 37:4 
Mt 12:43 
Lu 23:31
Aristocracy 
De 1:13 
2Sa 7:9 
2Sa 23:3 
1Ch 11:10 
Ezr 10:14 
Pr 25:6 
Jer 5:5 
Mic 6:12 
Lu 22:27 
Jas 2:6 
Jas 5:1 
Re 6:15,17 
Re 18:23
Ark 
Ge 7:1,9 
Ex 40:20 
Jos 7:6 
1Sa 4:22 
1Sa 5:8 
1Sa 6:3,13 
Heb 11:7
Arm 
Ex 15:16 
De 33:27 
Job 40:9 
Ps 44:3 
Ps 77:15 
Ps 98:1 
Ps 147:5 
Isa 40:11 
Jer 27:5 
Ro 10:21 
1Pe 1:5
Armistice 
1Sa 16:4,5 
2Sa 2:26 
2Ki 9:19 
1Ch 12:17 
1Ch 22:8 
2Ch 11:4 
Ps 46:9 
Ps 120:7 
Isa 2:4 
Isa 26:12 
Isa 40:2 
Isa 54:13 
Jer 29:11 
Eze 37:26 
Mic 4:3 
Zec 2:4 
Zec 6:13 
Mt 5:9 
Mr 9:50 
Lu 2:14 
Lu 14:32
Armor 
1Sa 16:21 
2Sa 22:3 
Ps 33:20 
Ps 84:11 
Ro 13:12,14 
2Co 6:7 
Eph 6:11,16 
2Ti 1:7
Army 
2Ki 6:17 
Song 6:4 
Isa 2:4 
Isa 31:1 
Isa 36:9 
Eze 37:10 
Ho 1:7 
Job 3:10 
2Ti 2:3
Arrest 
Ps 142:7 
Isa 24:22 
Mt 4:12 
Mt 21:46 
Mt 16:23 
Ac 26:10
Arrogance 
Le 26:19 
Ps 36:11 
Ps 73:6 
Ps 127:2 
Pr 8:13 
Pr 16:18 
Pr 27:1 
Pr 28:11 
Ec 1:16 
Isa 13:11 
Isa 14:13 
Isa 28:1 
Jer 9:23 
Mal 4:1 
Mt 23:12 
Lu 1:51 
Lu 14:11 
2Co 10:5 
2Th 2:4 
2Ti 3:2 
Jas 4:6
Arrow 
2Ki 13:17 
Job 6:4 
Ps 64:7 
Ps 91:5 
Ps 127:4 
Pr 25:18 
Jer 9:8
Art 
2Ch 24:13 
Ezr 7:27 
Ps 19:1 
Ps 33:3 
Isa 60:13 
Eze 27:4 
Da 1:17 
Jas 1:17
Artisan 
Ex 31:3 
1Ch 4:14 
1Ch 22:15 
Ps 90:17 
Ps 137:9 
1Co 4:12 
2Ti 2:15
Ascension 
Ps 24:3 
Ps 150:6 
Lu 24:51 
Joh 3:13 
Joh 20:17 
Eph 4:8 
Heb 4:14 
Heb 9:24 
1Pe 3:22
Asceticism 
Le 19:28 
2Sa 12:23 
Da 9:3 
Jon 3:5 
Mic 6:7 
Mt 3:4 
Mt 8:20 
Lu 5:16 
Lu 14:26 
Lu 18:12 
Joh 1:23 
Ro 8:13 
Ga 5:24
Ash Wednesday 
Ge 18:27 
2Sa 13:19 
Job 30:19 
Job 42:6 
Ps 39:8 
Ps 103:11 
Pr 5:22 
Isa 1:18 
Isa 61:1,3 
Jer 4:8 
Da 9:3 
Lu 8:25 
Ro 8:13 
2Co 12:9 
Eph 4:24
Ashes 
Ge 18:27 
Job 30:19 
Job 42:6 
Isa 61:3
Aspiration 
Ge 11:4 
Ps 24:9 
Ps 25:1 
Ps 42:2 
Ps 62:1 
Ps 121:1 
Ps 141:8 
Isa 40:26 
Mt 5:6 
Lu 14:10 
Php 3:12-14 
Col 3:1,2
Ass 
Ex 20:17 
Ex 23:4 
Nu 22:23 
Jg 15:16 
Job 11:12 
Job 24:3 
Isa 1:3 
Jer 22:19 
Zec 1:9 
Lu 13:15 
Joh 12:17 
2Pe 2:6
Assassin 
Ge 4:8 
Ge 49:6 
Ex 2:12 
Ex 20:13 
Jg 4:21 
2Sa 4:11 
Ne 6:10 
Job 24:14 
Ps 10:8 
Ps 94:6 
Mt 2:16 
Mt 15:19 
Joh 10:10 
Ac 3:15 
Ac 7:28
Assault 
Nu 13:30 
De 9:23 
Jos 6:16 
Jg 20:18 
2Ki 10:3 
Ne 4:14 
Ps 27:3 
Ps 35:1 
Ps 56:2 
Pr 21:22 
Ec 9:14
Assembly 
Ps 26:12 
Ps 89:7 
Ps 111:1 
Isa 43:9 
Eze 44:24 
Heb 10:25 
Heb 12:22
Assent 
De 27:16 
Pr 1:10 
Am 3:3 
Zep 3:9 
Lu 14:18 
Ac 24:9 
Ro 7:16 
2Co 1:19 
Jas 5:12
Assistance 
Ex 23:4 
1Sa 2:8 
2Ki 6:17 
Job 6:13 
Ps 46:1 
Ps 102:10 
Ro 8:26 
Ro 16:2 
Heb 2:18
Association 
2Sa 3:13 
Ps 50:5 
Ps 133:1 
Isa 8:9 
Isa 43:9 
Am 3:3 
Mt 18:20 
Mt 24:31 
Mr 6:30 
Joh 10:16 
Joh 11:52 
Ac 17:26 
Eph 4:25 
Col 3:5 
Heb 10:25 
Re 16:16 
Re 19:17
Assurance 
Job 13:15 
Ps 65:5 
Ps 118:8 
Ps 112:7 
Isa 30:5 
Isa 32:17 
Jer 14:13 
Col 2:2 
1Th 1:5 
Heb 3:6 
Heb 6:11 
Heb 10:22,35 
1Jo 3:19 
1Jo 5:14
Astonishment 
Le 26:32 
Job 18:20 
Job 21:5 
Ps 71:7 
Ps 139:14 
Eze 27:35 
Mt 7:28 
Mt 15:31 
Mr 6:51 
Mr 10:24 
Lu 9:43 
Ac 2:7 
Re 17:8
Asylum 
Nu 35:6 
Jos 20:3 
1Sa 13:6 
Job 11:18 
Job 24:8 
Ps 11:1 
Ps 59:16 
Ps 61:3 
Ps 104:18 
Isa 4:6 
Isa 14:30
Atheism 
Job 2:9 
Job 15:13 
Ps 10:4 
Ps 14:1 
Ho 13:16 
Ac 5:39 
Ro 8:7 
2Pe 2:1 
Jude 1:25
Athlete 
Ge 6:4 
Ge 30:8 
Ge 32:24 
Jg 14:5,6 
Jg 16:6 
1Sa 2:9 
Job 16:14 
Ps 19:5 
Ec 9:11 
Isa 48:4 
1Co 9:24 
Eph 6:12 
Php 3:14 
2Ti 2:5
Atmosphere 
Job 41:16 
Ps 1:4 
Pr 30:19 
Ec 10:20 
Mt 13:32 
Joh 3:8 
1Co 9:26 
1Co 14:9 
1Th 4:17 
Jude 1:12 
Re 9:2
Atonement 
2Sa 21:3 
Ps 130:7 
Isa 53:5 
Joh 1:29 
Ro 5:11,18,20 
1Co 15:3,22 
2Co 5:18,21 
1Th 4:14 
Heb 2:17 
1Jo 1:7
Atrophy 
Job 14:10 
Ps 37:2 
Ps 90:6 
Ps 129:6 
Ps 143:3 
Isa 40:8,24 
Lu 8:6
Attachment 
De 20:1 
Ru 1:16,17 
1Sa 18:1 
2Sa 15:21 
Pr 18:24 
Jer 50:5 
Ho 11:4 
Mt 19:6 
Lu 22:33 
Joh 15:13 
1Co 1:10 
1Co 6:17 
Eph 4:3 
Php 1:13 
Col 3:14 
Col 4:3 
Phm 1:1
Re 2:10
Attack 
1Sa 4:9 
1Sa 17:47 
1Sa 18:17 
2Sa 1:25 
Ps 24:8 
Ps 63:10 
Ps 91:7 
Ps 140:7 
Ec 9:11 
Isa 37:7 
Eze 30:17 
Eze 32:12 
Joh 18:36 
1Co 14:8 
1Ti 6:12 
2Ti 2:4 
2Ti 4:7 
Heb 11:34
Attainment 
Ge 11:4 
Ps 36:5 
Ps 119:104 
Ps 139:6 
Pr 1:5 
Ho 8:5 
Mt 16:26 
Lu 19:16 
Php 3:11,16 
1Ti 6:6
Attendance 
1Ki 18:21 
2Ch 6:40 
Ps 17:1 
Ps 46:1 
Pr 4:1 
Mt 4:11 
Lu 22:27 
Joh 12:26 
Ac 10:33 
Ro 12:7 
Ro 13:6 
1Co 7:35 
2Co 3:9 
Ga 3:5 
1Th 2:19 
Heb 1:14
Attention 
1Sa 3:9 
2Ch 6:40 
Ne 8:3 
Ps 17:1 
Ps 119:9 
Pr 4:1,20 
Isa 1:2 
Jer 6:17 
Mic 1:2 
Ro 13:6 
1Co 7:35 
1Ti 4:13
Attire 
Job 29:14 
Ps 73:6 
Ps 102:26 
Ps 104:1 
Ps 132:18 
Isa 1:1-66:24; 51:8 
Mt 3:4 
Mt 1:1-28:20; 9:16 
Mt 1:1-28:20,3 
Lu 7:25 
Ac 20:33 
1Ti 2:8,9
Attitude 
Job 40:11 
Ps 18:27 
Ps 101:5 
Pr 16:2 
Pr 18:24 
Pr 21:4 
Pr 29:22 
Jon 4:4 
Mic 6:8 
Mt 5:5,7,22 
Mt 12:30 
Joh 15:14 
Ac 20:19 
Ro 1:16 
Php 4:13 
Col 3:12 
1Pe 5:5
Attraction 
Nu 24:5 
De 30:17,18 
2Sa 22:17 
Ps 45:2 
Ps 48:2 
Ec 3:11 
Song 1:4 
Isa 52:7 
Jer 31:3 
Ho 11:4 
Mt 4:25 
Lu 22:54 
Joh 12:32 
Ac 20:30 
Re 19:14
Audacity 
De 1:17 
2Sa 13:28 
Ps 3:6 
Pr 28:1 
Isa 51:7 
Ac 4:29 
Ro 5:7 
2Co 11:21 
1Th 2:2 
Heb 4:16 
1Jo 4:17
Audience 
Ex 11:2 
Ex 24:7 
De 5:22 
1Ch 28:8 
Ne 1:11 
Job 30:28 
Job 34:10 
Job 37:2 
Ps 111:1 
Isa 8:9 
Isa 32:3 
Isa 49:1 
Jer 22:29 
Mic 1:2 
Ac 13:16
Auspices 
Ge 24:40 
Ex 33:14 
2Ch 32:22 
Ps 5:11 
Ps 20:5 
Ps 48:14 
Ps 60:4 
Song 2:4 
Isa 13:2 
Jer 3:4 
Mic 4:5 
Joh 10:25 
Ac 4:7
Austerity 
Mt 25:24 
Lu 18:11 
Lu 19:21 
Ro 11:22 
Ro 12:3 
1Th 5:8 
1Ti 3:8 
Tit 2:2 
1Pe 1:13 
1Pe 5:8
Authenticity 
1Ki 10:6 
Es 9:29 
Job 4:17 
Job 11:4 
Ps 12:6 
Ps 62:8 
Ps 119:160 
Pr 1:1-31:31; 30:5 
Jer 28:15 
Mt 21:23 
Mt 22:16 
Mt 24:11 
Joh 5:26,27,32 
2Co 13:6 
1Jo 5:20 
Re 19:9
Author 
Jg 5:14 
Es 9:32 
Job 19:23 
Job 31:35 
Ps 45:1 
Ec 12:12 
Isa 29:18 
Isa 34:16 
Joh 21:25 
1Co 14:33 
Heb 5:9 
Heb 12:2 
Re 1:11 
Re 5:2
Authority 
Jos 24:24 
Pr 29:2 
Mt 7:29 
Mt 8:9 
Mt 20:25 
Mr 1:27 
Mr 11:28 
Lu 9:1 
Lu 19:17 
Ac 1:7 
Eph 6:1 
Col 3:22 
1Ti 2:1,2 
Heb 13:17 
Re 2:26
Autocrat 
1Ch 29:11 
Ps 72:8 
Da 2:37 
Mt 8:9 
Mt 20:25 
Lu 19:17 
1Co 15:27,28
Autumn 
Ps 1:3 
Ps 65:11 
Ps 126:5 
Pr 3:9 
Isa 1:30 
Isa 9:3 
Jer 8:20 
Mt 13:39 
Ac 14:17 
2Co 9:6 
Ga 6:9 
Jude 1:12 
Re 14:15
Avarice 
Pr 1:19 
Pr 15:27 
Isa 56:11 
Mt 6:33 
Joh 2:16 
1Ti 3:3 
1Ti 6:10
Aversion 
2Ch 30:9 
Ps 101:3 
Song 6:5 
Isa 10:2 
Jer 3:19 
Jer 25:5 
Eze 14:6 
Am 1:3 
Ro 1:28 
2Ti 4:4
Avoidance 
Job 1:1 
Ps 34:13 
Ps 119:101 
Pr 1:10 
Pr 4:14,15 
Ac 20:27 
Ro 16:17 
1Th 5:22 
1Th 5:28 
2Ti 2:23 
Tit 3:9 
1Pe 2:11 
1Pe 3:10,11
Avowal 
2Ch 14:11 
Ps 32:5 
Ps 44:4 
Mt 10:32 
Mt 16:18 
Mr 8:29 
Ac 24:14 
Ro 10:9,10 
1Ti 6:13 
1Jo 1:9 
1Jo 4:2
Awakening 
Ps 3:5 
Ps 17:15 
Ps 30:5 
Ps 119:147 
Ps 130:6 
Ps 139:18 
Pr 6:9-11 
Isa 51:9 
Jon 1:6 
Zec 4:1 
Lu 9:32 
Ro 13:11 
1Co 15:34 
Eph 5:14
Award 
Ps 58:11 
Pr 11:18 
Pr 14:24 
Mt 5:12 
Mt 16:27 
Mt 27:29 
1Co 3:14 
1Co 9:24,25 
Php 3:14 
Heb 2:9 
Heb 6:15 
Jas 1:12 
1Pe 5:4 
Re 21:10
Awareness 
Job 31:4 
Song 6:12 
Isa 11:9 
Jer 50:24 
Mt 24:50 
Lu 9:32 
Lu 11:44 
Joh 3:3 
Ac 2:4 
Ac 9:3,4,8 
Ac 11:5 
1Co 4:6 
Col 1:10
Awe 
De 6:13 
Job 37:22 
Ps 4:4 
Ps 19:9 
Ps 33:8 
Ps 34:9 
Ps 9:20 
Ps 111:9,10 
Ps 119:131 
Pr 3:7 
Isa 6:3 
Php 2:10 
Heb 12:28 
Re 4:8
Axe 
De 20:19,20 
Job 14:7 
Ps 74:5 
Pr 9:1 
Isa 10:15,33 
Jer 10:3 
Jer 22:7 
Eze 26:9 
Mt 3:10 
Lu 13:7