Jonah.1.1	2Kgs.14.25	6
Jonah.1.1	Luke.11.29-Luke.11.30	4
Jonah.1.1	Luke.11.32	4
Jonah.1.1	Matt.12.39-Matt.12.41	3
Jonah.1.1	Matt.16.4	3
Jonah.1.2	Gen.10.11	5
Jonah.1.2	2Kgs.19.36	4
Jonah.1.2	Jonah.3.2	4
Jonah.1.2	Nah.1.1	4
Jonah.1.2	Isa.58.1	3
Jonah.1.2	Jonah.4.11	3
Jonah.1.2	Rev.18.5	3
Jonah.1.2	Gen.18.20-Gen.18.21	2
Jonah.1.2	Ezra.9.6	2
Jonah.1.2	Jer.1.7-Jer.1.10	2
Jonah.1.2	Ezek.2.7	2
Jonah.1.2	Ezek.3.5-Ezek.3.9	2
Jonah.1.2	Mic.3.8	2
Jonah.1.2	Nah.2.1-Nah.2.3	2
Jonah.1.2	Zeph.2.13-Zeph.2.15	2
Jonah.1.2	Matt.10.18	2
Jonah.1.2	Jas.5.4	2
Jonah.1.3	Josh.19.46	6
Jonah.1.3	Gen.4.16	5
Jonah.1.3	Acts.9.36	5
Jonah.1.3	Isa.23.1	4
Jonah.1.3	Isa.23.6	3
Jonah.1.3	Isa.23.10	3
Jonah.1.3	Jonah.4.2	3
Jonah.1.3	Gen.3.8	2
Jonah.1.3	Exod.4.13-Exod.4.14	2
Jonah.1.3	1Kgs.19.3	2
Jonah.1.3	1Kgs.19.9	2
Jonah.1.3	2Chr.2.16	2
Jonah.1.3	Job.1.12	2
Jonah.1.3	Job.2.7	2
Jonah.1.3	Ps.139.7-Ps.139.12	2
Jonah.1.3	Isa.2.16	2
Jonah.1.3	Isa.60.9	2
Jonah.1.3	Jer.20.7-Jer.20.9	2
Jonah.1.3	Ezek.3.14	2
Jonah.1.3	Ezek.27.12	2
Jonah.1.3	Luke.9.62	2
Jonah.1.3	Acts.9.43	2
Jonah.1.3	Acts.15.38	2
Jonah.1.3	Acts.26.19	2
Jonah.1.3	1Cor.9.16	2
Jonah.1.3	2Thess.1.9	2
Jonah.1.4	Ps.107.23-Ps.107.31	3
Jonah.1.4	Ps.135.7	3
Jonah.1.4	Exod.10.13	2
Jonah.1.4	Exod.10.19	2
Jonah.1.4	Exod.14.21	2
Jonah.1.4	Exod.15.10	2
Jonah.1.4	Num.11.31	2
Jonah.1.4	Amos.4.13	2
Jonah.1.4	Matt.8.24-Matt.8.27	2
Jonah.1.4	Acts.27.13-Acts.27.20	2
Jonah.1.5	Acts.27.18-Acts.27.19	5
Jonah.1.5	Acts.27.38	4
Jonah.1.5	1Kgs.18.26	3
Jonah.1.5	Judg.16.19	2
Jonah.1.5	1Sam.24.3	2
Jonah.1.5	Job.2.4	2
Jonah.1.5	Isa.44.17-Isa.44.20	2
Jonah.1.5	Isa.45.20	2
Jonah.1.5	Jer.2.28	2
Jonah.1.5	Hos.7.14	2
Jonah.1.5	Jonah.1.6	2
Jonah.1.5	Jonah.1.14	2
Jonah.1.5	Jonah.1.16	2
Jonah.1.5	Matt.25.5	2
Jonah.1.5	Matt.26.40-Matt.26.41	2
Jonah.1.5	Matt.26.43	2
Jonah.1.5	Matt.26.45	2
Jonah.1.5	Luke.22.45-Luke.22.46	2
Jonah.1.5	Phil.3.7-Phil.3.8	2
Jonah.1.6	Jonah.3.9	4
Jonah.1.6	2Sam.12.22	3
Jonah.1.6	Amos.5.15	3
Jonah.1.6	Esth.4.16	2
Jonah.1.6	Ps.78.34	2
Jonah.1.6	Ps.107.6	2
Jonah.1.6	Ps.107.12-Ps.107.13	2
Jonah.1.6	Ps.107.18-Ps.107.20	2
Jonah.1.6	Ps.107.28-Ps.107.29	2
Jonah.1.6	Isa.3.15	2
Jonah.1.6	Jer.2.27-Jer.2.28	2
Jonah.1.6	Ezek.18.2	2
Jonah.1.6	Joel.2.11	2
Jonah.1.6	Mark.4.37-Mark.4.41	2
Jonah.1.6	Acts.21.13	2
Jonah.1.6	Rom.13.11	2
Jonah.1.6	Eph.5.14	2
Jonah.1.7	Prov.16.33	4
Jonah.1.7	Num.32.23	3
Jonah.1.7	Josh.7.10	3
Jonah.1.7	Josh.7.13-Josh.7.18	3
Jonah.1.7	1Sam.10.20-1Sam.10.21	3
Jonah.1.7	1Sam.14.41-1Sam.14.42	3
Jonah.1.7	Acts.1.23-Acts.1.26	3
Jonah.1.7	Josh.22.16-Josh.22.20	2
Jonah.1.7	Judg.7.13-Judg.7.14	2
Jonah.1.7	Judg.20.9-Judg.20.10	2
Jonah.1.7	1Sam.14.38-1Sam.14.39	2
Jonah.1.7	Esth.3.7	2
Jonah.1.7	Job.10.2	2
Jonah.1.7	Ps.22.18	2
Jonah.1.7	Isa.41.6-Isa.41.7	2
Jonah.1.7	Matt.27.35	2
Jonah.1.7	Acts.13.19	2
Jonah.1.7	1Cor.4.5	2
Jonah.1.8	Gen.47.3	4
Jonah.1.8	1Sam.30.13	4
Jonah.1.8	Josh.7.19	3
Jonah.1.8	1Sam.14.43	3
Jonah.1.8	Jas.5.16	2
Jonah.1.9	Gen.14.13	3
Jonah.1.9	2Kgs.17.25	3
Jonah.1.9	2Kgs.17.28	3
Jonah.1.9	Ezra.1.2	3
Jonah.1.9	Neh.1.4	3
Jonah.1.9	Neh.9.6	3
Jonah.1.9	Ps.136.26	3
Jonah.1.9	Rev.11.13	3
Jonah.1.9	Gen.39.14	2
Jonah.1.9	2Kgs.17.32-2Kgs.17.35	2
Jonah.1.9	Ezra.5.11	2
Jonah.1.9	Ezra.7.12-Ezra.7.13	2
Jonah.1.9	Neh.2.4	2
Jonah.1.9	Job.1.9	2
Jonah.1.9	Ps.95.5-Ps.95.6	2
Jonah.1.9	Ps.146.5-Ps.146.6	2
Jonah.1.9	Dan.2.18-Dan.2.19	2
Jonah.1.9	Dan.2.44	2
Jonah.1.9	Hos.3.5	2
Jonah.1.9	Acts.14.15	2
Jonah.1.9	Acts.17.23-Acts.17.25	2
Jonah.1.9	Acts.27.23	2
Jonah.1.9	Phil.3.5	2
Jonah.1.9	Rev.15.4	2
Jonah.1.9	Rev.16.11	2
Jonah.1.10	Jonah.1.3	4
Jonah.1.10	Job.27.22	3
Jonah.1.10	Josh.7.25	2
Jonah.1.10	2Sam.24.3	2
Jonah.1.10	Dan.5.6-Dan.5.9	2
Jonah.1.10	John.19.8	2
Jonah.1.11	1Sam.6.2-1Sam.6.3	2
Jonah.1.11	2Sam.21.1-2Sam.21.6	2
Jonah.1.11	2Sam.24.11-2Sam.24.13	2
Jonah.1.11	Mic.6.6-Mic.6.7	2
Jonah.1.12	2Sam.24.17	4
Jonah.1.12	1Chr.21.17	4
Jonah.1.12	Josh.7.12	2
Jonah.1.12	Josh.7.20-Josh.7.21	2
Jonah.1.12	Eccl.9.18	2
Jonah.1.12	John.11.50	2
Jonah.1.12	Acts.27.24	2
Jonah.1.13	Prov.21.30	3
Jonah.1.13	Job.34.29	2
Jonah.1.14	Ps.115.3	5
Jonah.1.14	Deut.21.8	4
Jonah.1.14	Ps.107.28	3
Jonah.1.14	Ps.135.6	3
Jonah.1.14	Dan.4.34-Dan.4.35	3
Jonah.1.14	Jonah.1.16	3
Jonah.1.14	Gen.9.6	2
Jonah.1.14	Isa.26.16	2
Jonah.1.14	Jonah.1.5	2
Jonah.1.14	Matt.11.26	2
Jonah.1.14	Acts.28.4	2
Jonah.1.14	Eph.1.9	2
Jonah.1.14	Eph.1.11	2
Jonah.1.15	Ps.107.29	4
Jonah.1.15	Luke.8.24	4
Jonah.1.15	Ps.93.3-Ps.93.4	3
Jonah.1.15	Josh.7.24-Josh.7.26	2
Jonah.1.15	2Sam.21.8-2Sam.21.9	2
Jonah.1.15	Ps.65.7	2
Jonah.1.15	Ps.89.9	2
Jonah.1.15	Matt.8.26	2
Jonah.1.16	Gen.8.20	3
Jonah.1.16	Ps.50.14	3
Jonah.1.16	Gen.28.20	2
Jonah.1.16	Judg.13.16	2
Jonah.1.16	2Kgs.5.17	2
Jonah.1.16	Ps.66.13-Ps.66.16	2
Jonah.1.16	Ps.107.22	2
Jonah.1.16	Ps.116.14	2
Jonah.1.16	Eccl.5.4	2
Jonah.1.16	Isa.26.9	2
Jonah.1.16	Isa.60.5-Isa.60.7	2
Jonah.1.16	Dan.4.34-Dan.4.37	2
Jonah.1.16	Dan.6.26	2
Jonah.1.16	Jonah.1.10	2
Jonah.1.16	Mark.4.31	2
Jonah.1.16	Acts.5.11	2
Jonah.1.17	Matt.12.40	7
Jonah.1.17	Matt.16.4	6
Jonah.1.17	Luke.11.30	5
Jonah.1.17	Gen.1.21	2
Jonah.1.17	Ps.104.25-Ps.104.26	2
Jonah.1.17	Jonah.4.6	2
Jonah.1.17	Hab.3.2	2
Jonah.2.1	Job.13.15	3
Jonah.2.1	Ps.130.1-Ps.130.2	3
Jonah.2.1	Lam.3.53-Lam.3.56	3
Jonah.2.1	2Chr.33.11-2Chr.33.13	2
Jonah.2.1	Ps.50.15	2
Jonah.2.1	Ps.91.15	2
Jonah.2.1	Isa.26.16	2
Jonah.2.1	Hos.5.15-Hos.6.3	2
Jonah.2.1	Acts.16.24-Acts.16.25	2
Jonah.2.1	Jas.5.13	2
Jonah.2.2	Ps.120.1	6
Jonah.2.2	Ps.34.6	5
Jonah.2.2	Ps.65.2	5
Jonah.2.2	Ps.18.4-Ps.18.6	4
Jonah.2.2	Ps.22.24	3
Jonah.2.2	Ps.86.13	3
Jonah.2.2	Ps.88.1-Ps.88.7	3
Jonah.2.2	Matt.12.40	3
Jonah.2.2	Gen.32.7-Gen.32.12	2
Jonah.2.2	Gen.32.24-Gen.32.28	2
Jonah.2.2	1Sam.1.16	2
Jonah.2.2	1Sam.30.6	2
Jonah.2.2	Ps.4.1	2
Jonah.2.2	Ps.16.10	2
Jonah.2.2	Ps.61.2	2
Jonah.2.2	Ps.116.3	2
Jonah.2.2	Ps.142.1-Ps.142.3	2
Jonah.2.2	Isa.14.9	2
Jonah.2.2	Luke.22.44	2
Jonah.2.2	Acts.2.27	2
Jonah.2.2	Heb.5.7	2
Jonah.2.3	Ps.42.7	6
Jonah.2.3	Ps.69.1-Ps.69.2	3
Jonah.2.3	Ps.69.14-Ps.69.15	3
Jonah.2.3	Lam.3.54	3
Jonah.2.3	Ps.88.5-Ps.88.8	2
Jonah.2.3	Jonah.1.12-Jonah.1.16	2
Jonah.2.4	Ps.31.22	5
Jonah.2.4	Ps.5.7	4
Jonah.2.4	2Chr.6.38	3
Jonah.2.4	Isa.38.17	3
Jonah.2.4	Jer.7.15	3
Jonah.2.4	Dan.6.10	3
Jonah.2.4	1Kgs.8.38-1Kgs.8.39	2
Jonah.2.4	1Kgs.8.42	2
Jonah.2.4	1Kgs.8.48	2
Jonah.2.4	1Kgs.9.7	2
Jonah.2.4	Ps.77.1-Ps.77.7	2
Jonah.2.4	Isa.38.10-Isa.38.14	2
Jonah.2.4	Isa.49.14	2
Jonah.2.4	Jer.15.1	2
Jonah.2.4	Ezek.37.11	2
Jonah.2.5	Ps.69.1-Ps.69.2	5
Jonah.2.5	Ps.40.2	3
Jonah.2.5	Lam.3.54	3
Jonah.2.6	Job.33.28	3
Jonah.2.6	Ps.16.10	3
Jonah.2.6	Ps.30.3	3
Jonah.2.6	Isa.38.17	3
Jonah.2.6	Deut.32.22	2
Jonah.2.6	Job.33.24	2
Jonah.2.6	Job.38.4-Job.38.11	2
Jonah.2.6	Ps.30.9	2
Jonah.2.6	Ps.55.23	2
Jonah.2.6	Ps.65.6	2
Jonah.2.6	Ps.104.6	2
Jonah.2.6	Ps.104.8	2
Jonah.2.6	Ps.143.7	2
Jonah.2.6	Prov.8.25-Prov.8.29	2
Jonah.2.6	Isa.40.12	2
Jonah.2.6	Hab.3.6	2
Jonah.2.6	Hab.3.10	2
Jonah.2.6	Acts.13.33-Acts.13.37	2
Jonah.2.7	2Chr.30.27	5
Jonah.2.7	Ps.11.4	4
Jonah.2.7	Ps.18.6	4
Jonah.2.7	Ps.65.4	3
Jonah.2.7	Ps.77.10-Ps.77.11	3
Jonah.2.7	Ps.143.5	3
Jonah.2.7	Jonah.2.4	3
Jonah.2.7	Mic.1.2	3
Jonah.2.7	Hab.2.20	3
Jonah.2.7	1Sam.30.6	2
Jonah.2.7	Ps.20.7	2
Jonah.2.7	Ps.22.14	2
Jonah.2.7	Ps.27.13	2
Jonah.2.7	Ps.42.5	2
Jonah.2.7	Ps.42.11	2
Jonah.2.7	Ps.43.5	2
Jonah.2.7	Ps.119.81-Ps.119.83	2
Jonah.2.7	Isa.50.10	2
Jonah.2.7	Lam.3.21-Lam.3.26	2
Jonah.2.7	2Cor.1.9-2Cor.1.10	2
Jonah.2.7	Heb.12.3	2
Jonah.2.8	2Kgs.17.15	5
Jonah.2.8	Ps.31.6	5
Jonah.2.8	Jer.2.13	4
Jonah.2.8	Jer.10.8	4
Jonah.2.8	1Sam.12.21	3
Jonah.2.8	Jer.10.14-Jer.10.15	2
Jonah.2.8	Jer.16.19	2
Jonah.2.8	Hab.2.18-Hab.2.20	2
Jonah.2.9	Ps.3.8	7
Jonah.2.9	Ps.50.14	6
Jonah.2.9	Hos.14.2	5
Jonah.2.9	Ps.50.23	4
Jonah.2.9	Eccl.5.4-Eccl.5.5	4
Jonah.2.9	Isa.45.17	4
Jonah.2.9	Job.22.27	3
Jonah.2.9	Ps.37.39-Ps.37.40	3
Jonah.2.9	Ps.68.20	3
Jonah.2.9	Jer.33.11	3
Jonah.2.9	Acts.4.12	3
Jonah.2.9	Heb.13.15	3
Jonah.2.9	Rev.7.10	3
Jonah.2.9	Gen.35.3	2
Jonah.2.9	Deut.23.18	2
Jonah.2.9	2Sam.15.7	2
Jonah.2.9	Ps.66.13-Ps.66.15	2
Jonah.2.9	Ps.107.22	2
Jonah.2.9	Ps.116.17-Ps.116.18	2
Jonah.2.9	John.4.22	2
Jonah.2.9	Rom.12.1	2
Jonah.2.10	Jonah.1.17	3
Jonah.2.10	Matt.8.8-Matt.8.9	3
Jonah.2.10	Gen.1.3	2
Jonah.2.10	Gen.1.7	2
Jonah.2.10	Gen.1.9	2
Jonah.2.10	Gen.1.11	2
Jonah.2.10	Gen.1.14	2
Jonah.2.10	Ps.33.9	2
Jonah.2.10	Ps.105.31	2
Jonah.2.10	Ps.105.34	2
Jonah.2.10	Isa.50.2	2
Jonah.2.10	Matt.8.26-Matt.8.27	2
Jonah.3.1	Jonah.1.1	2
Jonah.3.1	John.21.15-John.21.17	2
Jonah.3.2	Ezek.2.7	4
Jonah.3.2	Jer.1.17	3
Jonah.3.2	Jonah.1.2	3
Jonah.3.2	Jer.15.19-Jer.15.21	2
Jonah.3.2	Ezek.3.17	2
Jonah.3.2	Jonah.3.3	2
Jonah.3.2	Zeph.2.13-Zeph.2.15	2
Jonah.3.2	Matt.3.8	2
Jonah.3.2	John.5.14	2
Jonah.3.3	Gen.22.3	2
Jonah.3.3	Gen.30.8	2
Jonah.3.3	Ps.36.6	2
Jonah.3.3	Ps.80.10	2
Jonah.3.3	Matt.21.28-Matt.21.29	2
Jonah.3.3	2Tim.4.11	2
Jonah.3.4	Deut.18.22	4
Jonah.3.4	Jer.18.7-Jer.18.10	3
Jonah.3.4	2Kgs.20.1	2
Jonah.3.4	2Kgs.20.6	2
Jonah.3.4	Jonah.3.10	2
Jonah.3.5	Luke.11.32	7
Jonah.3.5	2Chr.20.3	3
Jonah.3.5	Dan.9.3	3
Jonah.3.5	Joel.1.14	3
Jonah.3.5	Joel.2.12-Joel.2.17	3
Jonah.3.5	Matt.12.41	3
Jonah.3.5	Exod.9.18-Exod.9.21	2
Jonah.3.5	Ezra.8.21	2
Jonah.3.5	Jer.31.34	2
Jonah.3.5	Jer.36.9	2
Jonah.3.5	Jer.42.1	2
Jonah.3.5	Jer.42.8	2
Jonah.3.5	Acts.8.10	2
Jonah.3.5	Acts.27.25	2
Jonah.3.5	Heb.11.1	2
Jonah.3.5	Heb.11.7	2
Jonah.3.6	Esth.4.1-Esth.4.4	4
Jonah.3.6	Job.2.8	4
Jonah.3.6	Ezek.27.30-Ezek.27.31	3
Jonah.3.6	Jas.4.6-Jas.4.10	3
Jonah.3.6	Ps.2.10-Ps.2.12	2
Jonah.3.6	Jer.6.26	2
Jonah.3.6	Jer.13.18	2
Jonah.3.6	Matt.11.21	2
Jonah.3.6	Luke.10.13	2
Jonah.3.6	Jas.1.9-Jas.1.10	2
Jonah.3.6	Job.42.6	1
Jonah.3.6	Lam.3.29	1
Jonah.3.6	Dan.9.3	1
Jonah.3.6	Mic.1.10	1
Jonah.3.7	2Chr.20.3	5
Jonah.3.7	Ezra.8.21	3
Jonah.3.7	Joel.1.18	3
Jonah.3.7	Jonah.3.5	3
Jonah.3.7	Joel.2.15-Joel.2.16	2
Jonah.3.7	Rom.8.20-Rom.8.22	2
Jonah.3.8	Isa.55.6-Isa.55.7	4
Jonah.3.8	Jonah.1.6	4
Jonah.3.8	Isa.1.16-Isa.1.19	3
Jonah.3.8	Isa.59.6	3
Jonah.3.8	Jonah.1.14	3
Jonah.3.8	Ps.130.1-Ps.130.2	2
Jonah.3.8	Isa.58.6	2
Jonah.3.8	Jer.18.11	2
Jonah.3.8	Ezek.18.21-Ezek.18.24	2
Jonah.3.8	Ezek.18.27-Ezek.18.28	2
Jonah.3.8	Ezek.18.30-Ezek.18.32	2
Jonah.3.8	Ezek.33.11	2
Jonah.3.8	Dan.4.27	2
Jonah.3.8	Matt.3.8	2
Jonah.3.8	Acts.3.19	2
Jonah.3.8	Acts.26.20	2
Jonah.3.9	2Sam.12.22	6
Jonah.3.9	Ps.106.45	2
Jonah.3.9	Joel.2.13-Joel.2.14	2
Jonah.3.9	Amos.5.15	2
Jonah.3.9	Jonah.1.6	2
Jonah.3.9	Luke.15.18-Luke.15.20	2
Jonah.3.10	Jer.18.8	5
Jonah.3.10	Amos.7.6	4
Jonah.3.10	Exod.32.14	3
Jonah.3.10	1Kgs.21.27-1Kgs.21.29	3
Jonah.3.10	Amos.7.3	3
Jonah.3.10	Job.33.27-Job.33.28	2
Jonah.3.10	Jer.31.18-Jer.31.20	2
Jonah.3.10	Joel.2.13	2
Jonah.3.10	Jonah.4.2	2
Jonah.3.10	Luke.11.32	2
Jonah.3.10	Luke.15.20	2
Jonah.4.1	Jonah.4.9	5
Jonah.4.1	Jonah.4.4	4
Jonah.4.1	Luke.15.28	4
Jonah.4.1	Matt.20.15	3
Jonah.4.1	Luke.7.39	2
Jonah.4.1	Acts.13.46	1
Jonah.4.1	Jas.4.5-Jas.4.6	1
Jonah.4.2	Ps.86.5	6
Jonah.4.2	Ps.86.15	6
Jonah.4.2	Exod.34.6-Exod.34.7	5
Jonah.4.2	Jonah.1.3	5
Jonah.4.2	Num.14.18-Num.14.19	4
Jonah.4.2	Ps.145.8	4
Jonah.4.2	Joel.2.13-Joel.2.14	4
Jonah.4.2	Exod.32.14	3
Jonah.4.2	1Kgs.19.4	3
Jonah.4.2	Ps.78.38	3
Jonah.4.2	Ps.90.13	3
Jonah.4.2	Jer.18.8	3
Jonah.4.2	Jer.20.7	3
Jonah.4.2	Hos.11.8-Hos.11.9	3
Jonah.4.2	Amos.7.3	3
Jonah.4.2	Amos.7.6	3
Jonah.4.2	Jonah.3.10	3
Jonah.4.2	Mic.7.18	3
Jonah.4.2	Luke.10.29	1
Jonah.4.3	1Kgs.19.4	5
Jonah.4.3	Eccl.7.1	4
Jonah.4.3	Job.6.8-Job.6.9	3
Jonah.4.3	Job.7.15-Job.7.16	3
Jonah.4.3	Num.11.15	2
Jonah.4.3	Num.20.3	2
Jonah.4.3	Job.3.20-Job.3.21	2
Jonah.4.3	Jer.20.14-Jer.20.18	2
Jonah.4.3	Jonah.4.8	2
Jonah.4.3	1Cor.9.15	2
Jonah.4.3	Phil.1.21-Phil.1.25	2
Jonah.4.4	Matt.20.15	4
Jonah.4.4	Jonah.4.9	3
Jonah.4.4	Num.20.11-Num.20.12	2
Jonah.4.4	Num.20.24	2
Jonah.4.4	Ps.106.32-Ps.106.33	2
Jonah.4.4	Mic.6.3	2
Jonah.4.4	Jas.1.19-Jas.1.20	2
Jonah.4.5	1Kgs.19.9	3
Jonah.4.5	1Kgs.19.13	3
Jonah.4.5	Gen.19.27-Gen.19.28	2
Jonah.4.5	Isa.57.17	2
Jonah.4.5	Jer.17.15-Jer.17.16	2
Jonah.4.5	Jer.20.9	2
Jonah.4.5	Jonah.1.5	2
Jonah.4.5	Luke.19.41-Luke.19.44	2
Jonah.4.6	Esth.5.9	2
Jonah.4.6	Ps.103.10-Ps.103.14	2
Jonah.4.6	Isa.39.2	2
Jonah.4.6	Amos.6.13	2
Jonah.4.6	Jonah.1.17	2
Jonah.4.6	Luke.10.20	2
Jonah.4.6	1Cor.7.30	2
Jonah.4.6	Prov.23.5	1
Jonah.4.7	Joel.1.12	4
Jonah.4.7	Job.1.21	2
Jonah.4.7	Ps.30.6-Ps.30.7	2
Jonah.4.7	Ps.90.5-Ps.90.6	2
Jonah.4.7	Ps.102.10	2
Jonah.4.7	Isa.40.6-Isa.40.8	2
Jonah.4.8	Ps.121.6	4
Jonah.4.8	Jonah.4.3	4
Jonah.4.8	Isa.49.10	3
Jonah.4.8	Ezek.19.12	3
Jonah.4.8	Lev.10.3	2
Jonah.4.8	1Sam.3.18	2
Jonah.4.8	2Sam.15.25-2Sam.15.26	2
Jonah.4.8	Job.2.10	2
Jonah.4.8	Ps.39.9	2
Jonah.4.8	Song.1.6	2
Jonah.4.8	Jonah.1.4	2
Jonah.4.8	Jonah.1.17	2
Jonah.4.8	Jonah.4.6-Jonah.4.7	2
Jonah.4.8	Rev.3.19	2
Jonah.4.8	Rev.7.16	2
Jonah.4.9	Gen.4.5-Gen.4.14	2
Jonah.4.9	Judg.16.16	2
Jonah.4.9	Job.5.2	2
Jonah.4.9	Job.18.4	2
Jonah.4.9	Job.40.4-Job.40.5	2
Jonah.4.9	Matt.26.38	2
Jonah.4.9	2Cor.7.10	2
Jonah.4.9	Rev.9.6	2
Jonah.4.10	1Sam.20.31	2
Jonah.4.10	Gen.17.12	1
Jonah.4.11	Jonah.1.2	4
Jonah.4.11	Deut.1.39	3
Jonah.4.11	Ps.36.6	3
Jonah.4.11	Matt.18.33	3
Jonah.4.11	Luke.15.28-Luke.15.32	3
Jonah.4.11	Ps.104.14	2
Jonah.4.11	Ps.104.27-Ps.104.28	2
Jonah.4.11	Ps.145.8-Ps.145.9	2
Jonah.4.11	Ps.145.15-Ps.145.16	2
Jonah.4.11	Isa.1.18	2
Jonah.4.11	Jonah.3.2-Jonah.3.3	2
Jonah.4.11	Jonah.3.1