1Pet.1.1	Acts.16.6-Acts.16.7	5
1Pet.1.1	Jas.1.1	4
1Pet.1.1	Deut.4.27	2
1Pet.1.1	Deut.28.64	2
1Pet.1.1	Esth.3.8	2
1Pet.1.1	Ps.44.11	2
1Pet.1.1	Ezek.6.8	2
1Pet.1.1	Matt.4.18	2
1Pet.1.1Pet1	Matt.10.2	2
1Pet.1.1	Matt.24.22	2
1Pet.1.1	John.1.41-John.1.42	2
1Pet.1.1	John.7.35	2
1Pet.1.1	John.11.52	2
1Pet.1.1	John.21.15-John.21.17	2
1Pet.1.1	Acts.2.5-Acts.2.11	2
1Pet.1.1	Acts.6.9	2
1Pet.1.1	Acts.8.4	2
1Pet.1.1	Acts.18.2	2
1Pet.1.1	Acts.18.23	2
1Pet.1.1	Acts.19.10	2
1Pet.1.1	Acts.20.16-Acts.20.18	2
1Pet.1.1	1Cor.16.19	2
1Pet.1.1	2Cor.1.8	2
1Pet.1.1	Gal.1.2	2
1Pet.1.1	Eph.2.12	2
1Pet.1.1	Eph.2.19	2
1Pet.1.1	2Tim.1.15	2
1Pet.1.1	Heb.11.13	2
1Pet.1.1	1Pet.2.11	2
1Pet.1.1	2Pet.1.1	2
1Pet.1.1	Rev.1.11	2
1Pet.1.1	Lev.26.33	1
1Pet.1.1	Deut.32.26	1
1Pet.1.2	Rom.11.2	6
1Pet.1.2	2Thess.2.13	5
1Pet.1.2	Heb.12.24	5
1Pet.1.2	Acts.2.23	4
1Pet.1.2	2Pet.1.2	4
1Pet.1.2	Dan.4.1	3
1Pet.1.2	Rom.1.7	3
1Pet.1.2	2Cor.13.14	3
1Pet.1.2	Heb.10.22	3
1Pet.1.2	1Pet.1.22	3
1Pet.1.2	Jude.1.2	3
1Pet.1.2	Deut.7.6	2
1Pet.1.2	Isa.55.7	2
1Pet.1.2	Isa.65.9	2
1Pet.1.2	Isa.65.22	2
1Pet.1.2	Dan.6.25	2
1Pet.1.2	Matt.24.22	2
1Pet.1.2	Matt.24.24	2
1Pet.1.2	Matt.24.31	2
1Pet.1.2	Mark.13.20	2
1Pet.1.2	Mark.13.22	2
1Pet.1.2	Mark.13.27	2
1Pet.1.2	Luke.18.7	2
1Pet.1.2	John.15.16-John.15.19	2
1Pet.1.2	Acts.15.18	2
1Pet.1.2	Acts.20.32	2
1Pet.1.2	Rom.1.5	2
1Pet.1.2	Rom.8.13	2
1Pet.1.2	Rom.8.29-Rom.8.30	2
1Pet.1.2	Rom.8.33	2
1Pet.1.2	Rom.9.23-Rom.9.24	2
1Pet.1.2	Rom.11.5-Rom.11.7	2
1Pet.1.2	Rom.11.28	2
1Pet.1.2	Rom.15.16	2
1Pet.1.2	Rom.16.19	2
1Pet.1.2	Rom.16.26	2
1Pet.1.2	1Cor.1.30	2
1Pet.1.2	1Cor.6.11	2
1Pet.1.2	2Cor.10.5	2
1Pet.1.2	Eph.1.4-Eph.1.5	2
1Pet.1.2	Col.3.12	2
1Pet.1.2	2Tim.2.10	2
1Pet.1.2	Titus.1.1	2
1Pet.1.2	Heb.5.9	2
1Pet.1.2	Heb.9.19-Heb.9.22	2
1Pet.1.2	Heb.11.28	2
1Pet.1.2	1Pet.2.9	2
1Pet.1.2	2John.1.1	2
1Pet.1.2	2John.1.13	2
1Pet.1.3	1Cor.15.20	5
1Pet.1.3	2Cor.1.3	5
1Pet.1.3	1Pet.1.23	5
1Pet.1.3	Eph.1.3	4
1Pet.1.3	Jas.1.18	4
1Pet.1.3	1Pet.3.21	4
1Pet.1.3	1John.3.3	3
1Pet.1.3	Exod.34.6	2
1Pet.1.3	1Kgs.8.15	2
1Pet.1.3	1Chr.29.10-1Chr.29.13	2
1Pet.1.3	1Chr.29.20	2
1Pet.1.3	Ps.41.13	2
1Pet.1.3	Ps.72.18-Ps.72.19	2
1Pet.1.3	Ps.86.5	2
1Pet.1.3	Ps.86.15	2
1Pet.1.3	Isa.26.19	2
1Pet.1.3	Jonah.4.2	2
1Pet.1.3	John.1.13	2
1Pet.1.3	John.3.3-John.3.8	2
1Pet.1.3	Rom.4.25	2
1Pet.1.3	Rom.5.4-Rom.5.5	2
1Pet.1.3	Rom.5.10	2
1Pet.1.3	Rom.5.15-Rom.5.21	2
1Pet.1.3	Rom.8.11	2
1Pet.1.3	Rom.8.24	2
1Pet.1.3	Rom.12.12	2
1Pet.1.3	Rom.15.13	2
1Pet.1.3	1Cor.13.13	2
1Pet.1.3	Eph.1.7	2
1Pet.1.3	Eph.1.17	2
1Pet.1.3	Eph.2.4	2
1Pet.1.3	Eph.2.6-Eph.2.10	2
1Pet.1.3	Eph.3.20	2
1Pet.1.3	Col.1.23	2
1Pet.1.3	Col.1.27	2
1Pet.1.3	1Thess.1.3	2
1Pet.1.3	1Thess.4.13	2
1Pet.1.3	1Tim.1.14	2
1Pet.1.3	Titus.2.13	2
1Pet.1.3	Titus.3.4-Titus.3.6	2
1Pet.1.3	Heb.3.6	2
1Pet.1.3	Heb.6.18-Heb.6.19	2
1Pet.1.3	1Pet.2.2	2
1Pet.1.3	1John.2.29	2
1Pet.1.3	1John.3.9	2
1Pet.1.3	1John.4.7	2
1Pet.1.3	1John.5.1	2
1Pet.1.3	1John.5.4	2
1Pet.1.3	1John.5.18	2
1Pet.1.4	Col.1.5	4
1Pet.1.4	2Tim.4.8	4
1Pet.1.4	1Pet.5.4	4
1Pet.1.4	Acts.20.32	3
1Pet.1.4	Ps.31.19	2
1Pet.1.4	Isa.40.7-Isa.40.8	2
1Pet.1.4	Ezek.47.12	2
1Pet.1.4	Matt.25.34	2
1Pet.1.4	Acts.26.18	2
1Pet.1.4	Rom.8.17	2
1Pet.1.4	1Cor.9.25	2
1Pet.1.4	1Cor.15.52-1Cor.15.54	2
1Pet.1.4	Gal.3.18	2
1Pet.1.4	Eph.1.11	2
1Pet.1.4	Eph.1.14	2
1Pet.1.4	Eph.1.18	2
1Pet.1.4	Col.1.12	2
1Pet.1.4	Col.3.3-Col.3.4	2
1Pet.1.4	Heb.9.15	2
1Pet.1.4	Jas.1.11	2
1Pet.1.4	1Pet.3.9	2
1Pet.1.4	Rev.21.27	2
1Pet.1.5	Eph.2.8	4
1Pet.1.5	Job.19.25	3
1Pet.1.5	1Sam.2.9	2
1Pet.1.5	Ps.37.23-Ps.37.24	2
1Pet.1.5	Ps.37.28	2
1Pet.1.5	Ps.103.17-Ps.103.18	2
1Pet.1.5	Ps.125.1-Ps.125.2	2
1Pet.1.5	Prov.2.8	2
1Pet.1.5	Isa.45.17	2
1Pet.1.5	Isa.51.6	2
1Pet.1.5	Isa.54.17	2
1Pet.1.5	Jer.32.40	2
1Pet.1.5	John.4.14	2
1Pet.1.5	John.5.24	2
1Pet.1.5	John.10.28-John.10.30	2
1Pet.1.5	John.12.48	2
1Pet.1.5	John.17.11-John.17.12	2
1Pet.1.5	John.17.15	2
1Pet.1.5	Rom.8.31-Rom.8.39	2
1Pet.1.5	Rom.11.20	2
1Pet.1.5	2Cor.1.24	2
1Pet.1.5	Gal.2.20	2
1Pet.1.5	Eph.3.17	2
1Pet.1.5	Phil.1.6	2
1Pet.1.5	1Thess.1.3-1Thess.1.4	2
1Pet.1.5	2Thess.2.13-2Thess.2.14	2
1Pet.1.5	1Tim.6.14-1Tim.6.15	2
1Pet.1.5	2Tim.3.15	2
1Pet.1.5	Titus.2.13	2
1Pet.1.5	Heb.6.12	2
1Pet.1.5	Heb.9.28	2
1Pet.1.5	1Pet.1.13	2
1Pet.1.5	1John.3.2	2
1Pet.1.5	Jude.1.1	2
1Pet.1.5	Jude.1.24	2
1Pet.1.6	Jas.1.2	7
1Pet.1.6	Isa.61.3	5
1Pet.1.6	Rom.5.2	5
1Pet.1.6	1Pet.5.10	5
1Pet.1.6	Matt.5.12	4
1Pet.1.6	1Sam.2.1	3
1Pet.1.6	Job.9.27-Job.9.28	3
1Pet.1.6	Ps.34.19	3
1Pet.1.6	Ps.95.1	3
1Pet.1.6	Ps.119.28	3
1Pet.1.6	Isa.12.2-Isa.12.3	3
1Pet.1.6	Isa.61.10	3
1Pet.1.6	Matt.11.28	3
1Pet.1.6	Luke.10.20	3
1Pet.1.6	John.16.22	3
1Pet.1.6	John.16.33	3
1Pet.1.6	Acts.14.22	3
1Pet.1.6	Rom.5.11	3
1Pet.1.6	Rom.12.12	3
1Pet.1.6	1Cor.4.9-1Cor.4.13	3
1Pet.1.6	1Pet.4.12-1Pet.4.13	3
1Pet.1.6	Ps.9.14	2
1Pet.1.6	Ps.35.10	2
1Pet.1.6	Ps.69.20	2
1Pet.1.6	Ps.119.75	2
1Pet.1.6	Lam.3.32-Lam.3.33	2
1Pet.1.6	Matt.26.37	2
1Pet.1.6	Luke.1.47	2
1Pet.1.6	Luke.2.10	2
1Pet.1.6	Rom.9.2	2
1Pet.1.6	2Cor.4.7-2Cor.4.11	2
1Pet.1.6	2Cor.4.17	2
1Pet.1.6	2Cor.6.10	2
1Pet.1.6	2Cor.11.23-2Cor.11.27	2
1Pet.1.6	2Cor.12.9-2Cor.12.10	2
1Pet.1.6	Gal.5.22	2
1Pet.1.6	Phil.2.26	2
1Pet.1.6	Phil.3.3	2
1Pet.1.6	Phil.4.4	2
1Pet.1.6	1Thess.1.6	2
1Pet.1.6	Heb.11.35-Heb.11.38	2
1Pet.1.6	Heb.12.7-Heb.12.11	2
1Pet.1.6	Jas.1.9	2
1Pet.1.6	Jas.4.9	2
1Pet.1.6	1Pet.1.7-1Pet.1.8	2
1Pet.1.6	1Pet.4.7	2
1Pet.1.7	Job.23.10	7
1Pet.1.7	Prov.17.3	6
1Pet.1.7	Isa.48.10	5
1Pet.1.7	Rom.2.7	5
1Pet.1.7	Zech.13.9	4
1Pet.1.7	1Cor.3.13	4
1Pet.1.7	1Pet.4.12	4
1Pet.1.7	1Cor.4.5	3
1Pet.1.7	2Thess.1.7-2Thess.1.12	3
1Pet.1.7	1Sam.2.30	2
1Pet.1.7	Ps.66.10-Ps.66.12	2
1Pet.1.7	Prov.3.13-Prov.3.15	2
1Pet.1.7	Prov.8.19	2
1Pet.1.7	Prov.16.16	2
1Pet.1.7	Eccl.5.14	2
1Pet.1.7	Jer.9.7	2
1Pet.1.7	Jer.48.36	2
1Pet.1.7	Mal.3.3	2
1Pet.1.7	Matt.19.28	2
1Pet.1.7	Matt.25.21	2
1Pet.1.7	Matt.25.23	2
1Pet.1.7	Luke.12.20-Luke.12.21	2
1Pet.1.7	Luke.12.33	2
1Pet.1.7	John.5.44	2
1Pet.1.7	John.12.26	2
1Pet.1.7	Acts.8.20	2
1Pet.1.7	Rom.2.29	2
1Pet.1.7	Rom.5.3-Rom.5.4	2
1Pet.1.7	Jas.1.3-Jas.1.4	2
1Pet.1.7	Jas.1.12	2
1Pet.1.7	Jas.5.2-Jas.5.3	2
1Pet.1.7	1Pet.1.5	2
1Pet.1.7	1Pet.2.4	2
1Pet.1.7	1Pet.2.7	2
1Pet.1.7	2Pet.1.1	2
1Pet.1.7	2Pet.1.4	2
1Pet.1.7	2Pet.3.10-2Pet.3.12	2
1Pet.1.7	Jude.1.24	2
1Pet.1.7	Rev.1.7	2
1Pet.1.7	Rev.2.10	2
1Pet.1.7	Rev.3.10	2
1Pet.1.7	Rev.3.18	2
1Pet.1.7	Rev.18.16-Rev.18.17	2
1Pet.1.8	John.20.29	5
1Pet.1.8	Matt.25.35-Matt.25.40	3
1Pet.1.8	Heb.11.27	3
1Pet.1.8	Song.1.7	2
1Pet.1.8	Song.5.9	2
1Pet.1.8	Song.5.16	2
1Pet.1.8	Hab.3.17-Hab.3.18	2
1Pet.1.8	Matt.10.37	2
1Pet.1.8	John.8.42	2
1Pet.1.8	John.14.15	2
1Pet.1.8	John.14.21	2
1Pet.1.8	John.14.24	2
1Pet.1.8	John.16.22	2
1Pet.1.8	John.21.15-John.21.17	2
1Pet.1.8	Acts.16.34	2
1Pet.1.8	Rom.14.17	2
1Pet.1.8	Rom.15.13	2
1Pet.1.8	1Cor.16.22	2
1Pet.1.8	2Cor.1.22	2
1Pet.1.8	2Cor.4.18	2
1Pet.1.8	2Cor.5.7	2
1Pet.1.8	2Cor.5.14-2Cor.5.15	2
1Pet.1.8	2Cor.9.15	2
1Pet.1.8	2Cor.12.4	2
1Pet.1.8	Gal.5.6	2
1Pet.1.8	Gal.5.22	2
1Pet.1.8	Eph.1.13-Eph.1.14	2
1Pet.1.8	Eph.6.24	2
1Pet.1.8	Phil.1.25	2
1Pet.1.8	Phil.3.3	2
1Pet.1.8	Phil.4.4	2
1Pet.1.8	Heb.11.1	2
1Pet.1.8	1Pet.1.6	2
1Pet.1.8	1Pet.2.7	2
1Pet.1.8	1Pet.5.4	2
1Pet.1.8	1John.4.19-1John.4.20	2
1Pet.1.9	Rom.6.22	5
1Pet.1.9	Heb.11.13	2
1Pet.1.9	Jas.1.21	2
1Pet.1.10	Matt.13.17	6
1Pet.1.10	Luke.10.24	4
1Pet.1.10	Gen.49.10	2
1Pet.1.10	Prov.2.4	2
1Pet.1.10	Dan.2.44	2
1Pet.1.10	Dan.9.3	2
1Pet.1.10	Hag.2.7	2
1Pet.1.10	Zech.6.12	2
1Pet.1.10	Matt.26.24	2
1Pet.1.10	Luke.24.25-Luke.24.27	2
1Pet.1.10	Luke.24.44	2
1Pet.1.10	John.5.39	2
1Pet.1.10	John.7.52	2
1Pet.1.10	Acts.3.22-Acts.3.24	2
1Pet.1.10	Acts.7.52	2
1Pet.1.10	Acts.10.43	2
1Pet.1.10	Acts.13.27-Acts.13.29	2
1Pet.1.10	Acts.17.11	2
1Pet.1.10	Acts.28.23	2
1Pet.1.10	Heb.11.13	2
1Pet.1.10	Heb.11.40	2
1Pet.1.10	1Pet.1.11	2
1Pet.1.10	2Pet.1.19-2Pet.1.21	2
1Pet.1.11	2Pet.1.21	5
1Pet.1.11	Isa.52.13-Isa.52.14	3
1Pet.1.11	Isa.53.1-Isa.53.12	3
1Pet.1.11	Dan.9.24-Dan.9.26	3
1Pet.1.11	Rom.8.9	3
1Pet.1.11	Gen.3.15	2
1Pet.1.11	Gen.49.10	2
1Pet.1.11	Ps.22.1-Ps.22.31	2
1Pet.1.11	Ps.69.1-Ps.69.21	2
1Pet.1.11	Ps.69.30-Ps.69.36	2
1Pet.1.11	Ps.88.1-Ps.88.18	2
1Pet.1.11	Ps.110.1-Ps.110.6	2
1Pet.1.11	Isa.9.6-Isa.9.7	2
1Pet.1.11	Isa.49.6	2
1Pet.1.11	Dan.2.34-Dan.2.35	2
1Pet.1.11	Dan.2.44	2
1Pet.1.11	Dan.7.13-Dan.7.14	2
1Pet.1.11	Zech.8.18-Zech.8.21	2
1Pet.1.11	Zech.13.7	2
1Pet.1.11	Zech.14.9	2
1Pet.1.11	Matt.26.24	2
1Pet.1.11	Luke.24.25-Luke.24.27	2
1Pet.1.11	Luke.24.44	2
1Pet.1.11	John.12.41	2
1Pet.1.11	Acts.26.22-Acts.26.23	2
1Pet.1.11	Gal.4.6	2
1Pet.1.11	1Pet.3.18-1Pet.3.19	2
1Pet.1.11	Rev.19.10	2
1Pet.1.12	John.15.26	4
1Pet.1.12	Dan.8.13	3
1Pet.1.12	Dan.12.5-Dan.12.6	3
1Pet.1.12	Dan.12.9	3
1Pet.1.12	Dan.12.13	3
1Pet.1.12	Eph.3.10	3
1Pet.1.12	Heb.11.39-Heb.11.40	3
1Pet.1.12	Exod.25.20	2
1Pet.1.12	Prov.1.23	2
1Pet.1.12	Isa.11.2-Isa.11.6	2
1Pet.1.12	Isa.32.15	2
1Pet.1.12	Isa.44.3-Isa.44.5	2
1Pet.1.12	Isa.53.1	2
1Pet.1.12	Dan.2.19	2
1Pet.1.12	Dan.2.22	2
1Pet.1.12	Dan.2.28-Dan.2.29	2
1Pet.1.12	Dan.2.47	2
1Pet.1.12	Dan.9.24	2
1Pet.1.12	Dan.10.1	2
1Pet.1.12	Joel.2.28	2
1Pet.1.12	Amos.3.7	2
1Pet.1.12	Zech.12.10	2
1Pet.1.12	Matt.11.25	2
1Pet.1.12	Matt.11.27	2
1Pet.1.12	Matt.16.17	2
1Pet.1.12	Mark.16.15	2
1Pet.1.12	Luke.2.26	2
1Pet.1.12	Luke.9.6	2
1Pet.1.12	Luke.15.10	2
1Pet.1.12	John.16.7-John.16.15	2
1Pet.1.12	Acts.2.2-Acts.2.4	2
1Pet.1.12	Acts.2.17-Acts.2.18	2
1Pet.1.12	Acts.2.33	2
1Pet.1.12	Acts.4.8	2
1Pet.1.12	Acts.4.31	2
1Pet.1.12	Acts.8.25	2
1Pet.1.12	Acts.10.44	2
1Pet.1.12	Acts.16.10	2
1Pet.1.12	Rom.1.15	2
1Pet.1.12	Rom.1.17	2
1Pet.1.12	Rom.10.15	2
1Pet.1.12	Rom.15.19	2
1Pet.1.12	1Cor.2.10	2
1Pet.1.12	2Cor.1.22	2
1Pet.1.12	2Cor.6.6	2
1Pet.1.12	Gal.1.12	2
1Pet.1.12	Gal.1.16	2
1Pet.1.12	1Thess.1.5-1Thess.1.6	2
1Pet.1.12	1Thess.2.9	2
1Pet.1.12	Heb.2.4	2
1Pet.1.12	Heb.4.2	2
1Pet.1.12	Heb.11.13	2
1Pet.1.12	1Pet.1.25	2
1Pet.1.12	Rev.5.11	2
1Pet.1.13	1Pet.4.7	4
1Pet.1.13	1Pet.5.8	4
1Pet.1.13	Luke.12.35	3
1Pet.1.13	Luke.17.30	3
1Pet.1.13	Eph.6.14	3
1Pet.1.13	Exod.12.11	2
1Pet.1.13	1Kgs.18.46	2
1Pet.1.13	2Kgs.4.29	2
1Pet.1.13	Job.38.3	2
1Pet.1.13	Job.40.7	2
1Pet.1.13	Isa.11.5	2
1Pet.1.13	Jer.1.17	2
1Pet.1.13	Luke.17.8	2
1Pet.1.13	Luke.21.34-Luke.21.35	2
1Pet.1.13	Rom.13.13	2
1Pet.1.13	Rom.15.4-Rom.15.13	2
1Pet.1.13	1Cor.1.7	2
1Pet.1.13	1Cor.13.13	2
1Pet.1.13	1Thess.5.6-1Thess.5.8	2
1Pet.1.13	2Thess.1.7	2
1Pet.1.13	2Tim.4.5	2
1Pet.1.13	2Tim.4.8	2
1Pet.1.13	Titus.2.11-Titus.2.13	2
1Pet.1.13	Heb.3.6	2
1Pet.1.13	Heb.6.19	2
1Pet.1.13	Heb.9.28	2
1Pet.1.13	Heb.10.35	2
1Pet.1.13	1Pet.1.3-1Pet.1.9	2
1Pet.1.13	1Pet.3.15	2
1Pet.1.13	1John.3.3	2
1Pet.1.14	Rom.12.2	5
1Pet.1.14	Acts.17.30	3
1Pet.1.14	1Pet.4.2-1Pet.4.3	3
1Pet.1.14	Rom.6.4	2
1Pet.1.14	Eph.2.2	2
1Pet.1.14	Eph.4.18-Eph.4.22	2
1Pet.1.14	Eph.5.6	2
1Pet.1.14	Col.3.5-Col.3.7	2
1Pet.1.14	1Thess.4.5	2
1Pet.1.14	Titus.3.3-Titus.3.5	2
1Pet.1.15	2Cor.7.1	7
1Pet.1.15	Jas.3.13	6
1Pet.1.15	Heb.12.14	5
1Pet.1.15	Matt.5.48	4
1Pet.1.15	Eph.5.1-Eph.5.2	4
1Pet.1.15	Phil.2.15-Phil.2.16	4
1Pet.1.15	1Thess.4.3-1Thess.4.7	3
1Pet.1.15	1Pet.2.12	3
1Pet.1.15	Luke.1.74-Luke.1.75	2
1Pet.1.15	Rom.8.28-Rom.8.30	2
1Pet.1.15	Phil.1.27	2
1Pet.1.15	Phil.3.14	2
1Pet.1.15	Phil.3.20	2
1Pet.1.15	1Thess.2.12	2
1Pet.1.15	1Tim.4.12	2
1Pet.1.15	2Tim.1.9	2
1Pet.1.15	Titus.2.11-Titus.2.14	2
1Pet.1.15	Titus.3.8	2
1Pet.1.15	Titus.3.14	2
1Pet.1.15	Heb.13.5	2
1Pet.1.15	1Pet.2.9	2
1Pet.1.15	1Pet.3.16	2
1Pet.1.15	1Pet.5.10	2
1Pet.1.15	2Pet.1.3-2Pet.1.10	2
1Pet.1.15	2Pet.3.11-2Pet.3.14	2
1Pet.1.15	1John.3.3	2
1Pet.1.15	Rev.3.7	2
1Pet.1.15	Rev.4.8	2
1Pet.1.15	Rev.6.10	2
1Pet.1.15	Isa.6.3	1
1Pet.1.15	Rom.9.24	1
1Pet.1.16	Lev.11.44	6
1Pet.1.16	Lev.19.2	5
1Pet.1.16	Lev.20.7	4
1Pet.1.16	Amos.3.3	1
1Pet.1.17	Matt.6.9	4
1Pet.1.17	2Cor.7.1	4
1Pet.1.17	Heb.12.28	4
1Pet.1.17	Rom.11.20	3
1Pet.1.17	1Pet.2.11	3
1Pet.1.17	Gen.47.9	2
1Pet.1.17	Deut.10.17	2
1Pet.1.17	1Chr.29.15	2
1Pet.1.17	2Chr.19.7	2
1Pet.1.17	Job.34.19	2
1Pet.1.17	Ps.39.12	2
1Pet.1.17	Prov.14.16	2
1Pet.1.17	Prov.28.14	2
1Pet.1.17	Jer.3.19	2
1Pet.1.17	Zeph.3.9	2
1Pet.1.17	Matt.7.7-Matt.7.11	2
1Pet.1.17	Matt.22.16	2
1Pet.1.17	Acts.10.34-Acts.10.35	2
1Pet.1.17	Rom.2.10-Rom.2.11	2
1Pet.1.17	2Cor.1.2	2
1Pet.1.17	2Cor.5.6	2
1Pet.1.17	2Cor.7.11	2
1Pet.1.17	Gal.2.6	2
1Pet.1.17	Eph.1.17	2
1Pet.1.17	Eph.3.14	2
1Pet.1.17	Eph.6.9	2
1Pet.1.17	Phil.2.12	2
1Pet.1.17	Col.3.25	2
1Pet.1.17	Heb.4.1	2
1Pet.1.17	Heb.11.13-Heb.11.16	2
1Pet.1.17	1Pet.3.15	2
1Pet.1.18	1Cor.6.20	5
1Pet.1.18	Ps.39.6	2
1Pet.1.18	Ps.49.7-Ps.49.8	2
1Pet.1.18	Ps.62.10	2
1Pet.1.18	Jer.4.11	2
1Pet.1.18	Jer.9.14	2
1Pet.1.18	Jer.16.19	2
1Pet.1.18	Jer.44.17	2
1Pet.1.18	Ezek.20.18	2
1Pet.1.18	Amos.2.4	2
1Pet.1.18	Zech.1.4-Zech.1.6	2
1Pet.1.18	Matt.15.2-Matt.15.3	2
1Pet.1.18	Acts.7.51-Acts.7.52	2
1Pet.1.18	Acts.19.34-Acts.19.35	2
1Pet.1.18	Rom.1.21	2
1Pet.1.18	1Cor.3.20	2
1Pet.1.18	1Cor.7.23	2
1Pet.1.18	Gal.1.4	2
1Pet.1.18	Eph.4.17	2
1Pet.1.18	Titus.2.14	2
1Pet.1.18	1Pet.1.7	2
1Pet.1.18	1Pet.4.3	2
1Pet.1.19	John.1.29	6
1Pet.1.19	Exod.12.5	5
1Pet.1.19	John.1.36	3
1Pet.1.19	Acts.20.28	3
1Pet.1.19	1Cor.5.7-1Cor.5.8	3
1Pet.1.19	Rev.5.6	3
1Pet.1.19	Rev.5.9	3
1Pet.1.19	Isa.53.7	2
1Pet.1.19	Zech.13.7	2
1Pet.1.19	Matt.20.28	2
1Pet.1.19	Matt.26.28	2
1Pet.1.19	Acts.8.32-Acts.8.35	2
1Pet.1.19	Eph.1.7	2
1Pet.1.19	Col.1.14	2
1Pet.1.19	Heb.9.12-Heb.9.14	2
1Pet.1.19	1Pet.2.22-1Pet.2.24	2
1Pet.1.19	1Pet.3.18	2
1Pet.1.19	1John.2.2	2
1Pet.1.19	Rev.1.5	2
1Pet.1.19	Rev.7.14	2
1Pet.1.19	Rev.14.1	2
1Pet.1.19	Dan.9.24	1
1Pet.1.19	1John.1.7	1
1Pet.1.20	Eph.1.4	4
1Pet.1.20	Col.1.26	4
1Pet.1.20	Heb.9.26	4
1Pet.1.20	2Tim.1.9-2Tim.1.10	3
1Pet.1.20	Titus.1.2-Titus.1.3	3
1Pet.1.20	Heb.1.2	3
1Pet.1.20	Rev.13.8	3
1Pet.1.20	Gen.3.15	2
1Pet.1.20	Prov.8.23	2
1Pet.1.20	Mic.5.2	2
1Pet.1.20	Acts.3.25-Acts.3.26	2
1Pet.1.20	Rom.3.25	2
1Pet.1.20	Rom.16.25-Rom.16.26	2
1Pet.1.20	Gal.4.4	2
1Pet.1.20	Eph.1.10	2
1Pet.1.20	Eph.3.9	2
1Pet.1.20	Eph.3.11	2
1Pet.1.20	1John.1.2	2
1Pet.1.20	1John.3.5	2
1Pet.1.20	1John.3.8	2
1Pet.1.20	1John.4.9-1John.4.10	2
1Pet.1.21	Heb.2.9	4
1Pet.1.21	John.12.44	3
1Pet.1.21	Acts.2.24	3
1Pet.1.21	Acts.3.13	3
1Pet.1.21	1Pet.3.22	3
1Pet.1.21	Ps.42.5	2
1Pet.1.21	Ps.146.3-Ps.146.5	2
1Pet.1.21	Jer.17.7	2
1Pet.1.21	Matt.28.18	2
1Pet.1.21	John.3.34	2
1Pet.1.21	John.5.22-John.5.24	2
1Pet.1.21	John.13.31-John.13.32	2
1Pet.1.21	John.14.1	2
1Pet.1.21	John.14.6	2
1Pet.1.21	John.17.1	2
1Pet.1.21	Acts.2.32-Acts.2.33	2
1Pet.1.21	Acts.3.15	2
1Pet.1.21	Acts.4.10	2
1Pet.1.21	Rom.4.24	2
1Pet.1.21	Rom.10.9	2
1Pet.1.21	Eph.1.12-Eph.1.13	2
1Pet.1.21	Eph.1.15	2
1Pet.1.21	Eph.1.20-Eph.1.23	2
1Pet.1.21	Phil.2.9-Phil.2.11	2
1Pet.1.21	Col.1.27	2
1Pet.1.21	1Tim.1.1	2
1Pet.1.21	Heb.6.1	2
1Pet.1.21	Heb.7.25	2
1Pet.1.21	1Pet.1.11	2
1Pet.1.22	Heb.13.1	6
1Pet.1.22	Jas.4.8	4
1Pet.1.22	John.13.34-John.13.35	3
1Pet.1.22	Rom.2.8	3
1Pet.1.22	Rom.12.9-Rom.12.10	3
1Pet.1.22	1Tim.1.5	3
1Pet.1.22	1Pet.2.17	3
1Pet.1.22	1Pet.3.8	3
1Pet.1.22	John.15.3	2
1Pet.1.22	John.15.17	2
1Pet.1.22	John.17.17	2
1Pet.1.22	John.17.19	2
1Pet.1.22	Acts.6.7	2
1Pet.1.22	Acts.15.9	2
1Pet.1.22	Rom.1.5	2
1Pet.1.22	Rom.6.16-Rom.6.17	2
1Pet.1.22	Rom.8.13	2
1Pet.1.22	2Cor.6.6	2
1Pet.1.22	Gal.3.1	2
1Pet.1.22	Gal.5.5	2
1Pet.1.22	Gal.5.7	2
1Pet.1.22	Eph.4.3	2
1Pet.1.22	Phil.1.9	2
1Pet.1.22	1Thess.3.12	2
1Pet.1.22	1Thess.4.8-1Thess.4.9	2
1Pet.1.22	2Thess.1.3	2
1Pet.1.22	2Thess.2.13	2
1Pet.1.22	1Tim.1.3	2
1Pet.1.22	1Tim.4.12	2
1Pet.1.22	1Tim.5.2	2
1Pet.1.22	2Tim.1.14	2
1Pet.1.22	Heb.5.9	2
1Pet.1.22	Heb.6.10	2
1Pet.1.22	Heb.9.14	2
1Pet.1.22	Heb.11.8	2
1Pet.1.22	Jas.2.15-Jas.2.16	2
1Pet.1.22	1Pet.3.1	2
1Pet.1.22	1Pet.4.8	2
1Pet.1.22	1Pet.4.17	2
1Pet.1.22	2Pet.1.7	2
1Pet.1.22	1John.3.11	2
1Pet.1.22	1John.3.14-1John.3.19	2
1Pet.1.22	1John.3.23	2
1Pet.1.22	1John.4.7	2
1Pet.1.22	1John.4.12	2
1Pet.1.22	1John.4.20-1John.5.2	2
1Pet.1.22	Rev.2.4	2
1Pet.1.23	Heb.4.12	5
1Pet.1.23	1Pet.1.3	4
1Pet.1.23	John.1.13	3
1Pet.1.23	John.3.3	3
1Pet.1.23	Jas.1.18	3
1Pet.1.23	Jer.23.28	2
1Pet.1.23	Mal.2.3	2
1Pet.1.23	Matt.24.35	2
1Pet.1.23	John.1.3	2
1Pet.1.23	John.3.5	2
1Pet.1.23	John.6.63	2
1Pet.1.23	Rom.1.23	2
1Pet.1.23	1Cor.15.53-1Cor.15.54	2
1Pet.1.23	1Pet.1.25	2
1Pet.1.23	1John.3.9	2
1Pet.1.23	1John.5.18	2
1Pet.1.24	Isa.40.6-Isa.40.8	4
1Pet.1.24	Jas.1.10-Jas.1.11	3
1Pet.1.24	2Kgs.19.26	2
1Pet.1.24	Ps.37.2	2
1Pet.1.24	Ps.90.5	2
1Pet.1.24	Ps.92.7	2
1Pet.1.24	Ps.102.4	2
1Pet.1.24	Ps.103.15	2
1Pet.1.24	Ps.129.6	2
1Pet.1.24	Jas.4.14	2
1Pet.1.24	1John.2.17	2
1Pet.1.25	Isa.40.8	4
1Pet.1.25	Ps.102.12	2
1Pet.1.25	Ps.102.26	2
1Pet.1.25	Ps.119.89	2
1Pet.1.25	Matt.5.18	2
1Pet.1.25	Luke.16.17	2
1Pet.1.25	John.1.1	2
1Pet.1.25	John.1.14	2
1Pet.1.25	1Cor.1.21-1Cor.1.24	2
1Pet.1.25	1Cor.2.2	2
1Pet.1.25	1Cor.15.1-1Cor.15.4	2
1Pet.1.25	Eph.2.17	2
1Pet.1.25	Eph.3.8	2
1Pet.1.25	Titus.1.3	2
1Pet.1.25	1Pet.1.12	2
1Pet.1.25	1Pet.1.23	2
1Pet.1.25	1Pet.2.2	2
1Pet.1.25	2Pet.1.19	2
1Pet.1.25	1John.1.1	2
1Pet.1.25	1John.1.3	2
1Pet.2.1	Eph.4.31	8
1Pet.2.1	Jas.1.21	5
1Pet.2.1	Jas.4.11	4
1Pet.2.1	Ps.37.1	3
1Pet.2.1	1Sam.18.8-1Sam.18.9	2
1Pet.2.1	Job.36.13	2
1Pet.2.1	Ps.32.2	2
1Pet.2.1	Ps.34.13	2
1Pet.2.1	Ps.73.3	2
1Pet.2.1	Prov.3.31	2
1Pet.2.1	Prov.14.30	2
1Pet.2.1	Prov.24.1	2
1Pet.2.1	Prov.24.19	2
1Pet.2.1	Isa.2.20	2
1Pet.2.1	Isa.30.22	2
1Pet.2.1	Ezek.18.31-Ezek.18.32	2
1Pet.2.1	Matt.7.5	2
1Pet.2.1	Matt.23.28	2
1Pet.2.1	Matt.24.51	2
1Pet.2.1	Mark.12.15	2
1Pet.2.1	Luke.6.42	2
1Pet.2.1	Luke.11.44	2
1Pet.2.1	Luke.12.1	2
1Pet.2.1	John.1.47	2
1Pet.2.1	Rom.1.29	2
1Pet.2.1	Rom.13.12-Rom.13.13	2
1Pet.2.1	1Cor.3.2-1Cor.3.3	2
1Pet.2.1	1Cor.5.8	2
1Pet.2.1	1Cor.14.20	2
1Pet.2.1	2Cor.12.20	2
1Pet.2.1	Gal.5.21-Gal.5.26	2
1Pet.2.1	Eph.4.22-Eph.4.25	2
1Pet.2.1	Col.3.5-Col.3.8	2
1Pet.2.1	1Thess.2.3	2
1Pet.2.1	1Tim.3.11	2
1Pet.2.1	Titus.2.3	2
1Pet.2.1	Titus.3.3-Titus.3.5	2
1Pet.2.1	Heb.12.1	2
1Pet.2.1	Jas.3.14	2
1Pet.2.1	Jas.3.16-Jas.3.17	2
1Pet.2.1	Jas.4.5	2
1Pet.2.1	Jas.5.9	2
1Pet.2.1	1Pet.1.18-1Pet.1.25	2
1Pet.2.1	1Pet.2.16	2
1Pet.2.1	1Pet.2.22	2
1Pet.2.1	1Pet.3.10	2
1Pet.2.1	1Pet.4.2	2
1Pet.2.1	1Pet.4.4	2
1Pet.2.1	Rev.14.5	2
1Pet.2.1	Matt.15.7	1
1Pet.2.2	Matt.18.3	4
1Pet.2.2	Eph.4.15	4
1Pet.2.2	Heb.5.12-Heb.5.13	4
1Pet.2.2	Mark.10.15	3
1Pet.2.2	1Cor.14.20	3
1Pet.2.2	2Sam.23.5	2
1Pet.2.2	Job.17.9	2
1Pet.2.2	Ps.19.7-Ps.19.10	2
1Pet.2.2	Prov.4.18	2
1Pet.2.2	Hos.6.3	2
1Pet.2.2	Hos.14.5	2
1Pet.2.2	Hos.14.7	2
1Pet.2.2	Mal.4.2	2
1Pet.2.2	Rom.6.4	2
1Pet.2.2	1Cor.3.1-1Cor.3.2	2
1Pet.2.2	Eph.2.21	2
1Pet.2.2	2Thess.1.3	2
1Pet.2.2	1Pet.1.23	2
1Pet.2.2	2Pet.3.18	2
1Pet.2.3	Ps.34.8	3
1Pet.2.3	Ps.9.10	2
1Pet.2.3	Ps.24.8	2
1Pet.2.3	Ps.63.5	2
1Pet.2.3	Song.2.3	2
1Pet.2.3	Zech.9.17	2
1Pet.2.3	Heb.6.5-Heb.6.6	2
1Pet.2.4	1Pet.2.7	5
1Pet.2.4	Ps.118.22-Ps.118.23	2
1Pet.2.4	Isa.8.14-Isa.8.15	2
1Pet.2.4	Isa.28.16	2
1Pet.2.4	Isa.42.1	2
1Pet.2.4	Isa.55.3	2
1Pet.2.4	Jer.3.22	2
1Pet.2.4	Dan.2.34	2
1Pet.2.4	Dan.2.45	2
1Pet.2.4	Zech.3.9	2
1Pet.2.4	Zech.4.7	2
1Pet.2.4	Matt.11.28	2
1Pet.2.4	Matt.12.18	2
1Pet.2.4	Matt.21.42	2
1Pet.2.4	Mark.12.10-Mark.12.11	2
1Pet.2.4	Luke.20.17-Luke.20.18	2
1Pet.2.4	John.5.26	2
1Pet.2.4	John.5.40	2
1Pet.2.4	John.6.37	2
1Pet.2.4	John.6.57	2
1Pet.2.4	John.11.25-John.11.26	2
1Pet.2.4	John.14.6	2
1Pet.2.4	John.14.19	2
1Pet.2.4	Acts.4.11-Acts.4.12	2
1Pet.2.4	Rom.5.10	2
1Pet.2.4	Col.3.4	2
1Pet.2.4	1Pet.1.7	2
1Pet.2.4	1Pet.1.19	2
1Pet.2.4	2Pet.1.1	2
1Pet.2.4	2Pet.1.4	2
1Pet.2.5	Phil.4.18	6
1Pet.2.5	1Pet.2.9	5
1Pet.2.5	Isa.61.6	4
1Pet.2.5	Isa.66.21	3
1Pet.2.5	Mal.1.11	3
1Pet.2.5	Rom.12.1	3
1Pet.2.5	1Cor.3.9	3
1Pet.2.5	Eph.2.20-Eph.2.22	3
1Pet.2.5	Heb.3.6	3
1Pet.2.5	Rev.1.6	3
1Pet.2.5	Rev.5.10	3
1Pet.2.5	Rev.20.6	3
1Pet.2.5	Ps.50.14	2
1Pet.2.5	Ps.50.23	2
1Pet.2.5	Ps.141.2	2
1Pet.2.5	Hos.14.2	2
1Pet.2.5	John.4.22-John.4.24	2
1Pet.2.5	Rom.15.16	2
1Pet.2.5	1Cor.3.16	2
1Pet.2.5	1Cor.6.19	2
1Pet.2.5	2Cor.6.16	2
1Pet.2.5	Phil.1.11	2
1Pet.2.5	Phil.2.17	2
1Pet.2.5	Col.3.17	2
1Pet.2.5	1Tim.3.15	2
1Pet.2.5	Heb.13.15-Heb.13.16	2
1Pet.2.5	1Pet.4.11	2
1Pet.2.5	Rev.3.12	2
1Pet.2.6	Isa.28.16	6
1Pet.2.6	Rom.9.32-Rom.9.33	4
1Pet.2.6	Eph.2.20	4
1Pet.2.6	Ps.89.19	3
1Pet.2.6	Ps.40.14	2
1Pet.2.6	Isa.41.11	2
1Pet.2.6	Isa.42.1	2
1Pet.2.6	Isa.45.16-Isa.45.17	2
1Pet.2.6	Isa.50.7	2
1Pet.2.6	Isa.54.4	2
1Pet.2.6	Dan.10.21	2
1Pet.2.6	Zech.10.4	2
1Pet.2.6	Matt.12.18	2
1Pet.2.6	Mark.12.10	2
1Pet.2.6	Luke.23.35	2
1Pet.2.6	John.7.38	2
1Pet.2.6	Acts.1.16	2
1Pet.2.6	Rom.10.11	2
1Pet.2.6	Eph.1.4	2
1Pet.2.6	2Tim.3.16	2
1Pet.2.6	1Pet.2.4	2
1Pet.2.6	2Pet.1.20	2
1Pet.2.6	2Pet.3.16	2
1Pet.2.7	Ps.118.22-Ps.118.23	4
1Pet.2.7	Matt.21.42	4
1Pet.2.7	1Pet.2.8	4
1Pet.2.7	Mark.12.10-Mark.12.11	3
1Pet.2.7	Acts.4.11-Acts.4.12	3
1Pet.2.7	Luke.2.32	2
1Pet.2.7	Luke.20.17	2
1Pet.2.7	John.4.42	2
1Pet.2.7	John.6.68-John.6.69	2
1Pet.2.7	Acts.26.19	2
1Pet.2.7	Rom.10.21	2
1Pet.2.7	Rom.15.31	2
1Pet.2.7	2Cor.2.16	2
1Pet.2.7	Phil.3.7-Phil.3.10	2
1Pet.2.7	Col.2.10	2
1Pet.2.7	Titus.3.3	2
1Pet.2.7	Heb.4.11	2
1Pet.2.7	Heb.11.31	2
1Pet.2.7	1Pet.1.8	2
1Pet.2.7	Song.5.9-Song.5.16	1
1Pet.2.7	Isa.28.5	1
1Pet.2.7	Hag.2.7	1
1Pet.2.7	Zech.4.7	1
1Pet.2.7	Matt.13.44-Matt.13.46	1
1Pet.2.8	Isa.8.14	5
1Pet.2.8	Rom.9.22	5
1Pet.2.8	1Cor.1.23	4
1Pet.2.8	Jude.1.4	3
1Pet.2.8	Exod.9.16	2
1Pet.2.8	Isa.57.14	2
1Pet.2.8	Luke.2.34	2
1Pet.2.8	Rom.9.32-Rom.9.33	2
1Pet.2.8	2Cor.2.16	2
1Pet.2.8	1Thess.5.9	2
1Pet.2.8	1Pet.2.7	2
1Pet.2.8	2Pet.2.3	2
1Pet.2.9	Rev.1.6	6
1Pet.2.9	Exod.19.5-Exod.19.6	5
1Pet.2.9	Deut.7.6	5
1Pet.2.9	Deut.10.15	5
1Pet.2.9	Rev.5.10	5
1Pet.2.9	Isa.61.6	4
1Pet.2.9	Isa.66.21	4
1Pet.2.9	Deut.4.20	3
1Pet.2.9	Deut.14.2	3
1Pet.2.9	Isa.9.2	3
1Pet.2.9	Acts.26.18	3
1Pet.2.9	Titus.2.14	3
1Pet.2.9	Deut.26.18-Deut.26.19	2
1Pet.2.9	Ps.22.30	2
1Pet.2.9	Ps.33.12	2
1Pet.2.9	Ps.73.15	2
1Pet.2.9	Ps.106.5	2
1Pet.2.9	Isa.26.2	2
1Pet.2.9	Isa.41.8	2
1Pet.2.9	Isa.42.16	2
1Pet.2.9	Isa.43.20-Isa.43.21	2
1Pet.2.9	Isa.44.1	2
1Pet.2.9	Isa.60.1-Isa.60.3	2
1Pet.2.9	Matt.4.16	2
1Pet.2.9	Matt.5.16	2
1Pet.2.9	Luke.1.79	2
1Pet.2.9	John.17.19	2
1Pet.2.9	Acts.20.28	2
1Pet.2.9	Acts.26.28	2
1Pet.2.9	Rom.9.24	2
1Pet.2.9	1Cor.3.17	2
1Pet.2.9	Eph.1.6	2
1Pet.2.9	Eph.1.14	2
1Pet.2.9	Eph.3.21	2
1Pet.2.9	Eph.5.8-Eph.5.11	2
1Pet.2.9	Phil.2.15-Phil.2.16	2
1Pet.2.9	Phil.3.14	2
1Pet.2.9	Col.1.13	2
1Pet.2.9	1Thess.5.4-1Thess.5.8	2
1Pet.2.9	2Tim.1.9	2
1Pet.2.9	1Pet.1.2	2
1Pet.2.9	1Pet.2.5	2
1Pet.2.9	1Pet.4.11	2
1Pet.2.9	Rev.20.6	2
1Pet.2.10	Hos.1.9-Hos.1.10	4
1Pet.2.10	Hos.2.23	4
1Pet.2.10	Rom.9.25-Rom.9.26	3
1Pet.2.10	Rom.10.19	2
1Pet.2.10	Rom.11.6-Rom.11.7	2
1Pet.2.10	Rom.11.30	2
1Pet.2.10	1Cor.7.25	2
1Pet.2.10	1Tim.1.13	2
1Pet.2.10	Heb.4.16	2
1Pet.2.11	Jas.4.1	6
1Pet.2.11	Rom.8.13	4
1Pet.2.11	Gal.5.24	4
1Pet.2.11	Lev.25.23	3
1Pet.2.11	Ps.39.12	3
1Pet.2.11	Rom.12.1	3
1Pet.2.11	Gal.5.16-Gal.5.21	3
1Pet.2.11	2Tim.2.22	3
1Pet.2.11	Heb.11.13	3
1Pet.2.11	1Pet.1.17	3
1Pet.2.11	1Pet.4.2	3
1Pet.2.11	1John.2.15-1John.2.17	3
1Pet.2.11	Gen.23.4	2
1Pet.2.11	Gen.47.9	2
1Pet.2.11	1Chr.29.15	2
1Pet.2.11	Ps.119.19	2
1Pet.2.11	Ps.119.54	2
1Pet.2.11	Luke.21.34	2
1Pet.2.11	Acts.15.20	2
1Pet.2.11	Acts.15.29	2
1Pet.2.11	Rom.7.23	2
1Pet.2.11	Rom.13.13-Rom.13.14	2
1Pet.2.11	2Cor.5.20	2
1Pet.2.11	2Cor.6.1	2
1Pet.2.11	2Cor.7.1	2
1Pet.2.11	Eph.4.1	2
1Pet.2.11	1Tim.6.9-1Tim.6.10	2
1Pet.2.11	Phlm.1.9-Phlm.1.10	2
1Pet.2.11	1Pet.1.1	2
1Pet.2.12	Matt.5.16	5
1Pet.2.12	1Pet.3.16	5
1Pet.2.12	Ps.50.23	4
1Pet.2.12	Luke.19.44	4
1Pet.2.12	2Cor.8.21	4
1Pet.2.12	1Pet.4.11	3
1Pet.2.12	Gen.13.7-Gen.13.8	2
1Pet.2.12	Ps.37.14	2
1Pet.2.12	Isa.10.3	2
1Pet.2.12	Matt.5.11	2
1Pet.2.12	Matt.9.8	2
1Pet.2.12	Matt.10.25	2
1Pet.2.12	Luke.1.68	2
1Pet.2.12	Luke.6.22	2
1Pet.2.12	Acts.15.14	2
1Pet.2.12	Acts.24.5-Acts.24.6	2
1Pet.2.12	Acts.24.13	2
1Pet.2.12	Acts.25.7	2
1Pet.2.12	Rom.12.17	2
1Pet.2.12	Rom.13.13	2
1Pet.2.12	Rom.15.9	2
1Pet.2.12	1Cor.14.25	2
1Pet.2.12	2Cor.1.12	2
1Pet.2.12	2Cor.13.7	2
1Pet.2.12	Eph.2.3	2
1Pet.2.12	Eph.4.22	2
1Pet.2.12	Phil.1.27	2
1Pet.2.12	Phil.2.15-Phil.2.16	2
1Pet.2.12	Phil.4.8	2
1Pet.2.12	1Thess.4.12	2
1Pet.2.12	1Tim.2.2	2
1Pet.2.12	1Tim.4.12	2
1Pet.2.12	Titus.2.7-Titus.2.8	2
1Pet.2.12	Heb.13.5	2
1Pet.2.12	Heb.13.18	2
1Pet.2.12	Jas.3.13	2
1Pet.2.12	1Pet.3.1-1Pet.3.2	2
1Pet.2.12	1Pet.4.14-1Pet.4.16	2
1Pet.2.12	2Pet.3.11	2
1Pet.2.13	Titus.3.1	5
1Pet.2.13	Prov.24.21	3
1Pet.2.13	Jer.29.7	3
1Pet.2.13	Matt.22.21	3
1Pet.2.13	Mark.12.17	3
1Pet.2.13	Luke.20.25	3
1Pet.2.13	Rom.13.1-Rom.13.7	3
1Pet.2.13	1Tim.2.1-1Tim.2.2	3
1Pet.2.13	2Pet.2.10	3
1Pet.2.13	Prov.17.11	1
1Pet.2.13	Eph.5.21	1
1Pet.2.13	Jude.1.8-Jude.1.10	1
1Pet.2.14	Rom.13.3-Rom.13.4	6
1Pet.2.15	1Pet.2.12	4
1Pet.2.15	Job.2.10	2
1Pet.2.15	Ps.107.42	2
1Pet.2.15	Prov.9.6	2
1Pet.2.15	Jer.4.22	2
1Pet.2.15	Matt.7.26	2
1Pet.2.15	Matt.25.2	2
1Pet.2.15	Rom.1.21	2
1Pet.2.15	Gal.3.1	2
1Pet.2.15	Eph.6.6-Eph.6.7	2
1Pet.2.15	1Thess.4.3	2
1Pet.2.15	1Thess.5.18	2
1Pet.2.15	1Tim.1.13	2
1Pet.2.15	Titus.2.8	2
1Pet.2.15	Titus.3.3	2
1Pet.2.15	1Pet.3.17	2
1Pet.2.15	1Pet.4.2	2
1Pet.2.15	2Pet.2.12	2
1Pet.2.15	Jude.1.10	2
1Pet.2.15	Deut.32.6	1
1Pet.2.15	Job.5.16	1
1Pet.2.15	Ps.5.5	1
1Pet.2.16	Rom.6.22	5
1Pet.2.16	1Cor.7.22	4
1Pet.2.16	Jas.1.25	4
1Pet.2.16	Matt.23.13	2
1Pet.2.16	John.8.32-John.8.36	2
1Pet.2.16	John.15.22	2
1Pet.2.16	Rom.6.18	2
1Pet.2.16	Gal.5.1	2
1Pet.2.16	Gal.5.13	2
1Pet.2.16	Eph.6.6	2
1Pet.2.16	Col.3.24	2
1Pet.2.16	1Thess.2.5	2
1Pet.2.16	Jas.2.12	2
1Pet.2.16	2Pet.2.19	2
1Pet.2.16	Jude.1.4	2
1Pet.2.17	Rom.13.7	7
1Pet.2.17	Prov.24.21	6
1Pet.2.17	Rom.12.10	5
1Pet.2.17	1Sam.15.30	4
1Pet.2.17	Matt.22.21	3
1Pet.2.17	Heb.13.1	3
1Pet.2.17	1Pet.1.22	3
1Pet.2.17	Gen.20.11	2
1Pet.2.17	Gen.22.12	2
1Pet.2.17	Gen.42.18	2
1Pet.2.17	Exod.20.12	2
1Pet.2.17	Lev.19.32	2
1Pet.2.17	1Chr.29.20	2
1Pet.2.17	Ps.111.10	2
1Pet.2.17	Prov.1.7	2
1Pet.2.17	Prov.23.17	2
1Pet.2.17	Eccl.8.2	2
1Pet.2.17	Zech.11.14	2
1Pet.2.17	John.13.35	2
1Pet.2.17	2Cor.7.1	2
1Pet.2.17	Eph.5.21	2
1Pet.2.17	Phil.2.3	2
1Pet.2.17	1Tim.6.1	2
1Pet.2.17	1Pet.5.5	2
1Pet.2.18	Jas.3.17	4
1Pet.2.18	Ps.101.4	2
1Pet.2.18	Prov.3.32	2
1Pet.2.18	Prov.8.13	2
1Pet.2.18	Prov.10.32	2
1Pet.2.18	Prov.11.20	2
1Pet.2.18	2Cor.10.1	2
1Pet.2.18	Gal.5.22	2
1Pet.2.18	Eph.6.5-Eph.6.7	2
1Pet.2.18	Col.3.22-Col.3.25	2
1Pet.2.18	1Tim.6.1-1Tim.6.3	2
1Pet.2.18	Titus.2.9-Titus.2.10	2
1Pet.2.18	Titus.3.2	2
1Pet.2.19	Rom.13.5	3
1Pet.2.19	Job.21.27	2
1Pet.2.19	Ps.35.19	2
1Pet.2.19	Ps.38.19	2
1Pet.2.19	Ps.69.4	2
1Pet.2.19	Ps.119.86	2
1Pet.2.19	Matt.5.10-Matt.5.12	2
1Pet.2.19	Luke.6.32	2
1Pet.2.19	John.15.21	2
1Pet.2.19	Acts.11.23	2
1Pet.2.19	1Cor.15.10	2
1Pet.2.19	2Cor.1.12	2
1Pet.2.19	2Cor.8.1	2
1Pet.2.19	2Tim.1.12	2
1Pet.2.19	1Pet.2.20	2
1Pet.2.19	1Pet.3.14-1Pet.3.17	2
1Pet.2.20	1Pet.2.19	4
1Pet.2.20	1Pet.3.17	3
1Pet.2.20	Matt.5.10-Matt.5.12	2
1Pet.2.20	Matt.5.47	2
1Pet.2.20	Matt.26.67	2
1Pet.2.20	Mark.14.65	2
1Pet.2.20	Luke.6.32	2
1Pet.2.20	Rom.12.1-Rom.12.2	2
1Pet.2.20	1Cor.4.11	2
1Pet.2.20	Eph.5.10	2
1Pet.2.20	Phil.4.18	2
1Pet.2.20	1Pet.3.14	2
1Pet.2.20	1Pet.4.14-1Pet.4.16	2
1Pet.2.21	Acts.14.22	5
1Pet.2.21	Matt.16.24	3
1Pet.2.21	John.16.33	3
1Pet.2.21	Rom.8.29	3
1Pet.2.21	1Pet.3.18	3
1Pet.2.21	1Pet.4.1	3
1Pet.2.21	1John.2.6	3
1Pet.2.21	1John.3.16	3
1Pet.2.21	Ps.85.13	2
1Pet.2.21	Matt.10.38	2
1Pet.2.21	Matt.11.29	2
1Pet.2.21	Mark.8.34-Mark.8.35	2
1Pet.2.21	Luke.9.23-Luke.9.25	2
1Pet.2.21	Luke.14.26-Luke.14.27	2
1Pet.2.21	Luke.24.26	2
1Pet.2.21	John.13.15	2
1Pet.2.21	Acts.9.16	2
1Pet.2.21	Acts.17.3	2
1Pet.2.21	1Cor.11.1	2
1Pet.2.21	Eph.5.2	2
1Pet.2.21	Phil.2.5	2
1Pet.2.21	1Thess.3.3	2
1Pet.2.21	1Thess.4.2	2
1Pet.2.21	2Tim.3.12	2
1Pet.2.21	Heb.2.10	2
1Pet.2.21	1Pet.1.20	2
1Pet.2.21	1Pet.2.24	2
1Pet.2.21	1Pet.3.9	2
1Pet.2.21	Rev.12.11	2
1Pet.2.22	Isa.53.9	5
1Pet.2.22	2Cor.5.21	4
1Pet.2.22	Heb.4.15	3
1Pet.2.22	1John.3.5	3
1Pet.2.22	Matt.27.4	2
1Pet.2.22	Matt.27.19	2
1Pet.2.22	Matt.27.23-Matt.27.24	2
1Pet.2.22	Luke.23.41	2
1Pet.2.22	Luke.23.47	2
1Pet.2.22	John.1.47	2
1Pet.2.22	John.8.46	2
1Pet.2.22	Heb.7.26-Heb.7.27	2
1Pet.2.22	Heb.9.28	2
1Pet.2.22	1John.2.1	2
1Pet.2.22	Rev.14.5	2
1Pet.2.23	Isa.53.7	5
1Pet.2.23	Luke.23.46	4
1Pet.2.23	Heb.12.3	4
1Pet.2.23	Gen.18.25	2
1Pet.2.23	Ps.7.11	2
1Pet.2.23	Ps.10.14	2
1Pet.2.23	Ps.31.5	2
1Pet.2.23	Ps.37.5	2
1Pet.2.23	Ps.38.12-Ps.38.14	2
1Pet.2.23	Ps.96.13	2
1Pet.2.23	Matt.27.39-Matt.27.44	2
1Pet.2.23	Mark.14.60-Mark.14.61	2
1Pet.2.23	Mark.15.29-Mark.15.32	2
1Pet.2.23	Luke.22.64-Luke.22.65	2
1Pet.2.23	Luke.23.9	2
1Pet.2.23	Luke.23.34-Luke.23.39	2
1Pet.2.23	John.8.48-John.8.49	2
1Pet.2.23	John.19.9-John.19.11	2
1Pet.2.23	Acts.4.29	2
1Pet.2.23	Acts.7.59	2
1Pet.2.23	Acts.8.32-Acts.8.35	2
1Pet.2.23	Acts.9.1	2
1Pet.2.23	Acts.17.31	2
1Pet.2.23	Rom.2.5	2
1Pet.2.23	Eph.6.9	2
1Pet.2.23	2Thess.1.5	2
1Pet.2.23	2Tim.1.12	2
1Pet.2.23	2Tim.4.8	2
1Pet.2.23	1Pet.3.9	2
1Pet.2.23	1Pet.4.19	2
1Pet.2.23	Rev.19.11	2
1Pet.2.24	Isa.53.4-Isa.53.6	5
1Pet.2.24	Rom.6.2	5
1Pet.2.24	Rom.6.11	5
1Pet.2.24	Heb.9.28	5
1Pet.2.24	Isa.53.11	4
1Pet.2.24	Matt.8.17	3
1Pet.2.24	Acts.5.30	3
1Pet.2.24	Rom.7.6	3
1Pet.2.24	Gal.3.13	3
1Pet.2.24	Col.2.20	3
1Pet.2.24	Col.3.3	3
1Pet.2.24	Exod.28.38	2
1Pet.2.24	Lev.16.22	2
1Pet.2.24	Lev.22.9	2
1Pet.2.24	Num.18.22	2
1Pet.2.24	Deut.21.22-Deut.21.23	2
1Pet.2.24	Ps.38.4	2
1Pet.2.24	Ps.147.3	2
1Pet.2.24	Mal.4.2	2
1Pet.2.24	Matt.5.20	2
1Pet.2.24	Matt.27.26	2
1Pet.2.24	Mark.15.15	2
1Pet.2.24	Luke.1.74-Luke.1.75	2
1Pet.2.24	Luke.4.18	2
1Pet.2.24	John.1.29	2
1Pet.2.24	John.19.1	2
1Pet.2.24	Acts.10.35	2
1Pet.2.24	Acts.10.39	2
1Pet.2.24	Acts.13.29	2
1Pet.2.24	Rom.6.7	2
1Pet.2.24	Rom.6.13	2
1Pet.2.24	Rom.6.16	2
1Pet.2.24	Rom.6.22	2
1Pet.2.24	2Cor.6.17	2
1Pet.2.24	Eph.5.9	2
1Pet.2.24	Phil.1.11	2
1Pet.2.24	Heb.7.26	2
1Pet.2.24	Heb.12.13	2
1Pet.2.24	Jas.5.16	2
1Pet.2.24	1Pet.4.1-1Pet.4.2	2
1Pet.2.24	1John.2.29	2
1Pet.2.24	1John.3.7	2
1Pet.2.24	Rev.22.2	2
1Pet.2.25	Isa.53.6	5
1Pet.2.25	Ps.119.176	3
1Pet.2.25	Ezek.34.6	3
1Pet.2.25	Luke.15.4-Luke.15.6	3
1Pet.2.25	John.10.11-John.10.16	3
1Pet.2.25	1Pet.5.4	3
1Pet.2.25	Ps.23.1-Ps.23.3	2
1Pet.2.25	Ps.80.1	2
1Pet.2.25	Song.1.7-Song.1.8	2
1Pet.2.25	Isa.40.11	2
1Pet.2.25	Jer.23.2	2
1Pet.2.25	Ezek.34.11-Ezek.34.16	2
1Pet.2.25	Ezek.34.23-Ezek.34.24	2
1Pet.2.25	Ezek.37.24	2
1Pet.2.25	Zech.13.7	2
1Pet.2.25	Matt.9.36	2
1Pet.2.25	Matt.18.12	2
1Pet.2.25	Acts.20.28	2
1Pet.2.25	Heb.3.1	2
1Pet.2.25	Heb.13.20	2
1Pet.3.1	1Cor.7.16	4
1Pet.3.1	Col.3.18	4
1Pet.3.1	Gen.3.16	3
1Pet.3.1	Matt.18.15	3
1Pet.3.1	1Cor.9.19-1Cor.9.22	3
1Pet.3.1	Esth.1.16-Esth.1.20	2
1Pet.3.1	Prov.11.30	2
1Pet.3.1	Prov.18.19	2
1Pet.3.1	Rom.6.17	2
1Pet.3.1	Rom.7.2	2
1Pet.3.1	Rom.10.16	2
1Pet.3.1	1Cor.11.3	2
1Pet.3.1	1Cor.14.34	2
1Pet.3.1	Eph.5.22-Eph.5.24	2
1Pet.3.1	Eph.5.33	2
1Pet.3.1	Col.4.5	2
1Pet.3.1	2Thess.1.8	2
1Pet.3.1	1Tim.2.11-1Tim.2.12	2
1Pet.3.1	Titus.2.3-Titus.2.6	2
1Pet.3.1	Heb.5.9	2
1Pet.3.1	Heb.11.8	2
1Pet.3.1	Jas.5.19-Jas.5.20	2
1Pet.3.1	1Pet.1.22	2
1Pet.3.1	1Pet.3.7	2
1Pet.3.1	1Pet.4.17	2
1Pet.3.2	Eph.5.33	2
1Pet.3.2	Eph.6.5	2
1Pet.3.2	Phil.1.27	2
1Pet.3.2	Phil.3.20	2
1Pet.3.2	Col.3.22	2
1Pet.3.2	1Tim.4.12	2
1Pet.3.2	1Pet.1.15	2
1Pet.3.2	1Pet.2.12	2
1Pet.3.2	1Pet.3.5-1Pet.3.6	2
1Pet.3.2	1Pet.3.15-1Pet.3.16	2
1Pet.3.2	2Pet.3.11	2
1Pet.3.3	Isa.3.18-Isa.3.24	3
1Pet.3.3	Gen.24.22	2
1Pet.3.3	Gen.24.47	2
1Pet.3.3	Gen.24.53	2
1Pet.3.3	Exod.3.22	2
1Pet.3.3	Exod.32.2	2
1Pet.3.3	Exod.33.4	2
1Pet.3.3	Exod.35.22	2
1Pet.3.3	Exod.38.8	2
1Pet.3.3	2Kgs.9.30	2
1Pet.3.3	Esth.5.1	2
1Pet.3.3	Ps.45.9	2
1Pet.3.3	Isa.52.1	2
1Pet.3.3	Isa.61.10	2
1Pet.3.3	Jer.2.32	2
1Pet.3.3	Jer.4.30	2
1Pet.3.3	Ezek.16.7-Ezek.16.13	2
1Pet.3.3	Ezek.23.40	2
1Pet.3.3	Rom.12.2	2
1Pet.3.3	1Tim.2.9-1Tim.2.10	2
1Pet.3.3	Titus.2.3-Titus.2.15	2
1Pet.3.4	Rom.7.22	6
1Pet.3.4	Ps.149.4	4
1Pet.3.4	Rom.2.29	4
1Pet.3.4	Isa.61.1	3
1Pet.3.4	Matt.11.29	3
1Pet.3.4	2Cor.4.16	3
1Pet.3.4	Eph.4.2	3
1Pet.3.4	Col.3.12	3
1Pet.3.4	1Thess.4.11	3
1Pet.3.4	Titus.3.2	3
1Pet.3.4	1Sam.16.7	2
1Pet.3.4	Ps.25.9	2
1Pet.3.4	Ps.45.13	2
1Pet.3.4	Ps.51.6	2
1Pet.3.4	Ps.131.2	2
1Pet.3.4	Ps.147.6	2
1Pet.3.4	Ps.147.10-Ps.147.11	2
1Pet.3.4	Isa.11.4	2
1Pet.3.4	Isa.29.19	2
1Pet.3.4	Isa.57.15	2
1Pet.3.4	Jer.51.59	2
1Pet.3.4	Matt.5.5	2
1Pet.3.4	Matt.21.5	2
1Pet.3.4	Matt.23.26	2
1Pet.3.4	Luke.11.40	2
1Pet.3.4	Luke.16.15	2
1Pet.3.4	Rom.6.6	2
1Pet.3.4	2Cor.10.1	2
1Pet.3.4	Gal.5.23	2
1Pet.3.4	Eph.4.22-Eph.4.24	2
1Pet.3.4	Col.3.3	2
1Pet.3.4	Col.3.9-Col.3.10	2
1Pet.3.4	2Thess.3.12	2
1Pet.3.4	1Tim.2.2	2
1Pet.3.4	2Tim.2.25	2
1Pet.3.4	Jas.1.21	2
1Pet.3.4	Jas.3.13-Jas.3.17	2
1Pet.3.4	1Pet.1.23	2
1Pet.3.4	1Pet.3.15	2
1Pet.3.5	1Tim.5.5	4
1Pet.3.5	1Sam.2.1	2
1Pet.3.5	Prov.31.10	2
1Pet.3.5	Prov.31.30	2
1Pet.3.5	Jer.49.11	2
1Pet.3.5	Luke.2.37	2
1Pet.3.5	Luke.8.2-Luke.8.3	2
1Pet.3.5	Acts.1.14	2
1Pet.3.5	Acts.9.36	2
1Pet.3.5	1Tim.2.10	2
1Pet.3.5	1Tim.2.15	2
1Pet.3.5	1Tim.5.10	2
1Pet.3.5	Titus.2.3-Titus.2.4	2
1Pet.3.5	Heb.11.11	2
1Pet.3.5	1Pet.3.2-1Pet.3.4	2
1Pet.3.6	Gen.18.12	6
1Pet.3.6	Gen.18.15	2
1Pet.3.6	Isa.57.11	2
1Pet.3.6	Dan.3.16-Dan.3.18	2
1Pet.3.6	Matt.26.69-Matt.26.75	2
1Pet.3.6	Acts.4.8-Acts.4.13	2
1Pet.3.6	Acts.4.19	2
1Pet.3.6	Rom.9.7-Rom.9.9	2
1Pet.3.6	Gal.4.22-Gal.4.26	2
1Pet.3.6	1Pet.3.14-1Pet.3.15	2
1Pet.3.7	Col.3.19	5
1Pet.3.7	1Thess.4.4	4
1Pet.3.7	Eph.5.25-Eph.5.28	3
1Pet.3.7	Eph.5.33	3
1Pet.3.7	Gen.2.23-Gen.2.24	2
1Pet.3.7	Job.42.8	2
1Pet.3.7	Prov.5.15-Prov.5.19	2
1Pet.3.7	Mal.2.14-Mal.2.16	2
1Pet.3.7	Matt.5.23-Matt.5.24	2
1Pet.3.7	Matt.18.19	2
1Pet.3.7	Matt.19.3-Matt.19.9	2
1Pet.3.7	Rom.8.26-Rom.8.27	2
1Pet.3.7	1Cor.7.3	2
1Pet.3.7	1Cor.12.22-1Cor.12.24	2
1Pet.3.7	Eph.3.6	2
1Pet.3.7	Eph.4.30	2
1Pet.3.7	Eph.6.18	2
1Pet.3.7	Titus.3.7	2
1Pet.3.7	Heb.1.14	2
1Pet.3.8	Matt.18.33	4
1Pet.3.8	Rom.12.10	4
1Pet.3.8	Heb.13.1	4
1Pet.3.8	1Pet.1.22	4
1Pet.3.8	Zech.7.9	3
1Pet.3.8	Luke.10.33	3
1Pet.3.8	Acts.4.32	3
1Pet.3.8	Eph.4.31-Eph.5.2	3
1Pet.3.8	Ps.103.13	2
1Pet.3.8	Prov.28.8	2
1Pet.3.8	Acts.2.1	2
1Pet.3.8	Acts.27.3	2
1Pet.3.8	Acts.28.7	2
1Pet.3.8	Rom.12.15-Rom.12.16	2
1Pet.3.8	Rom.15.5	2
1Pet.3.8	1Cor.1.10	2
1Pet.3.8	1Cor.12.26	2
1Pet.3.8	Eph.4.2	2
1Pet.3.8	Phil.3.16	2
1Pet.3.8	Phil.4.8-Phil.4.9	2
1Pet.3.8	Col.3.12	2
1Pet.3.8	Jas.2.13	2
1Pet.3.8	Jas.3.17	2
1Pet.3.8	Jas.5.11	2
1Pet.3.8	1Pet.2.17	2
1Pet.3.8	1Pet.5.5	2
1Pet.3.8	2Pet.1.7	2
1Pet.3.8	1John.3.14	2
1Pet.3.8	1John.3.18-1John.3.19	2
1Pet.3.9	Rom.12.17	6
1Pet.3.9	Rom.12.14	5
1Pet.3.9	1Thess.5.15	4
1Pet.3.9	Prov.20.22	3
1Pet.3.9	Matt.25.34	3
1Pet.3.9	Rom.12.19-Rom.12.21	3
1Pet.3.9	Eph.4.32	3
1Pet.3.9	Prov.17.13	2
1Pet.3.9	Matt.5.39	2
1Pet.3.9	Matt.5.44	2
1Pet.3.9	Matt.19.29	2
1Pet.3.9	Mark.10.17	2
1Pet.3.9	Luke.6.27-Luke.6.29	2
1Pet.3.9	Luke.10.25	2
1Pet.3.9	Luke.18.18	2
1Pet.3.9	Rom.8.28	2
1Pet.3.9	Rom.8.30	2
1Pet.3.9	1Cor.4.12-1Cor.4.13	2
1Pet.3.9	Heb.6.14	2
1Pet.3.9	1Pet.2.20-1Pet.2.23	2
1Pet.3.9	1Pet.5.10	2
1Pet.3.10	Ps.34.12-Ps.34.16	4
1Pet.3.10	Prov.3.2	3
1Pet.3.10	Prov.3.18	3
1Pet.3.10	Prov.4.22	3
1Pet.3.10	Prov.8.35	3
1Pet.3.10	Jas.1.26	3
1Pet.3.10	Deut.32.47	2
1Pet.3.10	Job.2.4	2
1Pet.3.10	Job.7.7-Job.7.8	2
1Pet.3.10	Job.9.25	2
1Pet.3.10	Job.33.28	2
1Pet.3.10	Ps.27.13	2
1Pet.3.10	Ps.49.19	2
1Pet.3.10	Ps.106.5	2
1Pet.3.10	Eccl.2.3	2
1Pet.3.10	Matt.13.16-Matt.13.17	2
1Pet.3.10	Matt.19.17	2
1Pet.3.10	Mark.8.35	2
1Pet.3.10	John.1.47	2
1Pet.3.10	John.12.25	2
1Pet.3.10	Jas.3.1-Jas.3.10	2
1Pet.3.10	1Pet.2.1	2
1Pet.3.10	1Pet.2.22	2
1Pet.3.10	Rev.14.5	2
1Pet.3.11	Ps.34.14	3
1Pet.3.11	Matt.5.9	3
1Pet.3.11	Rom.7.21	3
1Pet.3.11	Rom.12.18	3
1Pet.3.11	Heb.12.14	3
1Pet.3.11	Job.1.1	2
1Pet.3.11	Job.2.3	2
1Pet.3.11	Job.28.28	2
1Pet.3.11	Ps.37.27	2
1Pet.3.11	Ps.120.6-Ps.120.7	2
1Pet.3.11	Ps.125.4	2
1Pet.3.11	Prov.3.7	2
1Pet.3.11	Prov.16.6	2
1Pet.3.11	Prov.16.17	2
1Pet.3.11	Isa.1.16-Isa.1.17	2
1Pet.3.11	Matt.5.45	2
1Pet.3.11	Matt.6.13	2
1Pet.3.11	Mark.14.7	2
1Pet.3.11	Luke.1.79	2
1Pet.3.11	Luke.6.9	2
1Pet.3.11	Luke.6.35	2
1Pet.3.11	John.17.15	2
1Pet.3.11	Rom.5.1	2
1Pet.3.11	Rom.7.19	2
1Pet.3.11	Rom.8.6	2
1Pet.3.11	Rom.14.17	2
1Pet.3.11	Rom.14.19	2
1Pet.3.11	Gal.5.22	2
1Pet.3.11	Gal.6.10	2
1Pet.3.11	Col.3.15	2
1Pet.3.11	1Tim.6.18	2
1Pet.3.11	Heb.13.16	2
1Pet.3.11	Jas.3.17-Jas.3.18	2
1Pet.3.11	Jas.4.17	2
1Pet.3.11	3John.1.11	2
1Pet.3.12	Lev.17.10	2
1Pet.3.12	Lev.20.3	2
1Pet.3.12	Lev.20.6	2
1Pet.3.12	Lev.26.17	2
1Pet.3.12	Deut.11.12	2
1Pet.3.12	2Chr.7.15	2
1Pet.3.12	2Chr.16.9	2
1Pet.3.12	Ps.11.4	2
1Pet.3.12	Ps.34.15-Ps.34.16	2
1Pet.3.12	Ps.65.2	2
1Pet.3.12	Ps.80.16	2
1Pet.3.12	Prov.15.3	2
1Pet.3.12	Prov.15.8	2
1Pet.3.12	Prov.15.29	2
1Pet.3.12	Jer.21.10	2
1Pet.3.12	Ezek.15.7	2
1Pet.3.12	Zech.4.10	2
1Pet.3.12	John.9.31	2
1Pet.3.12	Jas.5.16	2
1Pet.3.13	Prov.16.7	6
1Pet.3.13	Ps.38.20	3
1Pet.3.13	Prov.15.9	3
1Pet.3.13	Rom.8.28	3
1Pet.3.13	Rom.13.3	3
1Pet.3.13	1Cor.14.1	3
1Pet.3.13	Eph.5.1	3
1Pet.3.13	1Thess.5.15	3
1Pet.3.13	1Tim.5.10	3
1Pet.3.13	3John.1.11	3
1Pet.3.14	1Pet.2.19-1Pet.2.20	5
1Pet.3.14	Isa.8.12-Isa.8.13	4
1Pet.3.14	Matt.5.10-Matt.5.12	3
1Pet.3.14	Matt.10.28	3
1Pet.3.14	Luke.6.22-Luke.6.23	3
1Pet.3.14	John.14.1	3
1Pet.3.14	John.14.27	3
1Pet.3.14	1Pet.4.13-1Pet.4.16	3
1Pet.3.14	Isa.41.10-Isa.41.14	2
1Pet.3.14	Isa.51.12	2
1Pet.3.14	Jer.1.8	2
1Pet.3.14	Jer.15.15	2
1Pet.3.14	Ezek.3.9	2
1Pet.3.14	Matt.10.18-Matt.10.22	2
1Pet.3.14	Matt.10.31	2
1Pet.3.14	Matt.10.39	2
1Pet.3.14	Matt.16.25	2
1Pet.3.14	Matt.19.29	2
1Pet.3.14	Mark.8.35	2
1Pet.3.14	Mark.10.29	2
1Pet.3.14	Luke.12.4-Luke.12.5	2
1Pet.3.14	Acts.9.16	2
1Pet.3.14	Acts.18.9-Acts.18.10	2
1Pet.3.14	2Cor.12.10	2
1Pet.3.14	Phil.1.29	2
1Pet.3.14	Jas.1.12	2
1Pet.3.14	1Pet.3.6	2
1Pet.3.15	Col.4.6	5
1Pet.3.15	Isa.29.23	3
1Pet.3.15	Num.20.12	2
1Pet.3.15	1Sam.12.7	2
1Pet.3.15	Ps.119.46	2
1Pet.3.15	Isa.1.18	2
1Pet.3.15	Isa.5.16	2
1Pet.3.15	Isa.41.21	2
1Pet.3.15	Jer.26.12-Jer.26.16	2
1Pet.3.15	Dan.3.16-Dan.3.18	2
1Pet.3.15	Amos.7.14-Amos.7.17	2
1Pet.3.15	Matt.10.18-Matt.10.20	2
1Pet.3.15	Luke.21.14-Luke.21.15	2
1Pet.3.15	Acts.4.8-Acts.4.12	2
1Pet.3.15	Acts.5.29-Acts.5.31	2
1Pet.3.15	Acts.21.39-Acts.22.5	2
1Pet.3.15	Acts.24.25	2
1Pet.3.15	Col.1.5	2
1Pet.3.15	Col.1.23	2
1Pet.3.15	2Tim.2.25-2Tim.2.26	2
1Pet.3.15	Titus.1.2	2
1Pet.3.15	Heb.3.6	2
1Pet.3.15	Heb.6.1	2
1Pet.3.15	Heb.6.18-Heb.6.19	2
1Pet.3.15	1Pet.1.3-1Pet.1.4	2
1Pet.3.15	1Pet.1.17	2
1Pet.3.15	1Pet.3.2	2
1Pet.3.15	1Pet.3.4	2
1Pet.3.15	Num.27.14	1
1Pet.3.15	Col.1.27	1
1Pet.3.16	1Pet.2.12	6
1Pet.3.16	Heb.13.18	5
1Pet.3.16	Matt.5.11	3
1Pet.3.16	1Tim.1.5	3
1Pet.3.16	1Pet.2.15	3
1Pet.3.16	1Pet.2.19	3
1Pet.3.16	1Pet.3.21	3
1Pet.3.16	Acts.24.16	2
1Pet.3.16	Rom.9.1	2
1Pet.3.16	2Cor.1.12	2
1Pet.3.16	2Cor.4.2	2
1Pet.3.16	1Tim.1.19	2
1Pet.3.16	2Tim.1.3	2
1Pet.3.16	Titus.2.8	2
1Pet.3.16	Heb.9.14	2
1Pet.3.16	1Pet.3.1-1Pet.3.2	2
1Pet.3.17	1Pet.2.20	3
1Pet.3.17	1Pet.4.19	3
1Pet.3.17	Matt.26.39	2
1Pet.3.17	Matt.26.42	2
1Pet.3.17	Acts.21.14	2
1Pet.3.17	1Pet.2.15	2
1Pet.3.17	1Pet.3.14	2
1Pet.3.17	1Pet.4.15	2
1Pet.3.18	1Pet.4.1	8
1Pet.3.18	Heb.9.26	5
1Pet.3.18	Heb.9.28	4
1Pet.3.18	1John.1.9	4
1Pet.3.18	Rom.1.4	3
1Pet.3.18	Rom.4.25	3
1Pet.3.18	Rom.8.3	3
1Pet.3.18	2Cor.5.21	3
1Pet.3.18	2Cor.13.4	3
1Pet.3.18	1Pet.4.6	3
1Pet.3.18	Isa.53.4-Isa.53.6	2
1Pet.3.18	Dan.9.26	2
1Pet.3.18	Zech.9.9	2
1Pet.3.18	Matt.27.19	2
1Pet.3.18	Matt.27.24	2
1Pet.3.18	Acts.3.14	2
1Pet.3.18	Acts.22.14	2
1Pet.3.18	Rom.5.2	2
1Pet.3.18	Rom.5.6-Rom.5.8	2
1Pet.3.18	Rom.8.11	2
1Pet.3.18	2Cor.1.24	2
1Pet.3.18	Gal.1.4	2
1Pet.3.18	Gal.3.13	2
1Pet.3.18	Eph.2.16-Eph.2.18	2
1Pet.3.18	Col.1.21-Col.1.22	2
1Pet.3.18	Titus.2.14	2
1Pet.3.18	Jas.5.6	2
1Pet.3.18	1Pet.2.21-1Pet.2.24	2
1Pet.3.19	1Pet.4.6	4
1Pet.3.19	Isa.42.7	3
1Pet.3.19	Isa.49.9	2
1Pet.3.19	Isa.61.1	2
1Pet.3.19	1Pet.1.11-1Pet.1.12	2
1Pet.3.19	Rev.19.10	2
1Pet.3.19	Rev.20.7	2
1Pet.3.19	Neh.9.30	1
1Pet.3.20	Gen.6.3	5
1Pet.3.20	Gen.6.5	5
1Pet.3.20	Heb.11.7	5
1Pet.3.20	Gen.8.18	4
1Pet.3.20	2Pet.2.5	4
1Pet.3.20	Gen.6.13-Gen.7.7	2
1Pet.3.20	Gen.7.13	2
1Pet.3.20	Gen.7.17-Gen.7.23	2
1Pet.3.20	Gen.8.1	2
1Pet.3.20	Isa.30.18	2
1Pet.3.20	Matt.7.14	2
1Pet.3.20	Matt.24.37-Matt.24.39	2
1Pet.3.20	Luke.12.32	2
1Pet.3.20	Luke.13.24-Luke.13.25	2
1Pet.3.20	Luke.17.26-Luke.17.30	2
1Pet.3.20	Rom.2.4-Rom.2.5	2
1Pet.3.20	Rom.9.22	2
1Pet.3.20	2Cor.2.15-2Cor.2.16	2
1Pet.3.20	Eph.5.26	2
1Pet.3.20	2Pet.3.15	2
1Pet.3.21	1Pet.1.3	5
1Pet.3.21	Mark.16.16	4
1Pet.3.21	Matt.28.19	3
1Pet.3.21	Acts.2.38	3
1Pet.3.21	Acts.16.33	3
1Pet.3.21	Acts.22.16	3
1Pet.3.21	Rom.6.3-Rom.6.6	3
1Pet.3.21	1Cor.12.13	3
1Pet.3.21	Gal.3.27	3
1Pet.3.21	Col.2.12	3
1Pet.3.21	Ezek.36.25-Ezek.36.26	2
1Pet.3.21	Zech.13.1	2
1Pet.3.21	Acts.8.36	2
1Pet.3.21	Rom.5.14	2
1Pet.3.21	Rom.10.9-Rom.10.10	2
1Pet.3.21	1Cor.4.6	2
1Pet.3.21	2Cor.1.12	2
1Pet.3.21	2Cor.7.1	2
1Pet.3.21	Eph.5.26	2
1Pet.3.21	1Tim.6.12	2
1Pet.3.21	Titus.3.5-Titus.3.7	2
1Pet.3.21	Heb.9.24	2
1Pet.3.21	Heb.11.19	2
1Pet.3.22	Rom.8.38	5
1Pet.3.22	Mark.16.19	4
1Pet.3.22	Heb.8.1	4
1Pet.3.22	Rom.8.34	3
1Pet.3.22	1Cor.15.24	3
1Pet.3.22	Eph.1.20-Eph.1.21	3
1Pet.3.22	Col.3.1	3
1Pet.3.22	Heb.1.3	3
1Pet.3.22	Heb.6.20	3
1Pet.3.22	Ps.110.1	2
1Pet.3.22	Matt.22.44	2
1Pet.3.22	Mark.12.36	2
1Pet.3.22	Luke.20.42	2
1Pet.3.22	Acts.1.11	2
1Pet.3.22	Acts.2.34-Acts.2.36	2
1Pet.3.22	Acts.3.21	2
1Pet.3.22	Heb.1.13	2
1Pet.3.22	Heb.9.24	2
1Pet.3.22	Heb.10.12	2
1Pet.3.22	Heb.12.2	2
1Pet.4.1	Rom.6.2	4
1Pet.4.1	Rom.6.7	4
1Pet.4.1	Gal.5.24	3
1Pet.4.1	1Pet.3.18	3
1Pet.4.1	Isa.1.16	2
1Pet.4.1	Ezek.16.41	2
1Pet.4.1	Rom.6.11	2
1Pet.4.1	Rom.13.12-Rom.13.14	2
1Pet.4.1	Gal.2.20	2
1Pet.4.1	Eph.6.13	2
1Pet.4.1	Phil.2.5	2
1Pet.4.1	Col.3.3-Col.3.5	2
1Pet.4.1	Heb.4.10	2
1Pet.4.1	Heb.12.3	2
1Pet.4.2	Mark.3.35	3
1Pet.4.2	Rom.6.11	3
1Pet.4.2	Rom.14.7	3
1Pet.4.2	2Cor.5.15	3
1Pet.4.2	Ps.143.10	2
1Pet.4.2	Hos.6.7	2
1Pet.4.2	Matt.7.21	2
1Pet.4.2	Matt.12.50	2
1Pet.4.2	Matt.21.31	2
1Pet.4.2	Mark.7.21	2
1Pet.4.2	John.1.13	2
1Pet.4.2	John.7.17	2
1Pet.4.2	Rom.6.2	2
1Pet.4.2	Rom.7.4	2
1Pet.4.2	Rom.12.2	2
1Pet.4.2	Gal.2.19-Gal.2.20	2
1Pet.4.2	Eph.2.3	2
1Pet.4.2	Eph.4.17	2
1Pet.4.2	Eph.4.22-Eph.4.24	2
1Pet.4.2	Eph.5.7-Eph.5.8	2
1Pet.4.2	Eph.5.17	2
1Pet.4.2	Eph.6.6	2
1Pet.4.2	Col.1.9	2
1Pet.4.2	Col.3.7-Col.3.8	2
1Pet.4.2	Col.4.12	2
1Pet.4.2	1Thess.5.18	2
1Pet.4.2	Titus.3.3-Titus.3.8	2
1Pet.4.2	Heb.13.21	2
1Pet.4.2	Jas.1.18	2
1Pet.4.2	1Pet.1.14	2
1Pet.4.2	1Pet.2.1	2
1Pet.4.2	1Pet.2.14-1Pet.2.15	2
1Pet.4.2	1John.2.17	2
1Pet.4.3	Isa.28.7	3
1Pet.4.3	Ezek.44.6	3
1Pet.4.3	Ezek.45.9	3
1Pet.4.3	Acts.17.30	3
1Pet.4.3	Gal.5.21	3
1Pet.4.3	Eph.5.18	3
1Pet.4.3	1Thess.4.5	3
1Pet.4.3	Deut.12.30-Deut.12.31	2
1Pet.4.3	2Sam.13.28	2
1Pet.4.3	1Kgs.21.26	2
1Pet.4.3	2Chr.15.8	2
1Pet.4.3	Prov.23.29-Prov.23.35	2
1Pet.4.3	Isa.5.11	2
1Pet.4.3	Isa.65.4	2
1Pet.4.3	Jer.16.18	2
1Pet.4.3	Mark.7.22	2
1Pet.4.3	Rom.1.20-Rom.1.32	2
1Pet.4.3	Rom.8.12-Rom.8.13	2
1Pet.4.3	Rom.13.13	2
1Pet.4.3	1Cor.6.11	2
1Pet.4.3	1Cor.12.2	2
1Pet.4.3	2Cor.12.21	2
1Pet.4.3	Gal.5.19	2
1Pet.4.3	Eph.2.2-Eph.2.3	2
1Pet.4.3	Eph.4.17-Eph.4.19	2
1Pet.4.3	Titus.3.3	2
1Pet.4.3	1Pet.1.14	2
1Pet.4.3	Jude.1.4	2
1Pet.4.3	Rev.17.4-Rev.17.5	2
1Pet.4.4	1Pet.3.16	6
1Pet.4.4	1Pet.2.12	3
1Pet.4.4	2Pet.2.22	3
1Pet.4.4	Jude.1.10	3
1Pet.4.4	Matt.23.25	2
1Pet.4.4	Luke.15.13	2
1Pet.4.4	Acts.13.45	2
1Pet.4.4	Acts.18.6	2
1Pet.4.4	Rom.13.13	2
1Pet.4.4	Eph.5.18	2
1Pet.4.4	2Pet.2.12	2
1Pet.4.5	Acts.10.42	5
1Pet.4.5	2Tim.4.1	4
1Pet.4.5	Jas.5.9	3
1Pet.4.5	Ps.1.6	2
1Pet.4.5	Eccl.12.14	2
1Pet.4.5	Ezek.18.30	2
1Pet.4.5	Mal.3.13-Mal.3.15	2
1Pet.4.5	Matt.12.36	2
1Pet.4.5	Matt.25.31-Matt.25.46	2
1Pet.4.5	Luke.16.2	2
1Pet.4.5	John.5.22-John.5.23	2
1Pet.4.5	John.5.28-John.5.29	2
1Pet.4.5	Acts.17.31	2
1Pet.4.5	Rom.14.10-Rom.14.12	2
1Pet.4.5	1Cor.15.51-1Cor.15.52	2
1Pet.4.5	Jude.1.14-Jude.1.15	2
1Pet.4.6	1Pet.3.19	3
1Pet.4.6	John.5.25-John.5.26	2
1Pet.4.6	Rom.8.2	2
1Pet.4.6	Rom.8.9-Rom.8.11	2
1Pet.4.6	1Cor.11.31-1Cor.11.32	2
1Pet.4.6	Gal.2.19	2
1Pet.4.6	Gal.5.25	2
1Pet.4.6	Eph.2.3-Eph.2.5	2
1Pet.4.6	Titus.3.3-Titus.3.7	2
1Pet.4.6	1Pet.4.1-1Pet.4.2	2
1Pet.4.6	Rev.14.18	2
1Pet.4.6	Matt.24.9	1
1Pet.4.7	1Pet.1.13	4
1Pet.4.7	Luke.21.36	3
1Pet.4.7	Eccl.7.2	2
1Pet.4.7	Jer.5.31	2
1Pet.4.7	Ezek.7.2-Ezek.7.3	2
1Pet.4.7	Ezek.7.6	2
1Pet.4.7	Matt.24.13-Matt.24.14	2
1Pet.4.7	Matt.24.42	2
1Pet.4.7	Matt.25.13	2
1Pet.4.7	Matt.26.38-Matt.26.41	2
1Pet.4.7	Mark.13.33-Mark.13.37	2
1Pet.4.7	Mark.14.37-Mark.14.38	2
1Pet.4.7	Luke.21.34	2
1Pet.4.7	Luke.22.46	2
1Pet.4.7	Rom.12.12	2
1Pet.4.7	Rom.13.11-Rom.13.12	2
1Pet.4.7	1Cor.7.29	2
1Pet.4.7	1Cor.15.24	2
1Pet.4.7	Eph.6.18	2
1Pet.4.7	Phil.4.5	2
1Pet.4.7	Col.4.2	2
1Pet.4.7	1Thess.5.6-1Thess.5.8	2
1Pet.4.7	2Tim.4.5	2
1Pet.4.7	Titus.2.12	2
1Pet.4.7	Heb.10.25	2
1Pet.4.7	Jas.5.8-Jas.5.9	2
1Pet.4.7	1Pet.3.7	2
1Pet.4.7	1Pet.5.8	2
1Pet.4.7	2Pet.3.9-2Pet.3.11	2
1Pet.4.7	1John.2.18-1John.2.19	2
1Pet.4.7	Rev.16.15	2
1Pet.4.8	Prov.10.12	6
1Pet.4.8	Jas.5.20	5
1Pet.4.8	1Pet.1.22	5
1Pet.4.8	Prov.17.9	4
1Pet.4.8	Col.3.14	3
1Pet.4.8	Prov.12.16	2
1Pet.4.8	Prov.18.13	2
1Pet.4.8	1Cor.13.1-1Cor.14.1	2
1Pet.4.8	1Thess.3.12	2
1Pet.4.8	1Thess.4.9-1Thess.4.10	2
1Pet.4.8	2Thess.1.3	2
1Pet.4.8	1Tim.1.5	2
1Pet.4.8	Heb.13.1	2
1Pet.4.8	Jas.5.12	2
1Pet.4.8	2Pet.1.6-2Pet.1.7	2
1Pet.4.8	3John.1.2	2
1Pet.4.9	Phil.2.14	4
1Pet.4.9	1Tim.3.2	4
1Pet.4.9	Heb.13.2	4
1Pet.4.9	Rom.12.13	3
1Pet.4.9	Titus.1.8	3
1Pet.4.9	Rom.16.23	2
1Pet.4.9	2Cor.9.7	2
1Pet.4.9	Phlm.1.14	2
1Pet.4.9	Heb.13.16	2
1Pet.4.9	Jas.5.9	2
1Pet.4.10	1Cor.4.1-1Cor.4.2	4
1Pet.4.10	Luke.12.42	3
1Pet.4.10	1Cor.4.7	3
1Pet.4.10	Titus.1.7	3
1Pet.4.10	Matt.20.28	2
1Pet.4.10	Matt.24.14	2
1Pet.4.10	Matt.24.21	2
1Pet.4.10	Matt.24.45	2
1Pet.4.10	Matt.25.14-Matt.25.15	2
1Pet.4.10	Matt.25.44	2
1Pet.4.10	Mark.10.45	2
1Pet.4.10	Luke.8.3	2
1Pet.4.10	Luke.16.1-Luke.16.8	2
1Pet.4.10	Luke.19.13	2
1Pet.4.10	Rom.12.6-Rom.12.8	2
1Pet.4.10	Rom.15.25	2
1Pet.4.10	Rom.15.27	2
1Pet.4.10	1Cor.3.10	2
1Pet.4.10	1Cor.12.4-1Cor.12.11	2
1Pet.4.10	1Cor.15.10	2
1Pet.4.10	2Cor.6.1	2
1Pet.4.10	2Cor.9.1	2
1Pet.4.10	Eph.3.8	2
1Pet.4.10	Eph.4.11	2
1Pet.4.10	2Tim.1.18	2
1Pet.4.10	Heb.6.10	2
1Pet.4.11	Acts.7.38	5
1Pet.4.11	1Cor.10.31	5
1Pet.4.11	Rom.3.2	4
1Pet.4.11	Heb.5.12	4
1Pet.4.11	1Pet.2.5	4
1Pet.4.11	1Pet.5.11	4
1Pet.4.11	Jude.1.25	3
1Pet.4.11	1Chr.29.11-1Chr.29.16	2
1Pet.4.11	Ps.145.13	2
1Pet.4.11	Isa.8.20	2
1Pet.4.11	Jer.23.22	2
1Pet.4.11	Dan.4.3	2
1Pet.4.11	Dan.4.34	2
1Pet.4.11	Dan.7.14	2
1Pet.4.11	Matt.6.13	2
1Pet.4.11	Rom.11.36	2
1Pet.4.11	Rom.12.6-Rom.12.8	2
1Pet.4.11	Rom.16.27	2
1Pet.4.11	1Cor.3.10	2
1Pet.4.11	1Cor.6.20	2
1Pet.4.11	1Cor.12.4	2
1Pet.4.11	2Cor.9.13	2
1Pet.4.11	Eph.3.20-Eph.3.21	2
1Pet.4.11	Eph.4.29	2
1Pet.4.11	Eph.5.20	2
1Pet.4.11	Eph.6.10	2
1Pet.4.11	Phil.1.11	2
1Pet.4.11	Phil.2.11	2
1Pet.4.11	Col.4.6	2
1Pet.4.11	1Tim.1.17	2
1Pet.4.11	1Tim.6.16	2
1Pet.4.11	Jas.1.19	2
1Pet.4.11	Jas.1.26	2
1Pet.4.11	Jas.3.1-Jas.3.6	2
1Pet.4.11	1Pet.4.10	2
1Pet.4.11	Rev.1.5-Rev.1.6	2
1Pet.4.11	Rev.5.12-Rev.5.14	2
1Pet.4.12	Isa.28.21	2
1Pet.4.12	Dan.11.35	2
1Pet.4.12	1Cor.3.13	2
1Pet.4.12	1Cor.10.13	2
1Pet.4.12	1Thess.3.2-1Thess.3.4	2
1Pet.4.12	2Tim.3.12	2
1Pet.4.12	1Pet.1.6-1Pet.1.7	2
1Pet.4.12	1Pet.4.4	2
1Pet.4.12	1Pet.5.9	2
1Pet.4.13	Rom.8.17	5
1Pet.4.13	Phil.3.10	4
1Pet.4.13	1Pet.5.1	4
1Pet.4.13	Acts.5.41	3
1Pet.4.13	2Cor.4.10	3
1Pet.4.13	2Tim.2.12	3
1Pet.4.13	Rev.1.9	3
1Pet.4.13	Isa.25.9	2
1Pet.4.13	Isa.35.10	2
1Pet.4.13	Isa.51.11	2
1Pet.4.13	Matt.5.12	2
1Pet.4.13	Matt.16.27	2
1Pet.4.13	Matt.25.21	2
1Pet.4.13	Matt.25.23	2
1Pet.4.13	Matt.25.31	2
1Pet.4.13	Matt.25.34	2
1Pet.4.13	Mark.8.38	2
1Pet.4.13	Luke.6.22-Luke.6.23	2
1Pet.4.13	Luke.17.30	2
1Pet.4.13	Acts.16.25	2
1Pet.4.13	Rom.5.3	2
1Pet.4.13	2Cor.1.7	2
1Pet.4.13	2Cor.4.17	2
1Pet.4.13	2Cor.12.9-2Cor.12.10	2
1Pet.4.13	Col.1.24	2
1Pet.4.13	2Thess.1.7-2Thess.1.10	2
1Pet.4.13	Jas.1.2-Jas.1.3	2
1Pet.4.13	1Pet.1.5-1Pet.1.8	2
1Pet.4.13	1Pet.1.13	2
1Pet.4.13	1Pet.5.10	2
1Pet.4.13	Rev.1.7	2
1Pet.4.14	Matt.5.11	5
1Pet.4.14	1Pet.3.16	4
1Pet.4.14	Ps.89.51	3
1Pet.4.14	Luke.6.22	3
1Pet.4.14	Num.11.25-Num.11.26	2
1Pet.4.14	1Kgs.10.8	2
1Pet.4.14	2Kgs.2.15	2
1Pet.4.14	Ps.32.1-Ps.32.2	2
1Pet.4.14	Ps.49.9	2
1Pet.4.14	Ps.146.5	2
1Pet.4.14	Isa.11.2	2
1Pet.4.14	Isa.51.7	2
1Pet.4.14	Matt.5.16	2
1Pet.4.14	John.7.47-John.7.52	2
1Pet.4.14	John.8.48	2
1Pet.4.14	John.9.28	2
1Pet.4.14	John.9.34	2
1Pet.4.14	John.15.21	2
1Pet.4.14	Acts.13.45	2
1Pet.4.14	Acts.18.6	2
1Pet.4.14	2Cor.12.10	2
1Pet.4.14	Gal.1.24	2
1Pet.4.14	2Thess.1.10-2Thess.1.12	2
1Pet.4.14	Heb.11.26	2
1Pet.4.14	Jas.1.12	2
1Pet.4.14	Jas.5.11	2
1Pet.4.14	1Pet.2.12	2
1Pet.4.14	1Pet.2.19-1Pet.2.20	2
1Pet.4.14	1Pet.3.14	2
1Pet.4.14	1Pet.4.4-1Pet.4.5	2
1Pet.4.14	2Pet.2.2	2
1Pet.4.15	1Thess.4.11	5
1Pet.4.15	2Thess.3.11	5
1Pet.4.15	1Tim.5.13	5
1Pet.4.15	Matt.5.11	2
1Pet.4.15	2Tim.2.9	2
1Pet.4.15	1Pet.2.19-1Pet.2.20	2
1Pet.4.15	1Pet.3.17	2
1Pet.4.16	Acts.5.41	4
1Pet.4.16	Acts.26.28	4
1Pet.4.16	Acts.11.26	3
1Pet.4.16	Isa.24.15	2
1Pet.4.16	Isa.50.7	2
1Pet.4.16	Isa.54.4	2
1Pet.4.16	Rom.5.2-Rom.5.5	2
1Pet.4.16	Eph.3.13-Eph.3.15	2
1Pet.4.16	Phil.1.20	2
1Pet.4.16	Phil.1.29	2
1Pet.4.16	2Tim.1.12	2
1Pet.4.16	Heb.12.2-Heb.12.3	2
1Pet.4.16	Jas.1.2-Jas.1.4	2
1Pet.4.16	1Pet.3.17-1Pet.3.18	2
1Pet.4.16	1Pet.4.19	2
1Pet.4.17	2Thess.1.8	6
1Pet.4.17	Jer.25.29	5
1Pet.4.17	Ezek.9.6	4
1Pet.4.17	Luke.23.31	3
1Pet.4.17	Isa.10.12	2
1Pet.4.17	Jer.49.12	2
1Pet.4.17	Amos.3.2	2
1Pet.4.17	Mal.3.5	2
1Pet.4.17	Matt.3.9-Matt.3.10	2
1Pet.4.17	Matt.11.20-Matt.11.24	2
1Pet.4.17	Luke.10.12-Luke.10.14	2
1Pet.4.17	Luke.12.47-Luke.12.48	2
1Pet.4.17	Rom.2.9	2
1Pet.4.17	Gal.3.1	2
1Pet.4.17	Gal.5.7	2
1Pet.4.17	Heb.2.2	2
1Pet.4.17	Heb.2.4	2
1Pet.4.17	Heb.5.9	2
1Pet.4.17	Heb.11.8	2
1Pet.4.17	Heb.12.24-Heb.12.25	2
1Pet.4.17	1Pet.2.8	2
1Pet.4.18	Prov.11.31	5
1Pet.4.18	Luke.23.31	4
1Pet.4.18	Gen.13.13	2
1Pet.4.18	1Sam.15.18	2
1Pet.4.18	Ps.1.4-Ps.1.5	2
1Pet.4.18	Jer.25.29	2
1Pet.4.18	Ezek.18.24	2
1Pet.4.18	Zech.13.9	2
1Pet.4.18	Matt.24.22-Matt.24.24	2
1Pet.4.18	Mark.13.20-Mark.13.22	2
1Pet.4.18	Luke.15.1	2
1Pet.4.18	Acts.14.22	2
1Pet.4.18	Acts.27.24	2
1Pet.4.18	Acts.27.31	2
1Pet.4.18	Acts.27.42-Acts.27.44	2
1Pet.4.18	Rom.1.18	2
1Pet.4.18	Rom.5.6	2
1Pet.4.18	Rom.5.8	2
1Pet.4.18	1Cor.10.12	2
1Pet.4.18	Heb.4.1	2
1Pet.4.18	Heb.10.38-Heb.10.39	2
1Pet.4.18	1Pet.5.8	2
1Pet.4.18	2Pet.2.5-2Pet.2.6	2
1Pet.4.18	2Pet.3.7	2
1Pet.4.18	Jude.1.15	2
1Pet.4.19	Ps.31.5	3
1Pet.4.19	Luke.23.46	3
1Pet.4.19	2Tim.1.12	3
1Pet.4.19	1Pet.3.17	3
1Pet.4.19	Esth.4.16	2
1Pet.4.19	Ps.37.5	2
1Pet.4.19	Ps.138.8	2
1Pet.4.19	Ps.146.5-Ps.146.6	2
1Pet.4.19	Isa.40.27-Isa.40.28	2
1Pet.4.19	Isa.43.7	2
1Pet.4.19	Isa.43.21	2
1Pet.4.19	Isa.51.12-Isa.51.13	2
1Pet.4.19	Isa.54.16-Isa.54.17	2
1Pet.4.19	Jer.26.11-Jer.26.15	2
1Pet.4.19	Dan.3.16-Dan.3.18	2
1Pet.4.19	Dan.6.10-Dan.6.11	2
1Pet.4.19	Dan.6.22	2
1Pet.4.19	Acts.7.59	2
1Pet.4.19	Acts.21.11-Acts.21.14	2
1Pet.4.19	Rom.2.7	2
1Pet.4.19	Col.1.16-Col.1.20	2
1Pet.4.19	Heb.1.2-Heb.1.3	2
1Pet.4.19	1Pet.2.15	2
1Pet.4.19	1Pet.4.12-1Pet.4.16	2
1Pet.4.19	Rev.4.10-Rev.4.11	2
1Pet.4.19	Rev.5.9-Rev.5.14	2
1Pet.5.1	Luke.24.48	5
1Pet.5.1	Acts.11.30	4
1Pet.5.1	Rev.1.9	4
1Pet.5.1	Ps.73.24-Ps.73.25	2
1Pet.5.1	John.15.26-John.15.27	2
1Pet.5.1	Acts.1.8	2
1Pet.5.1	Acts.1.22	2
1Pet.5.1	Acts.2.32	2
1Pet.5.1	Acts.3.15	2
1Pet.5.1	Acts.5.30-Acts.5.32	2
1Pet.5.1	Acts.10.39-Acts.10.41	2
1Pet.5.1	Acts.14.23	2
1Pet.5.1	Acts.15.4	2
1Pet.5.1	Acts.15.6	2
1Pet.5.1	Acts.15.22-Acts.15.23	2
1Pet.5.1	Acts.20.17	2
1Pet.5.1	Acts.20.28	2
1Pet.5.1	Acts.21.18	2
1Pet.5.1	Rom.8.17-Rom.8.18	2
1Pet.5.1	2Cor.5.1	2
1Pet.5.1	2Cor.5.8	2
1Pet.5.1	Phil.1.19	2
1Pet.5.1	Phil.1.21-Phil.1.23	2
1Pet.5.1	Col.3.3-Col.3.4	2
1Pet.5.1	1Tim.5.1	2
1Pet.5.1	1Tim.5.19	2
1Pet.5.1	2Tim.4.8	2
1Pet.5.1	Titus.1.5	2
1Pet.5.1	Phlm.1.9	2
1Pet.5.1	1Pet.1.3-1Pet.1.5	2
1Pet.5.1	1Pet.1.7	2
1Pet.5.1	1Pet.1.12	2
1Pet.5.1	1Pet.5.4	2
1Pet.5.1	1John.3.2	2
1Pet.5.1	2John.1.1-3John.1.15	2
1Pet.5.2	1Tim.3.8	4
1Pet.5.2	1Tim.3.3	3
1Pet.5.2	Titus.1.7	3
1Pet.5.2	Ps.78.71-Ps.78.72	2
1Pet.5.2	Song.1.8	2
1Pet.5.2	Isa.6.8	2
1Pet.5.2	Isa.40.11	2
1Pet.5.2	Isa.56.11	2
1Pet.5.2	Isa.63.11	2
1Pet.5.2	Jer.6.13	2
1Pet.5.2	Jer.8.10	2
1Pet.5.2	Jer.13.17	2
1Pet.5.2	Jer.13.20	2
1Pet.5.2	Ezek.34.2-Ezek.34.3	2
1Pet.5.2	Ezek.34.23	2
1Pet.5.2	Ezek.34.31	2
1Pet.5.2	Mic.3.11	2
1Pet.5.2	Mic.5.4	2
1Pet.5.2	Mic.7.14	2
1Pet.5.2	Zech.11.17	2
1Pet.5.2	Mal.1.10	2
1Pet.5.2	Luke.12.32	2
1Pet.5.2	John.21.15-John.21.17	2
1Pet.5.2	Acts.20.26-Acts.20.28	2
1Pet.5.2	Acts.20.33-Acts.20.34	2
1Pet.5.2	Acts.21.13	2
1Pet.5.2	Rom.1.15	2
1Pet.5.2	1Cor.9.7	2
1Pet.5.2	1Cor.9.16-1Cor.9.17	2
1Pet.5.2	2Cor.12.14-2Cor.12.15	2
1Pet.5.2	Titus.1.11	2
1Pet.5.2	Titus.2.14	2
1Pet.5.2	Titus.3.1	2
1Pet.5.2	Phlm.1.14	2
1Pet.5.2	Heb.12.15	2
1Pet.5.2	2Pet.2.3	2
1Pet.5.2	Rev.18.12-Rev.18.13	2
1Pet.5.3	Ezek.34.4	5
1Pet.5.3	Phil.3.17	5
1Pet.5.3	2Thess.3.9	4
1Pet.5.3	1Tim.4.12	4
1Pet.5.3	Titus.2.7	4
1Pet.5.3	2Cor.1.24	3
1Pet.5.3	Deut.32.9	2
1Pet.5.3	Ps.33.12	2
1Pet.5.3	Ps.74.2	2
1Pet.5.3	Mic.7.14	2
1Pet.5.3	Matt.20.25-Matt.20.26	2
1Pet.5.3	Matt.23.8-Matt.23.10	2
1Pet.5.3	Mark.10.42-Mark.10.45	2
1Pet.5.3	Luke.22.24-Luke.22.27	2
1Pet.5.3	Acts.20.28	2
1Pet.5.3	1Cor.3.5	2
1Pet.5.3	1Cor.3.9	2
1Pet.5.3	1Cor.11.11	2
1Pet.5.3	2Cor.4.5	2
1Pet.5.3	Phil.4.9	2
1Pet.5.3	1Thess.1.5-1Thess.1.6	2
1Pet.5.3	1Pet.2.9	2
1Pet.5.3	3John.1.9-3John.1.10	2
1Pet.5.4	1Cor.9.25	6
1Pet.5.4	Jas.1.12	4
1Pet.5.4	1Pet.1.4	4
1Pet.5.4	2Tim.4.8	3
1Pet.5.4	Heb.13.20	3
1Pet.5.4	1Pet.2.25	3
1Pet.5.4	Rev.2.10	3
1Pet.5.4	Ps.23.1	2
1Pet.5.4	Isa.40.11	2
1Pet.5.4	Ezek.34.23	2
1Pet.5.4	Ezek.37.24	2
1Pet.5.4	Dan.12.3	2
1Pet.5.4	Zech.13.7	2
1Pet.5.4	Matt.25.31-Matt.25.46	2
1Pet.5.4	John.10.11	2
1Pet.5.4	Col.3.3-Col.3.4	2
1Pet.5.4	2Thess.1.7-2Thess.1.10	2
1Pet.5.4	1Pet.5.2	2
1Pet.5.4	1John.3.2	2
1Pet.5.4	Rev.1.7	2
1Pet.5.4	Rev.3.11	2
1Pet.5.4	Rev.20.11-Rev.20.12	2
1Pet.5.5	Jas.4.6	6
1Pet.5.5	Eph.5.21	4
1Pet.5.5	Lev.19.32	2
1Pet.5.5	2Chr.6.41	2
1Pet.5.5	Job.22.29	2
1Pet.5.5	Job.29.14	2
1Pet.5.5	Ps.132.9	2
1Pet.5.5	Ps.132.16	2
1Pet.5.5	Prov.3.34	2
1Pet.5.5	Isa.57.15	2
1Pet.5.5	Isa.61.10	2
1Pet.5.5	Isa.66.2	2
1Pet.5.5	Rom.12.10	2
1Pet.5.5	Rom.13.14	2
1Pet.5.5	Phil.2.3	2
1Pet.5.5	Col.3.12	2
1Pet.5.5	Heb.13.17	2
1Pet.5.5	1Pet.3.3-1Pet.3.4	2
1Pet.5.5	1Pet.4.1	2
1Pet.5.5	1Pet.4.5	2
1Pet.5.6	Jas.4.10	5
1Pet.5.6	Matt.23.12	4
1Pet.5.6	Deut.32.35	3
1Pet.5.6	Luke.14.11	3
1Pet.5.6	Luke.18.14	3
1Pet.5.6	Exod.3.19	2
1Pet.5.6	Exod.10.3	2
1Pet.5.6	Exod.32.11	2
1Pet.5.6	Lev.26.41	2
1Pet.5.6	1Kgs.21.29	2
1Pet.5.6	2Kgs.22.19	2
1Pet.5.6	2Chr.12.6-2Chr.12.7	2
1Pet.5.6	2Chr.12.12	2
1Pet.5.6	2Chr.30.11	2
1Pet.5.6	2Chr.32.26	2
1Pet.5.6	2Chr.33.12	2
1Pet.5.6	2Chr.33.19	2
1Pet.5.6	2Chr.33.23	2
1Pet.5.6	2Chr.36.12	2
1Pet.5.6	Job.36.22	2
1Pet.5.6	Ps.75.10	2
1Pet.5.6	Ps.89.13	2
1Pet.5.6	Ps.89.16-Ps.89.17	2
1Pet.5.6	Prov.29.23	2
1Pet.5.6	Isa.2.11	2
1Pet.5.6	Isa.40.4	2
1Pet.5.6	Isa.57.15	2
1Pet.5.6	Jer.13.18	2
1Pet.5.6	Jer.44.10	2
1Pet.5.6	Ezek.17.21	2
1Pet.5.6	Ezek.21.6	2
1Pet.5.6	Dan.5.22	2
1Pet.5.6	Mic.6.8	2
1Pet.5.6	Luke.1.52	2
1Pet.5.6	Rom.5.6	2
1Pet.5.6	1Cor.10.22	2
1Pet.5.6	1Tim.2.6	2
1Pet.5.6	Titus.1.3	2
1Pet.5.6	Jas.1.9-Jas.1.10	2
1Pet.5.6	Jas.5.10	2
1Pet.5.7	Ps.55.22	17
1Pet.5.7	Ps.37.5	8
1Pet.5.7	Ps.56.3-Ps.56.4	7
1Pet.5.7	Ps.27.13-Ps.27.14	5
1Pet.5.7	Ps.34.15	5
1Pet.5.7	Ps.142.4-Ps.142.5	4
1Pet.5.7	Matt.6.25-Matt.6.26	4
1Pet.5.7	Matt.6.33-Matt.6.34	4
1Pet.5.7	Luke.12.22	4
1Pet.5.7	Luke.12.30-Luke.12.32	4
1Pet.5.7	Phil.4.6	4
1Pet.5.7	Heb.13.5-Heb.13.6	4
1Pet.5.7	1Sam.30.6	3
1Pet.5.7	1Sam.1.10-1Sam.1.18	2
1Pet.5.7	Mark.4.38	2
1Pet.5.7	Luke.12.11-Luke.12.12	2
1Pet.5.7	John.10.13	2
1Pet.5.8	Eph.6.11	8
1Pet.5.8	Jas.4.7	7
1Pet.5.8	Job.2.2	6
1Pet.5.8	1Pet.1.13	6
1Pet.5.8	Rev.12.9	6
1Pet.5.8	Luke.22.31	4
1Pet.5.8	John.8.44	4
1Pet.5.8	Eph.4.27	4
1Pet.5.8	2Tim.4.17	4
1Pet.5.8	1John.3.8-1John.3.10	4
1Pet.5.8	Job.1.6-Job.1.7	3
1Pet.5.8	Ps.109.6	3
1Pet.5.8	Isa.5.29-Isa.5.30	3
1Pet.5.8	Joel.3.16	3
1Pet.5.8	Amos.3.8	3
1Pet.5.8	Zech.3.1	3
1Pet.5.8	Luke.21.36	3
1Pet.5.8	Rom.13.11-Rom.13.13	3
1Pet.5.8	1Thess.5.6-1Thess.5.8	3
1Pet.5.8	Rev.12.12	3
1Pet.5.8	Rev.20.10	3
1Pet.5.8	Judg.14.5	2
1Pet.5.8	Esth.7.6	2
1Pet.5.8	Ps.104.21	2
1Pet.5.8	Prov.19.12	2
1Pet.5.8	Prov.20.2	2
1Pet.5.8	Isa.14.12-Isa.14.13	2
1Pet.5.8	Isa.50.8	2
1Pet.5.8	Jer.2.15	2
1Pet.5.8	Jer.51.38	2
1Pet.5.8	Ezek.19.7	2
1Pet.5.8	Ezek.22.25	2
1Pet.5.8	Dan.6.24	2
1Pet.5.8	Hos.11.10	2
1Pet.5.8	Hos.13.8	2
1Pet.5.8	Amos.1.2	2
1Pet.5.8	Amos.3.4	2
1Pet.5.8	Zech.11.3	2
1Pet.5.8	Matt.4.1	2
1Pet.5.8	Matt.4.11	2
1Pet.5.8	Matt.13.39	2
1Pet.5.8	Matt.24.42	2
1Pet.5.8	Matt.24.48-Matt.24.50	2
1Pet.5.8	Matt.25.41	2
1Pet.5.8	Luke.12.45-Luke.12.46	2
1Pet.5.8	Luke.21.34	2
1Pet.5.8	1Tim.2.9	2
1Pet.5.8	1Tim.2.15	2
1Pet.5.8	1Tim.3.2	2
1Pet.5.8	1Tim.3.11	2
1Pet.5.8	Titus.1.8	2
1Pet.5.8	Titus.2.2	2
1Pet.5.8	Titus.2.4	2
1Pet.5.8	Titus.2.6	2
1Pet.5.8	Titus.2.12	2
1Pet.5.8	1Pet.4.7	2
1Pet.5.8	Rev.20.2	1
1Pet.5.9	Acts.14.22	5
1Pet.5.9	Jas.4.7	5
1Pet.5.9	Col.2.5	3
1Pet.5.9	1Thess.3.3	3
1Pet.5.9	2Tim.3.12	3
1Pet.5.9	Luke.4.3-Luke.4.12	2
1Pet.5.9	Luke.22.32	2
1Pet.5.9	John.16.33	2
1Pet.5.9	1Cor.10.13	2
1Pet.5.9	Eph.4.27	2
1Pet.5.9	Eph.6.11-Eph.6.13	2
1Pet.5.9	Eph.6.16	2
1Pet.5.9	1Thess.2.15-1Thess.2.16	2
1Pet.5.9	1Tim.6.12	2
1Pet.5.9	2Tim.4.7	2
1Pet.5.9	Heb.11.33	2
1Pet.5.9	1Pet.1.6	2
1Pet.5.9	1Pet.2.21	2
1Pet.5.9	1Pet.3.14	2
1Pet.5.9	1Pet.4.13	2
1Pet.5.9	Rev.1.9	2
1Pet.5.9	Rev.6.11	2
1Pet.5.9	Rev.7.14	2
1Pet.5.10	2Cor.4.17	9
1Pet.5.10	2Thess.2.17	6
1Pet.5.10	1Cor.1.9	5
1Pet.5.10	2Cor.13.11	5
1Pet.5.10	1Thess.2.12	5
1Pet.5.10	2Thess.3.3	5
1Pet.5.10	2Tim.2.10	5
1Pet.5.10	Exod.34.6-Exod.34.7	4
1Pet.5.10	Ps.138.7	4
1Pet.5.10	Luke.22.32	4
1Pet.5.10	1Tim.6.12	4
1Pet.5.10	Ps.86.5	3
1Pet.5.10	Ps.86.15	3
1Pet.5.10	Mic.7.18-Mic.7.19	3
1Pet.5.10	Zech.10.6	3
1Pet.5.10	Zech.10.12	3
1Pet.5.10	Rom.5.20-Rom.5.21	3
1Pet.5.10	Rom.8.28-Rom.8.30	3
1Pet.5.10	Rom.9.11	3
1Pet.5.10	Rom.9.24	3
1Pet.5.10	Rom.15.5	3
1Pet.5.10	Rom.15.13	3
1Pet.5.10	Rom.16.25	3
1Pet.5.10	Phil.4.13	3
1Pet.5.10	Col.1.22-Col.1.23	3
1Pet.5.10	Col.2.7	3
1Pet.5.10	2Thess.2.14	3
1Pet.5.10	2Tim.1.9	3
1Pet.5.10	Heb.9.15	3
1Pet.5.10	Heb.13.20-Heb.13.21	3
1Pet.5.10	1Pet.1.6-1Pet.1.7	3
1Pet.5.10	1Pet.1.15	3
1Pet.5.10	1Pet.4.11	3
1Pet.5.10	2Pet.1.3	3
1Pet.5.10	1John.2.25	3
1Pet.5.10	Jude.1.24	3
1Pet.5.11	1Pet.4.11	4
1Pet.5.11	Rom.11.36	2
1Pet.5.11	Rev.1.6	2
1Pet.5.11	Rev.5.13	2
1Pet.5.12	Heb.13.22	7
1Pet.5.12	2Cor.1.19	5
1Pet.5.12	Acts.20.24	4
1Pet.5.12	1Cor.15.1	4
1Pet.5.12	Acts.11.23	3
1Pet.5.12	1Thess.1.1	3
1Pet.5.12	2Thess.1.1	3
1Pet.5.12	John.21.21	2
1Pet.5.12	Rom.5.2	2
1Pet.5.12	2Cor.1.24	2
1Pet.5.12	Gal.1.8-Gal.1.9	2
1Pet.5.12	Eph.3.3	2
1Pet.5.12	Eph.6.21	2
1Pet.5.12	Col.1.7	2
1Pet.5.12	Col.4.7	2
1Pet.5.12	Col.4.9	2
1Pet.5.12	2Pet.1.12	2
1Pet.5.12	2Pet.2.15	2
1Pet.5.12	1John.5.9-1John.5.10	2
1Pet.5.12	3John.1.12	2
1Pet.5.12	Jude.1.3	2
1Pet.5.13	Acts.12.12	5
1Pet.5.13	Acts.12.25	3
1Pet.5.13	Ps.87.4	2
1Pet.5.13	2John.1.13	2
1Pet.5.13	Rev.17.5	2
1Pet.5.13	Rev.18.2	2
1Pet.5.14	Rom.16.16	5
1Pet.5.14	Eph.6.23	5
1Pet.5.14	John.14.27	2
1Pet.5.14	John.16.33	2
1Pet.5.14	John.20.19	2
1Pet.5.14	John.20.26	2
1Pet.5.14	Rom.1.7	2
1Pet.5.14	Rom.8.1	2
1Pet.5.14	1Cor.1.30	2
1Pet.5.14	1Cor.16.20	2
1Pet.5.14	2Cor.5.17	2
1Pet.5.14	2Cor.13.12	2
1Pet.5.14	1Thess.5.26	2
1Pet.5.14	1Pet.1.2	2