3John.1.1	1John.3.18	5
3John.1.1	Acts.19.29	4
3John.1.1	Acts.20.4	4
3John.1.1	Rom.16.23	4
3John.1.1	1Cor.1.14	4
3John.1.1	2John.1.1-2John.1.13	4
3John.1.2	Ps.20.1-Ps.20.5	2
3John.1.2	Phil.2.4	2
3John.1.2	Phil.2.27	2
3John.1.2	Col.1.4-Col.1.6	2
3John.1.2	1Thess.1.3-1Thess.1.10	2
3John.1.2	1Thess.2.13-1Thess.2.14	2
3John.1.2	1Thess.2.19-1Thess.2.20	2
3John.1.2	1Thess.3.6-1Thess.3.9	2
3John.1.2	2Thess.1.3	2
3John.1.2	2Thess.2.13	2
3John.1.2	Phlm.1.5-Phlm.1.7	2
3John.1.2	Jas.5.12	2
3John.1.2	1Pet.4.8	2
3John.1.2	2Pet.1.3-2Pet.1.9	2
3John.1.2	2Pet.3.18	2
3John.1.2	3John.1.3-3John.1.6	2
3John.1.2	Rev.2.9	2
3John.1.3	2John.1.4	8
3John.1.3	Eph.1.15-Eph.1.16	3
3John.1.3	Ps.119.11	2
3John.1.3	Rom.1.8-Rom.1.9	2
3John.1.3	2Cor.7.6-2Cor.7.7	2
3John.1.3	Phil.1.4	2
3John.1.3	Col.1.7-Col.1.8	2
3John.1.3	1Thess.3.6-1Thess.3.9	2
3John.1.3	2John.1.2	2
3John.1.3	3John.1.4	2
3John.1.3	1Thess.2.19-1Thess.2.20	1
3John.1.4	Gal.4.19	4
3John.1.4	Phlm.1.10	4
3John.1.4	Gal.2.14	3
3John.1.4	1Tim.1.2	3
3John.1.4	2Tim.1.2	3
3John.1.4	1Kgs.2.4	2
3John.1.4	1Kgs.3.6	2
3John.1.4	2Kgs.20.3	2
3John.1.4	Ps.26.1-Ps.26.3	2
3John.1.4	Prov.23.24	2
3John.1.4	Isa.8.18	2
3John.1.4	Isa.38.3	2
3John.1.4	John.12.35-John.12.36	2
3John.1.4	1Cor.4.14-1Cor.4.15	2
3John.1.5	Matt.24.45	2
3John.1.5	Luke.12.42	2
3John.1.5	Luke.16.10-Luke.16.12	2
3John.1.5	2Cor.4.1-2Cor.4.3	2
3John.1.5	Gal.6.10	2
3John.1.5	Col.3.17	2
3John.1.5	1Pet.4.10-1Pet.4.11	2
3John.1.6	1Thess.2.12	4
3John.1.6	Acts.15.3	3
3John.1.6	Titus.3.13	3
3John.1.6	Gen.4.7	2
3John.1.6	Jonah.4.4	2
3John.1.6	Matt.25.21-Matt.25.23	2
3John.1.6	Acts.15.29	2
3John.1.6	Acts.21.5	2
3John.1.6	Rom.15.24	2
3John.1.6	2Cor.1.16	2
3John.1.6	Phil.4.14	2
3John.1.6	Col.1.10	2
3John.1.6	Phlm.1.5-Phlm.1.7	2
3John.1.6	1Pet.2.20	2
3John.1.6	3John.1.12	2
3John.1.7	2Kgs.5.15-2Kgs.5.16	2
3John.1.7	2Kgs.5.20-2Kgs.5.27	2
3John.1.7	Acts.5.41	2
3John.1.7	Acts.8.4	2
3John.1.7	Acts.9.16	2
3John.1.7	1Cor.9.12-1Cor.9.15	2
3John.1.7	1Cor.9.18	2
3John.1.7	2Cor.4.5	2
3John.1.7	2Cor.11.7-2Cor.11.9	2
3John.1.7	2Cor.12.13	2
3John.1.7	Col.1.24	2
3John.1.7	Rev.2.3	2
3John.1.8	Matt.10.14	2
3John.1.8	Matt.10.40	2
3John.1.8	Luke.11.7	2
3John.1.8	1Cor.3.5-1Cor.3.9	2
3John.1.8	1Cor.16.10-1Cor.16.11	2
3John.1.8	2Cor.6.1	2
3John.1.8	2Cor.7.2-2Cor.7.3	2
3John.1.8	2Cor.8.23	2
3John.1.8	Phil.4.3	2
3John.1.8	Col.4.11	2
3John.1.8	1Thess.3.2	2
3John.1.8	Phlm.1.2	2
3John.1.8	Phlm.1.24	2
3John.1.8	3John.1.10	2
3John.1.9	Matt.10.40-Matt.10.42	2
3John.1.9	Matt.20.20-Matt.20.28	2
3John.1.9	Matt.23.4-Matt.23.8	2
3John.1.9	Mark.9.34	2
3John.1.9	Mark.9.37	2
3John.1.9	Mark.10.35-Mark.10.45	2
3John.1.9	Luke.9.48	2
3John.1.9	Luke.22.24-Luke.22.27	2
3John.1.9	Rom.12.10	2
3John.1.9	Phil.2.3-Phil.2.5	2
3John.1.9	Titus.1.7-Titus.1.16	2
3John.1.9	3John.1.8	2
3John.1.10	Prov.10.8	2
3John.1.10	Prov.10.10	2
3John.1.10	Isa.66.5	2
3John.1.10	Luke.6.22	2
3John.1.10	John.9.22	2
3John.1.10	John.9.34-John.9.35	2
3John.1.10	1Cor.5.1-1Cor.5.5	2
3John.1.10	2Cor.10.1-2Cor.10.11	2
3John.1.10	2Cor.13.2	2
3John.1.10	3John.1.5	2
3John.1.11	Ps.37.27	4
3John.1.11	1John.2.29	4
3John.1.11	Isa.1.16-Isa.1.17	3
3John.1.11	John.3.20	3
3John.1.11	Eph.5.1	3
3John.1.11	2Tim.3.10	3
3John.1.11	Exod.23.2	2
3John.1.11	Ps.34.14	2
3John.1.11	Prov.12.11	2
3John.1.11	John.10.27	2
3John.1.11	John.12.26	2
3John.1.11	1Cor.4.16	2
3John.1.11	1Cor.11.1	2
3John.1.11	Phil.3.17	2
3John.1.11	1Thess.1.6	2
3John.1.11	1Thess.2.14	2
3John.1.11	Heb.6.12	2
3John.1.11	1Pet.3.11	2
3John.1.11	1Pet.3.13	2
3John.1.11	1John.3.6-1John.3.9	2
3John.1.12	1Tim.3.7	5
3John.1.12	John.21.24	4
3John.1.12	John.19.35	3
3John.1.12	Acts.10.22	2
3John.1.12	Acts.22.12	2
3John.1.12	1Thess.4.12	2
3John.1.13	2John.1.12	4
3John.1.14	Gen.43.23	2
3John.1.14	Dan.4.1	2
3John.1.14	Rom.16.1-Rom.16.16	2
3John.1.14	Gal.5.16	2
3John.1.14	Eph.6.23	2
3John.1.14	1Pet.5.14	2
3John.1.15	John.10.3	2