Zeph.1.1	2Chr.34.1-2Chr.34.33	4
Zeph.1.1	Jer.1.2	4
Zeph.1.1	2Kgs.22.1-2Kgs.22.20	2
Zeph.1.1	Jer.25.3	2
Zeph.1.1	Ezek.1.3	2
Zeph.1.1	Hos.1.1	2
Zeph.1.1	2Tim.3.16	2
Zeph.1.1	2Pet.1.19	2
Zeph.1.2	2Kgs.22.16-2Kgs.22.17	3
Zeph.1.2	Gen.6.7	2
Zeph.1.2	2Chr.36.21	2
Zeph.1.2	Isa.6.11	2
Zeph.1.2	Jer.6.8-Jer.6.9	2
Zeph.1.2	Jer.24.8-Jer.24.10	2
Zeph.1.2	Jer.34.22	2
Zeph.1.2	Jer.36.29	2
Zeph.1.2	Ezek.33.27-Ezek.33.29	2
Zeph.1.2	Mic.7.13	2
Zeph.1.3	Ezek.7.19	4
Zeph.1.3	Hos.4.3	4
Zeph.1.3	Isa.27.9	2
Zeph.1.3	Jer.4.23-Jer.4.29	2
Zeph.1.3	Jer.12.4	2
Zeph.1.3	Ezek.14.3-Ezek.14.7	2
Zeph.1.3	Ezek.14.13-Ezek.14.21	2
Zeph.1.3	Ezek.15.6-Ezek.15.8	2
Zeph.1.3	Ezek.44.12	2
Zeph.1.3	Hos.14.3	2
Zeph.1.3	Hos.14.8	2
Zeph.1.3	Mic.5.11-Mic.5.14	2
Zeph.1.3	Zech.13.2	2
Zeph.1.3	Matt.23.39	2
Zeph.1.3	Rev.2.14	2
Zeph.1.4	Hos.10.5	4
Zeph.1.4	2Kgs.23.4-2Kgs.23.5	3
Zeph.1.4	Exod.15.12	2
Zeph.1.4	2Kgs.21.13	2
Zeph.1.4	2Chr.34.4	2
Zeph.1.4	Isa.14.26-Isa.14.27	2
Zeph.1.4	Jer.6.12	2
Zeph.1.4	Mic.5.13	2
Zeph.1.5	1Kgs.11.33	4
Zeph.1.5	Jer.19.13	4
Zeph.1.5	1Kgs.18.21	3
Zeph.1.5	2Kgs.17.33	3
Zeph.1.5	2Kgs.17.41	3
Zeph.1.5	2Kgs.23.12	3
Zeph.1.5	Deut.10.20	2
Zeph.1.5	Josh.23.7	2
Zeph.1.5	1Kgs.11.5	2
Zeph.1.5	Isa.44.5	2
Zeph.1.5	Isa.45.23	2
Zeph.1.5	Isa.48.1	2
Zeph.1.5	Jer.4.2	2
Zeph.1.5	Jer.5.7	2
Zeph.1.5	Jer.32.29	2
Zeph.1.5	Hos.4.15	2
Zeph.1.5	Amos.5.26	2
Zeph.1.5	Matt.6.24	2
Zeph.1.5	Rom.14.11	2
Zeph.1.6	Isa.1.4	4
Zeph.1.6	Jer.2.13	4
Zeph.1.6	Jer.2.17	3
Zeph.1.6	Jer.15.6	3
Zeph.1.6	Hos.7.7	3
Zeph.1.6	1Sam.15.11	2
Zeph.1.6	Ps.10.4	2
Zeph.1.6	Ps.14.2-Ps.14.3	2
Zeph.1.6	Ps.36.3	2
Zeph.1.6	Ps.125.5	2
Zeph.1.6	Isa.9.13	2
Zeph.1.6	Isa.43.22	2
Zeph.1.6	Jer.3.10	2
Zeph.1.6	Ezek.3.20	2
Zeph.1.6	Hos.4.15-Hos.4.16	2
Zeph.1.6	Hos.11.7	2
Zeph.1.6	Rom.3.11	2
Zeph.1.6	Heb.2.3	2
Zeph.1.6	Heb.10.38-Heb.10.39	2
Zeph.1.6	2Pet.2.18-2Pet.2.22	2
Zeph.1.7	Isa.34.6	5
Zeph.1.7	Jer.46.10	5
Zeph.1.7	Hab.2.20	5
Zeph.1.7	Zeph.1.14	5
Zeph.1.7	1Sam.16.5	4
Zeph.1.7	Zech.2.13	4
Zeph.1.7	Isa.2.12	3
Zeph.1.7	Isa.13.6	3
Zeph.1.7	1Sam.2.9-1Sam.2.10	2
Zeph.1.7	1Sam.20.26	2
Zeph.1.7	Job.40.4-Job.40.5	2
Zeph.1.7	Ps.46.10	2
Zeph.1.7	Ps.76.8-Ps.76.9	2
Zeph.1.7	Prov.9.1-Prov.9.6	2
Zeph.1.7	Isa.6.5	2
Zeph.1.7	Ezek.7.7	2
Zeph.1.7	Ezek.7.10	2
Zeph.1.7	Ezek.39.17-Ezek.39.20	2
Zeph.1.7	Joel.2.1-Joel.2.2	2
Zeph.1.7	Joel.2.11	2
Zeph.1.7	Joel.2.31	2
Zeph.1.7	Amos.5.18-Amos.5.20	2
Zeph.1.7	Amos.6.10	2
Zeph.1.7	Mal.4.1	2
Zeph.1.7	Matt.22.4	2
Zeph.1.7	Luke.14.16-Luke.14.17	2
Zeph.1.7	Rom.3.19	2
Zeph.1.7	Rom.9.20	2
Zeph.1.7	Phil.4.5	2
Zeph.1.7	Col.1.12	2
Zeph.1.7	2Pet.3.10-2Pet.3.12	2
Zeph.1.7	Rev.19.17-Rev.19.18	2
Zeph.1.8	Isa.24.21	4
Zeph.1.8	Deut.22.5	2
Zeph.1.8	2Kgs.10.22	2
Zeph.1.8	2Kgs.23.30-2Kgs.23.34	2
Zeph.1.8	2Kgs.24.12-2Kgs.24.13	2
Zeph.1.8	2Kgs.25.6-2Kgs.25.7	2
Zeph.1.8	2Kgs.25.19-2Kgs.25.21	2
Zeph.1.8	Isa.3.18-Isa.3.24	2
Zeph.1.8	Isa.10.12	2
Zeph.1.8	Isa.39.7	2
Zeph.1.8	Jer.22.11-Jer.22.19	2
Zeph.1.8	Jer.22.24-Jer.22.30	2
Zeph.1.8	Jer.39.6-Jer.39.7	2
Zeph.1.9	1Sam.5.5	3
Zeph.1.9	1Sam.2.15-1Sam.2.16	2
Zeph.1.9	2Kgs.5.20-2Kgs.5.27	2
Zeph.1.9	Neh.5.15	2
Zeph.1.9	Prov.29.12	2
Zeph.1.9	Amos.3.10	2
Zeph.1.9	Acts.16.19	2
Zeph.1.10	2Chr.33.14	5
Zeph.1.10	2Kgs.22.14	3
Zeph.1.10	Neh.3.3	3
Zeph.1.10	2Sam.5.7	2
Zeph.1.10	2Sam.5.9	2
Zeph.1.10	2Chr.3.1	2
Zeph.1.10	2Chr.32.22	2
Zeph.1.10	Isa.22.4-Isa.22.5	2
Zeph.1.10	Isa.59.11	2
Zeph.1.10	Jer.4.19-Jer.4.21	2
Zeph.1.10	Jer.4.31	2
Zeph.1.10	Jer.39.2	2
Zeph.1.10	Amos.8.3	2
Zeph.1.10	Zeph.1.7	2
Zeph.1.10	Zeph.1.15	2
Zeph.1.11	Jas.5.1	4
Zeph.1.11	Neh.3.31-Neh.3.32	2
Zeph.1.11	Jer.4.8	2
Zeph.1.11	Jer.25.34	2
Zeph.1.11	Ezek.21.12	2
Zeph.1.11	Hos.9.6	2
Zeph.1.11	Hos.12.7-Hos.12.8	2
Zeph.1.11	Joel.1.5	2
Zeph.1.11	Joel.1.13	2
Zeph.1.11	Zech.11.2-Zech.11.3	2
Zeph.1.11	John.2.16	2
Zeph.1.11	Rev.18.11-Rev.18.18	2
Zeph.1.12	Jer.48.11	5
Zeph.1.12	Ezek.8.12	5
Zeph.1.12	Amos.6.1	5
Zeph.1.12	Ezek.9.9	4
Zeph.1.12	Ps.94.7	3
Zeph.1.12	Jer.16.16-Jer.16.17	3
Zeph.1.12	Amos.9.1-Amos.9.3	3
Zeph.1.12	Mal.3.14-Mal.3.15	3
Zeph.1.12	Job.21.15	2
Zeph.1.12	Ps.10.11-Ps.10.13	2
Zeph.1.12	Ps.14.1	2
Zeph.1.12	Isa.5.19	2
Zeph.1.12	Jer.10.5	2
Zeph.1.12	Obad.1.6	2
Zeph.1.12	2Pet.3.4	2
Zeph.1.12	Rev.2.23	2
Zeph.1.13	Amos.5.11	5
Zeph.1.13	Mic.6.15	5
Zeph.1.13	Deut.28.30	3
Zeph.1.13	Deut.28.39	3
Zeph.1.13	Deut.28.51	2
Zeph.1.13	Isa.5.8-Isa.5.9	2
Zeph.1.13	Isa.6.11	2
Zeph.1.13	Isa.24.1-Isa.24.3	2
Zeph.1.13	Isa.65.21-Isa.65.22	2
Zeph.1.13	Jer.4.7	2
Zeph.1.13	Jer.4.20	2
Zeph.1.13	Jer.5.17	2
Zeph.1.13	Jer.9.11	2
Zeph.1.13	Jer.9.19	2
Zeph.1.13	Jer.12.10-Jer.12.13	2
Zeph.1.13	Jer.15.13	2
Zeph.1.13	Ezek.7.19	2
Zeph.1.13	Ezek.7.21	2
Zeph.1.13	Ezek.22.31	2
Zeph.1.13	Mic.3.12	2
Zeph.1.13	Zeph.1.9	2
Zeph.1.14	Joel.2.11	5
Zeph.1.14	Zeph.1.7	5
Zeph.1.14	Ezek.7.12	4
Zeph.1.14	Isa.33.7	3
Zeph.1.14	Jer.30.7	3
Zeph.1.14	Ezek.30.3	3
Zeph.1.14	Mal.4.5	3
Zeph.1.14	Isa.15.4	2
Zeph.1.14	Isa.22.4-Isa.22.5	2
Zeph.1.14	Isa.66.6	2
Zeph.1.14	Jer.25.36	2
Zeph.1.14	Jer.48.41	2
Zeph.1.14	Ezek.7.6-Ezek.7.7	2
Zeph.1.14	Ezek.12.23	2
Zeph.1.14	Joel.1.15	2
Zeph.1.14	Joel.2.1	2
Zeph.1.14	Joel.2.31	2
Zeph.1.14	Joel.3.16	2
Zeph.1.14	Amos.8.2	2
Zeph.1.14	Zeph.1.10	2
Zeph.1.14	Acts.2.20	2
Zeph.1.14	Phil.4.5	2
Zeph.1.14	1Thess.4.16	2
Zeph.1.14	Heb.12.26	2
Zeph.1.14	Jas.5.9	2
Zeph.1.14	2Pet.2.3	2
Zeph.1.14	Rev.6.15-Rev.6.17	2
Zeph.1.15	Joel.2.2	5
Zeph.1.15	Isa.22.5	4
Zeph.1.15	Amos.5.18-Amos.5.20	3
Zeph.1.15	Job.3.4-Job.3.8	2
Zeph.1.15	Jer.30.7	2
Zeph.1.15	Joel.2.11	2
Zeph.1.15	Zeph.1.18	2
Zeph.1.15	Zeph.2.2	2
Zeph.1.15	Luke.21.22-Luke.21.23	2
Zeph.1.15	Rom.2.5	2
Zeph.1.15	2Pet.3.7	2
Zeph.1.15	Rev.6.17	2
Zeph.1.16	Isa.2.12-Isa.2.15	3
Zeph.1.16	Ps.48.12-Ps.48.13	2
Zeph.1.16	Isa.32.14	2
Zeph.1.16	Isa.59.10	2
Zeph.1.16	Jer.4.19-Jer.4.20	2
Zeph.1.16	Jer.6.1	2
Zeph.1.16	Jer.8.16	2
Zeph.1.16	Hos.5.8	2
Zeph.1.16	Hos.8.1	2
Zeph.1.16	Amos.3.6	2
Zeph.1.16	Hab.1.6-Hab.1.10	2
Zeph.1.16	Hab.3.6	2
Zeph.1.17	Ps.83.10	3
Zeph.1.17	Deut.28.28-Deut.28.29	2
Zeph.1.17	2Kgs.9.33-2Kgs.9.37	2
Zeph.1.17	Ps.79.2-Ps.79.3	2
Zeph.1.17	Isa.24.5-Isa.24.6	2
Zeph.1.17	Isa.29.10	2
Zeph.1.17	Isa.50.1	2
Zeph.1.17	Isa.59.9-Isa.59.10	2
Zeph.1.17	Isa.59.12-Isa.59.15	2
Zeph.1.17	Jer.2.17	2
Zeph.1.17	Jer.2.19	2
Zeph.1.17	Jer.4.18	2
Zeph.1.17	Jer.9.21-Jer.9.22	2
Zeph.1.17	Jer.10.18	2
Zeph.1.17	Jer.15.3	2
Zeph.1.17	Jer.16.4-Jer.16.6	2
Zeph.1.17	Jer.18.21	2
Zeph.1.17	Lam.1.8	2
Zeph.1.17	Lam.1.14	2
Zeph.1.17	Lam.1.18	2
Zeph.1.17	Lam.2.21	2
Zeph.1.17	Lam.4.13-Lam.4.15	2
Zeph.1.17	Lam.5.16-Lam.5.17	2
Zeph.1.17	Ezek.22.25-Ezek.22.31	2
Zeph.1.17	Dan.9.5-Dan.9.19	2
Zeph.1.17	Amos.4.10	2
Zeph.1.17	Mic.3.9-Mic.3.12	2
Zeph.1.17	Mic.7.13	2
Zeph.1.17	Matt.15.14	2
Zeph.1.17	John.9.40-John.9.41	2
Zeph.1.17	Rom.11.7	2
Zeph.1.17	Rom.11.25	2
Zeph.1.17	2Cor.4.4	2
Zeph.1.17	2Pet.1.9	2
Zeph.1.17	1John.2.11	2
Zeph.1.17	Rev.3.17	2
Zeph.1.18	Zeph.3.8	7
Zeph.1.18	Ezek.7.19	5
Zeph.1.18	Zeph.1.2-Zeph.1.3	4
Zeph.1.18	Prov.11.4	3
Zeph.1.18	Gen.6.7	2
Zeph.1.18	Lev.26.33-Lev.26.35	2
Zeph.1.18	Deut.29.20-Deut.29.28	2
Zeph.1.18	Deut.31.17	2
Zeph.1.18	Deut.32.21-Deut.32.25	2
Zeph.1.18	1Kgs.14.22	2
Zeph.1.18	Job.21.30	2
Zeph.1.18	Ps.49.6-Ps.49.9	2
Zeph.1.18	Ps.52.5-Ps.52.7	2
Zeph.1.18	Ps.78.58	2
Zeph.1.18	Ps.79.5	2
Zeph.1.18	Prov.18.11	2
Zeph.1.18	Isa.1.24	2
Zeph.1.18	Isa.2.20-Isa.2.21	2
Zeph.1.18	Isa.24.1-Isa.24.12	2
Zeph.1.18	Jer.4.26-Jer.4.29	2
Zeph.1.18	Jer.7.20	2
Zeph.1.18	Jer.7.34	2
Zeph.1.18	Jer.9.11	2
Zeph.1.18	Jer.9.23-Jer.9.24	2
Zeph.1.18	Ezek.8.3-Ezek.8.5	2
Zeph.1.18	Ezek.16.38	2
Zeph.1.18	Ezek.36.5-Ezek.36.6	2
Zeph.1.18	Zeph.1.11	2
Zeph.1.18	Zeph.1.15	2
Zeph.1.18	Matt.16.26	2
Zeph.1.18	Luke.12.19-Luke.12.21	2
Zeph.1.18	Luke.16.22-Luke.16.23	2
Zeph.1.18	1Cor.10.22	2
Zeph.2.1	2Chr.20.4	4
Zeph.2.1	Joel.1.14	4
Zeph.2.1	Jer.6.15	3
Zeph.2.1	Neh.8.1	2
Zeph.2.1	Neh.9.1	2
Zeph.2.1	Esth.4.16	2
Zeph.2.1	Isa.1.4-Isa.1.6	2
Zeph.2.1	Isa.1.10-Isa.1.15	2
Zeph.2.1	Isa.26.8-Isa.26.9	2
Zeph.2.1	Jer.3.3	2
Zeph.2.1	Jer.12.7-Jer.12.9	2
Zeph.2.1	Joel.2.12-Joel.2.18	2
Zeph.2.1	Zech.11.8	2
Zeph.2.1	Matt.18.20	2
Zeph.2.2	Isa.17.13	4
Zeph.2.2	Lam.4.11	4
Zeph.2.2	Hos.13.3	4
Zeph.2.2	Nah.1.6	4
Zeph.2.2	Ps.1.4	3
Zeph.2.2	Zeph.1.18	3
Zeph.2.2	Zeph.3.8	3
Zeph.2.2	2Kgs.22.16-2Kgs.22.17	2
Zeph.2.2	2Kgs.23.26-2Kgs.23.27	2
Zeph.2.2	2Chr.36.16-2Chr.36.17	2
Zeph.2.2	Job.21.18	2
Zeph.2.2	Ps.2.12	2
Zeph.2.2	Ps.50.22	2
Zeph.2.2	Ps.95.7-Ps.95.8	2
Zeph.2.2	Isa.41.15-Isa.41.16	2
Zeph.2.2	Jer.23.20	2
Zeph.2.2	Ezek.12.25	2
Zeph.2.2	Mal.4.1-Mal.4.2	2
Zeph.2.2	Matt.24.35	2
Zeph.2.2	Luke.13.24-Luke.13.28	2
Zeph.2.2	2Pet.3.4-2Pet.3.10	2
Zeph.2.3	Amos.5.14-Amos.5.15	5
Zeph.2.3	Ps.57.1	4
Zeph.2.3	Ps.22.26	3
Zeph.2.3	Ps.76.9	3
Zeph.2.3	Ps.105.4	3
Zeph.2.3	Isa.26.20-Isa.26.21	3
Zeph.2.3	Gen.7.15-Gen.7.16	2
Zeph.2.3	Exod.12.27	2
Zeph.2.3	2Sam.12.22	2
Zeph.2.3	2Chr.34.27-2Chr.34.28	2
Zeph.2.3	Ps.25.8-Ps.25.9	2
Zeph.2.3	Ps.31.20	2
Zeph.2.3	Ps.32.6-Ps.32.7	2
Zeph.2.3	Ps.91.1	2
Zeph.2.3	Ps.149.4	2
Zeph.2.3	Prov.18.10	2
Zeph.2.3	Isa.11.4	2
Zeph.2.3	Isa.55.6-Isa.55.7	2
Zeph.2.3	Isa.61.1	2
Zeph.2.3	Jer.3.13-Jer.3.14	2
Zeph.2.3	Jer.4.1-Jer.4.2	2
Zeph.2.3	Jer.22.15-Jer.22.16	2
Zeph.2.3	Jer.29.12-Jer.29.13	2
Zeph.2.3	Jer.39.18	2
Zeph.2.3	Jer.45.5	2
Zeph.2.3	Hos.7.10	2
Zeph.2.3	Hos.10.12	2
Zeph.2.3	Joel.2.13-Joel.2.14	2
Zeph.2.3	Amos.5.4-Amos.5.6	2
Zeph.2.3	Jonah.3.9	2
Zeph.2.3	Zech.8.19	2
Zeph.2.3	Matt.5.5	2
Zeph.2.3	Matt.7.7-Matt.7.8	2
Zeph.2.3	Phil.3.13-Phil.3.14	2
Zeph.2.3	Col.3.2-Col.3.4	2
Zeph.2.3	1Thess.4.1	2
Zeph.2.3	1Thess.4.10	2
Zeph.2.3	Jas.1.21-Jas.1.22	2
Zeph.2.3	1Pet.1.22	2
Zeph.2.3	1Pet.3.4	2
Zeph.2.3	2Pet.3.18	2
Zeph.2.4	Zech.9.5-Zech.9.7	6
Zeph.2.4	Amos.1.6-Amos.1.8	4
Zeph.2.4	Ps.91.6	2
Zeph.2.4	Jer.6.4	2
Zeph.2.4	Jer.15.8	2
Zeph.2.4	Jer.25.20	2
Zeph.2.4	Jer.47.1-Jer.47.7	2
Zeph.2.4	Ezek.25.15-Ezek.25.17	2
Zeph.2.5	Ezek.25.16	5
Zeph.2.5	Amos.3.1	4
Zeph.2.5	Josh.13.3	3
Zeph.2.5	Jer.47.7	3
Zeph.2.5	Judg.3.3	2
Zeph.2.5	Isa.14.30	2
Zeph.2.5	Amos.5.1	2
Zeph.2.5	Zeph.3.6	2
Zeph.2.5	Zech.1.6	2
Zeph.2.5	Mark.12.12	2
Zeph.2.6	Isa.5.17	2
Zeph.2.6	Isa.17.2	2
Zeph.2.6	Ezek.25.5	2
Zeph.2.6	Zeph.2.14-Zeph.2.15	2
Zeph.2.7	Zeph.3.20	4
Zeph.2.7	Exod.4.31	3
Zeph.2.7	Obad.1.19	3
Zeph.2.7	Luke.1.68	3
Zeph.2.7	Gen.50.24	2
Zeph.2.7	Ps.85.1	2
Zeph.2.7	Ps.126.1-Ps.126.4	2
Zeph.2.7	Isa.11.11	2
Zeph.2.7	Isa.14.1	2
Zeph.2.7	Isa.14.29-Isa.14.32	2
Zeph.2.7	Jer.3.18	2
Zeph.2.7	Jer.23.3	2
Zeph.2.7	Jer.29.14	2
Zeph.2.7	Jer.30.3	2
Zeph.2.7	Jer.30.18-Jer.30.19	2
Zeph.2.7	Jer.31.7	2
Zeph.2.7	Jer.32.44	2
Zeph.2.7	Jer.33.7	2
Zeph.2.7	Ezek.39.25	2
Zeph.2.7	Amos.9.14-Amos.9.15	2
Zeph.2.7	Mic.2.12	2
Zeph.2.7	Mic.4.7	2
Zeph.2.7	Mic.4.10	2
Zeph.2.7	Mic.5.3-Mic.5.8	2
Zeph.2.7	Zeph.2.9	2
Zeph.2.7	Hag.1.12	2
Zeph.2.7	Hag.2.2	2
Zeph.2.7	Zech.9.6-Zech.9.7	2
Zeph.2.7	Luke.7.16	2
Zeph.2.7	Acts.8.26	2
Zeph.2.7	Acts.8.40	2
Zeph.2.7	Rom.11.5	2
Zeph.2.8	Jer.49.1	3
Zeph.2.8	Amos.1.13	3
Zeph.2.8	Ps.83.4-Ps.83.7	2
Zeph.2.8	Jer.48.27-Jer.48.29	2
Zeph.2.8	Ezek.25.3-Ezek.25.11	2
Zeph.2.8	Ezek.36.2	2
Zeph.2.9	Deut.29.23	5
Zeph.2.9	Isa.11.14	4
Zeph.2.9	Isa.15.1-Isa.15.9	4
Zeph.2.9	Isa.49.18	3
Zeph.2.9	Gen.19.24-Gen.19.25	2
Zeph.2.9	Num.14.21	2
Zeph.2.9	Isa.13.19-Isa.13.20	2
Zeph.2.9	Isa.25.10	2
Zeph.2.9	Isa.34.9-Isa.34.13	2
Zeph.2.9	Jer.46.18	2
Zeph.2.9	Jer.48.1-Jer.49.6	2
Zeph.2.9	Jer.49.18	2
Zeph.2.9	Jer.50.40	2
Zeph.2.9	Ezek.25.1-Ezek.25.17	2
Zeph.2.9	Joel.3.19-Joel.3.20	2
Zeph.2.9	Amos.1.13-Amos.2.3	2
Zeph.2.9	Mic.5.7-Mic.5.8	2
Zeph.2.9	Zeph.2.7	2
Zeph.2.9	Zeph.2.14	2
Zeph.2.9	Zeph.3.13	2
Zeph.2.9	Rom.14.11	2
Zeph.2.10	Isa.16.6	5
Zeph.2.10	Zeph.2.8	3
Zeph.2.10	Exod.9.17	2
Zeph.2.10	Exod.10.3	2
Zeph.2.10	Isa.10.12-Isa.10.15	2
Zeph.2.10	Isa.37.22-Isa.37.29	2
Zeph.2.10	Jer.48.29	2
Zeph.2.10	Ezek.38.14-Ezek.38.18	2
Zeph.2.10	Dan.4.37	2
Zeph.2.10	Dan.5.20-Dan.5.23	2
Zeph.2.10	Obad.1.3	2
Zeph.2.10	1Pet.5.5	2
Zeph.2.11	Gen.10.5	3
Zeph.2.11	Ps.72.8-Ps.72.11	3
Zeph.2.11	Deut.32.38	2
Zeph.2.11	Ps.2.8-Ps.2.12	2
Zeph.2.11	Ps.22.27-Ps.22.30	2
Zeph.2.11	Ps.72.17	2
Zeph.2.11	Ps.86.9	2
Zeph.2.11	Ps.97.6-Ps.97.8	2
Zeph.2.11	Ps.117.1-Ps.117.2	2
Zeph.2.11	Ps.138.4	2
Zeph.2.11	Isa.2.2-Isa.2.4	2
Zeph.2.11	Isa.11.9-Isa.11.10	2
Zeph.2.11	Isa.24.14-Isa.24.16	2
Zeph.2.11	Isa.42.4	2
Zeph.2.11	Isa.42.10	2
Zeph.2.11	Isa.49.1	2
Zeph.2.11	Hos.2.17	2
Zeph.2.11	Joel.2.11	2
Zeph.2.11	Mic.4.1-Mic.4.3	2
Zeph.2.11	Zeph.1.4	2
Zeph.2.11	Zeph.3.9	2
Zeph.2.11	Zech.2.11	2
Zeph.2.11	Zech.8.20	2
Zeph.2.11	Zech.8.23	2
Zeph.2.11	Zech.13.2	2
Zeph.2.11	Zech.14.9-Zech.14.21	2
Zeph.2.11	Mal.1.11	2
Zeph.2.11	John.4.21-John.4.23	2
Zeph.2.11	1Tim.2.8	2
Zeph.2.11	Rev.11.15	2
Zeph.2.12	Isa.18.1-Isa.18.7	3
Zeph.2.12	Isa.20.4-Isa.20.5	3
Zeph.2.12	Ezek.30.4-Ezek.30.9	3
Zeph.2.12	Ps.17.13	2
Zeph.2.12	Isa.10.5	2
Zeph.2.12	Isa.13.5	2
Zeph.2.12	Isa.43.3	2
Zeph.2.12	Jer.46.9-Jer.46.10	2
Zeph.2.12	Jer.47.6-Jer.47.7	2
Zeph.2.12	Jer.51.20-Jer.51.23	2
Zeph.2.13	Nah.3.7	4
Zeph.2.13	Isa.10.12	3
Zeph.2.13	Isa.10.16	3
Zeph.2.13	Nah.1.1	3
Zeph.2.13	Ps.83.8-Ps.83.9	2
Zeph.2.13	Isa.11.11	2
Zeph.2.13	Ezek.31.3-Ezek.31.18	2
Zeph.2.13	Mic.5.6	2
Zeph.2.13	Nah.2.10-Nah.2.11	2
Zeph.2.13	Nah.3.15	2
Zeph.2.13	Nah.3.18-Nah.3.19	2
Zeph.2.13	Zech.10.10-Zech.10.11	2
Zeph.2.14	Jer.22.14	3
Zeph.2.14	Isa.13.19-Isa.13.22	2
Zeph.2.14	Isa.14.23	2
Zeph.2.14	Isa.34.11-Isa.34.17	2
Zeph.2.14	Amos.9.1	2
Zeph.2.14	Zeph.2.6	2
Zeph.2.14	Rev.18.2	2
Zeph.2.15	Ezek.28.2	4
Zeph.2.15	Nah.3.19	4
Zeph.2.15	Isa.22.2	3
Zeph.2.15	Ezek.28.9	3
Zeph.2.15	1Kgs.9.7-1Kgs.9.8	2
Zeph.2.15	Job.27.23	2
Zeph.2.15	Ps.52.6-Ps.52.7	2
Zeph.2.15	Isa.10.12-Isa.10.14	2
Zeph.2.15	Isa.14.4-Isa.14.5	2
Zeph.2.15	Isa.32.9	2
Zeph.2.15	Isa.47.7-Isa.47.8	2
Zeph.2.15	Jer.19.8	2
Zeph.2.15	Lam.1.1	2
Zeph.2.15	Lam.2.1	2
Zeph.2.15	Lam.2.15	2
Zeph.2.15	Ezek.27.36	2
Zeph.2.15	Ezek.29.3	2
Zeph.2.15	Matt.27.39	2
Zeph.2.15	Rev.18.7-Rev.18.19	2
Zeph.3.1	Jer.6.6	5
Zeph.3.1	Lev.1.16	2
Zeph.3.1	Isa.5.7	2
Zeph.3.1	Isa.30.12	2
Zeph.3.1	Isa.59.13	2
Zeph.3.1	Jer.22.17	2
Zeph.3.1	Ezek.22.7	2
Zeph.3.1	Ezek.22.29	2
Zeph.3.1	Ezek.23.30	2
Zeph.3.1	Amos.3.9	2
Zeph.3.1	Amos.4.1	2
Zeph.3.1	Mic.2.2	2
Zeph.3.1	Zech.7.10	2
Zeph.3.1	Mal.3.5	2
Zeph.3.2	Jer.5.3	5
Zeph.3.2	Ps.78.22	3
Zeph.3.2	Jer.2.30	3
Zeph.3.2	Jer.7.23-Jer.7.28	3
Zeph.3.2	Jer.22.21	3
Zeph.3.2	Deut.28.15-Deut.28.68	2
Zeph.3.2	Neh.9.26	2
Zeph.3.2	Ps.10.4	2
Zeph.3.2	Ps.50.17	2
Zeph.3.2	Ps.73.28	2
Zeph.3.2	Prov.1.7	2
Zeph.3.2	Prov.5.12	2
Zeph.3.2	Isa.1.5	2
Zeph.3.2	Isa.29.13	2
Zeph.3.2	Isa.30.1-Isa.30.3	2
Zeph.3.2	Isa.31.1	2
Zeph.3.2	Isa.43.22	2
Zeph.3.2	Jer.17.5-Jer.17.6	2
Zeph.3.2	Jer.32.33	2
Zeph.3.2	Jer.35.13	2
Zeph.3.2	Jer.35.17	2
Zeph.3.2	Ezek.24.13	2
Zeph.3.2	Zech.7.11-Zech.7.14	2
Zeph.3.2	John.3.18-John.3.19	2
Zeph.3.2	Heb.10.22	2
Zeph.3.3	Hab.1.8	4
Zeph.3.3	Jer.5.6	3
Zeph.3.3	Job.4.8-Job.4.11	2
Zeph.3.3	Ps.10.8-Ps.10.10	2
Zeph.3.3	Prov.28.15	2
Zeph.3.3	Isa.1.23	2
Zeph.3.3	Jer.22.17	2
Zeph.3.3	Ezek.22.6	2
Zeph.3.3	Ezek.22.25-Ezek.22.27	2
Zeph.3.3	Mic.3.1-Mic.3.4	2
Zeph.3.3	Mic.3.9-Mic.3.11	2
Zeph.3.4	Ezek.22.26	5
Zeph.3.4	Hos.9.7	3
Zeph.3.4	Mal.2.8	3
Zeph.3.4	1Sam.2.12-1Sam.2.17	2
Zeph.3.4	1Sam.2.22	2
Zeph.3.4	Isa.9.15	2
Zeph.3.4	Isa.56.10-Isa.56.12	2
Zeph.3.4	Jer.5.31	2
Zeph.3.4	Jer.6.13-Jer.6.14	2
Zeph.3.4	Jer.8.10	2
Zeph.3.4	Jer.14.13-Jer.14.15	2
Zeph.3.4	Jer.23.9-Jer.23.17	2
Zeph.3.4	Jer.23.25-Jer.23.27	2
Zeph.3.4	Jer.23.32	2
Zeph.3.4	Jer.27.14-Jer.27.15	2
Zeph.3.4	Lam.2.14	2
Zeph.3.4	Ezek.13.3-Ezek.13.16	2
Zeph.3.4	Ezek.44.7-Ezek.44.8	2
Zeph.3.4	Hos.4.6-Hos.4.8	2
Zeph.3.4	Mic.2.11	2
Zeph.3.4	Mic.3.5-Mic.3.6	2
Zeph.3.4	Matt.7.15	2
Zeph.3.4	2Cor.11.13	2
Zeph.3.4	2Pet.2.1-2Pet.2.3	2
Zeph.3.4	1John.4.1	2
Zeph.3.4	Rev.19.20	2
Zeph.3.5	Deut.32.4	4
Zeph.3.5	Zeph.3.15	3
Zeph.3.5	Zeph.3.17	3
Zeph.3.5	Gen.18.25	2
Zeph.3.5	Deut.23.14	2
Zeph.3.5	Job.8.3	2
Zeph.3.5	Job.34.10	2
Zeph.3.5	Job.34.17-Job.34.19	2
Zeph.3.5	Ps.37.6	2
Zeph.3.5	Ps.99.3-Ps.99.4	2
Zeph.3.5	Ps.145.17	2
Zeph.3.5	Eccl.3.16-Eccl.3.17	2
Zeph.3.5	Isa.12.6	2
Zeph.3.5	Isa.28.19	2
Zeph.3.5	Isa.33.2	2
Zeph.3.5	Isa.42.3-Isa.42.4	2
Zeph.3.5	Isa.45.21	2
Zeph.3.5	Isa.50.4	2
Zeph.3.5	Jer.3.3	2
Zeph.3.5	Jer.6.15	2
Zeph.3.5	Jer.8.12	2
Zeph.3.5	Jer.21.12	2
Zeph.3.5	Lam.3.23	2
Zeph.3.5	Ezek.48.35	2
Zeph.3.5	Mic.3.11	2
Zeph.3.5	Mic.7.9	2
Zeph.3.5	Hab.1.3	2
Zeph.3.5	Zeph.2.1	2
Zeph.3.5	Zech.2.5	2
Zeph.3.5	Zech.9.9	2
Zeph.3.5	Luke.12.2	2
Zeph.3.5	Rom.2.5	2
Zeph.3.5	Rom.3.26	2
Zeph.3.5	1Cor.4.5	2
Zeph.3.5	1Pet.1.17	2
Zeph.3.6	Lev.26.31	2
Zeph.3.6	Isa.10.1-Isa.10.34	2
Zeph.3.6	Isa.15.1-Isa.15.9	2
Zeph.3.6	Isa.19.1-Isa.19.25	2
Zeph.3.6	Isa.37.11-Isa.37.13	2
Zeph.3.6	Isa.37.24-Isa.37.26	2
Zeph.3.6	Isa.37.36	2
Zeph.3.6	Jer.25.9-Jer.25.11	2
Zeph.3.6	Jer.25.18-Jer.25.26	2
Zeph.3.6	Nah.2.1-Nah.2.3	2
Zeph.3.6	Zeph.2.5	2
Zeph.3.6	Zech.7.14	2
Zeph.3.6	1Cor.10.6	2
Zeph.3.6	1Cor.10.11	2
Zeph.3.7	Hos.9.9	4
Zeph.3.7	Jer.7.7	3
Zeph.3.7	Jer.36.3	3
Zeph.3.7	Zeph.3.2	3
Zeph.3.7	Gen.6.12	2
Zeph.3.7	Deut.4.16	2
Zeph.3.7	2Chr.28.6-2Chr.28.8	2
Zeph.3.7	2Chr.32.1-2Chr.32.2	2
Zeph.3.7	2Chr.33.11	2
Zeph.3.7	2Chr.36.3-2Chr.36.10	2
Zeph.3.7	Isa.5.4	2
Zeph.3.7	Isa.63.8	2
Zeph.3.7	Jer.8.6	2
Zeph.3.7	Jer.17.25-Jer.17.27	2
Zeph.3.7	Jer.25.5	2
Zeph.3.7	Jer.38.17	2
Zeph.3.7	Mic.2.1-Mic.2.2	2
Zeph.3.7	Luke.19.42-Luke.19.44	2
Zeph.3.7	2Pet.3.9	2
Zeph.3.8	Joel.3.2	5
Zeph.3.8	Zeph.1.18	5
Zeph.3.8	Ps.27.14	4
Zeph.3.8	Isa.30.18	3
Zeph.3.8	Ezek.38.14-Ezek.38.23	3
Zeph.3.8	Deut.32.21-Deut.32.22	2
Zeph.3.8	Ps.12.5	2
Zeph.3.8	Ps.37.7	2
Zeph.3.8	Ps.37.34	2
Zeph.3.8	Ps.62.1	2
Zeph.3.8	Ps.62.5	2
Zeph.3.8	Ps.78.65-Ps.78.66	2
Zeph.3.8	Ps.123.2	2
Zeph.3.8	Ps.130.5-Ps.130.6	2
Zeph.3.8	Prov.20.22	2
Zeph.3.8	Song.8.6	2
Zeph.3.8	Isa.42.13-Isa.42.14	2
Zeph.3.8	Isa.59.16-Isa.59.18	2
Zeph.3.8	Lam.3.25-Lam.3.26	2
Zeph.3.8	Ezek.36.5-Ezek.36.6	2
Zeph.3.8	Hos.12.6	2
Zeph.3.8	Joel.3.9-Joel.3.16	2
Zeph.3.8	Mic.4.11-Mic.4.13	2
Zeph.3.8	Mic.7.7	2
Zeph.3.8	Hab.2.3	2
Zeph.3.8	Zech.14.2-Zech.14.3	2
Zeph.3.8	Matt.25.32	2
Zeph.3.8	Jas.5.7-Jas.5.8	2
Zeph.3.8	2Pet.3.10	2
Zeph.3.8	Rev.16.14	2
Zeph.3.8	Rev.19.17-Rev.19.19	2
Zeph.3.9	Isa.19.18	5
Zeph.3.9	Ps.22.27	3
Zeph.3.9	Hab.2.14	3
Zeph.3.9	Gen.11.1	2
Zeph.3.9	1Kgs.8.41-1Kgs.8.43	2
Zeph.3.9	Ps.86.9-Ps.86.10	2
Zeph.3.9	Ps.113.3	2
Zeph.3.9	Jer.16.19	2
Zeph.3.9	Zeph.2.11	2
Zeph.3.9	Zech.2.11	2
Zeph.3.9	Zech.8.20-Zech.8.23	2
Zeph.3.9	Zech.14.9	2
Zeph.3.9	Matt.12.35	2
Zeph.3.9	Acts.2.4-Acts.2.13	2
Zeph.3.9	Rom.15.6-Rom.15.11	2
Zeph.3.9	Eph.4.29	2
Zeph.3.9	Rev.11.15	2
Zeph.3.10	Ps.68.31	5
Zeph.3.10	Isa.11.11	3
Zeph.3.10	Isa.18.1	3
Zeph.3.10	Ps.72.8-Ps.72.11	2
Zeph.3.10	Isa.18.7	2
Zeph.3.10	Isa.27.12-Isa.27.13	2
Zeph.3.10	Isa.49.20-Isa.49.23	2
Zeph.3.10	Isa.60.4-Isa.60.12	2
Zeph.3.10	Isa.66.18-Isa.66.21	2
Zeph.3.10	Mal.1.11	2
Zeph.3.10	Acts.8.27	2
Zeph.3.10	Acts.24.17	2
Zeph.3.10	Rom.11.11-Rom.11.12	2
Zeph.3.10	Rom.15.16	2
Zeph.3.10	1Pet.1.1	2
Zeph.3.11	Isa.54.4	4
Zeph.3.11	Joel.2.26-Joel.2.27	4
Zeph.3.11	Isa.11.9	3
Zeph.3.11	Isa.45.17	3
Zeph.3.11	Jer.7.4	3
Zeph.3.11	Matt.3.9	3
Zeph.3.11	Num.16.3	2
Zeph.3.11	Ps.49.5	2
Zeph.3.11	Ps.87.1-Ps.87.2	2
Zeph.3.11	Isa.48.1-Isa.48.2	2
Zeph.3.11	Isa.61.7	2
Zeph.3.11	Isa.65.13-Isa.65.14	2
Zeph.3.11	Jer.7.9-Jer.7.12	2
Zeph.3.11	Ezek.7.20-Ezek.7.24	2
Zeph.3.11	Ezek.24.21	2
Zeph.3.11	Dan.9.16	2
Zeph.3.11	Dan.9.20	2
Zeph.3.11	Mic.3.11	2
Zeph.3.11	Zeph.3.19-Zeph.3.20	2
Zeph.3.11	Rom.2.17	2
Zeph.3.11	Rom.9.33	2
Zeph.3.11	1Pet.2.6	2
Zeph.3.12	Isa.14.32	5
Zeph.3.12	Nah.1.7	4
Zeph.3.12	Isa.50.10	3
Zeph.3.12	Zech.13.8-Zech.13.9	3
Zeph.3.12	Matt.5.3	3
Zeph.3.12	Ps.37.40	2
Zeph.3.12	Isa.61.1-Isa.61.3	2
Zeph.3.12	Zech.11.11	2
Zeph.3.12	Matt.11.5	2
Zeph.3.12	Matt.12.21	2
Zeph.3.12	Rom.15.12	2
Zeph.3.12	1Cor.1.27-1Cor.1.28	2
Zeph.3.12	Eph.1.12-Eph.1.13	2
Zeph.3.12	Jas.2.5	2
Zeph.3.12	1Pet.1.21	2
Zeph.3.13	Zeph.2.7	5
Zeph.3.13	Rev.14.5	5
Zeph.3.13	Mic.4.7	4
Zeph.3.13	Isa.10.20-Isa.10.22	3
Zeph.3.13	Isa.60.21	3
Zeph.3.13	Jer.31.33	3
Zeph.3.13	Ezek.34.13-Ezek.34.15	3
Zeph.3.13	Ps.23.2	2
Zeph.3.13	Ps.119.3	2
Zeph.3.13	Isa.6.13	2
Zeph.3.13	Isa.11.6-Isa.11.9	2
Zeph.3.13	Isa.17.2	2
Zeph.3.13	Isa.35.8	2
Zeph.3.13	Isa.54.14	2
Zeph.3.13	Isa.63.8	2
Zeph.3.13	Isa.65.10	2
Zeph.3.13	Jer.23.4	2
Zeph.3.13	Jer.30.10	2
Zeph.3.13	Ezek.34.23-Ezek.34.28	2
Zeph.3.13	Ezek.36.25-Ezek.36.27	2
Zeph.3.13	Ezek.39.26	2
Zeph.3.13	Joel.3.17	2
Zeph.3.13	Joel.3.21	2
Zeph.3.13	Mic.4.4	2
Zeph.3.13	Mic.5.4-Mic.5.5	2
Zeph.3.13	Mic.7.14	2
Zeph.3.13	Zech.14.20-Zech.14.21	2
Zeph.3.13	Matt.13.41	2
Zeph.3.13	John.1.47	2
Zeph.3.13	Rom.11.4-Rom.11.7	2
Zeph.3.13	Col.3.9	2
Zeph.3.13	1Pet.3.14	2
Zeph.3.13	1John.3.9-1John.3.10	2
Zeph.3.13	1John.5.18	2
Zeph.3.13	Rev.7.15-Rev.7.17	2
Zeph.3.13	Rev.21.8	2
Zeph.3.13	Rev.21.27	2
Zeph.3.14	Isa.12.6	4
Zeph.3.14	Isa.54.1	3
Zeph.3.14	Ezra.3.11-Ezra.3.13	2
Zeph.3.14	Neh.12.43	2
Zeph.3.14	Ps.14.7	2
Zeph.3.14	Ps.47.5-Ps.47.7	2
Zeph.3.14	Ps.81.1-Ps.81.3	2
Zeph.3.14	Ps.95.1-Ps.95.2	2
Zeph.3.14	Ps.100.1-Ps.100.2	2
Zeph.3.14	Ps.126.2-Ps.126.3	2
Zeph.3.14	Isa.24.14-Isa.24.16	2
Zeph.3.14	Isa.35.2	2
Zeph.3.14	Isa.40.9	2
Zeph.3.14	Isa.42.10-Isa.42.12	2
Zeph.3.14	Isa.51.11	2
Zeph.3.14	Isa.65.13-Isa.65.14	2
Zeph.3.14	Isa.65.18-Isa.65.19	2
Zeph.3.14	Jer.30.19	2
Zeph.3.14	Jer.31.13	2
Zeph.3.14	Jer.33.11	2
Zeph.3.14	Mic.4.8	2
Zeph.3.14	Zech.2.10-Zech.2.11	2
Zeph.3.14	Zech.9.9-Zech.9.10	2
Zeph.3.14	Zech.9.15-Zech.9.17	2
Zeph.3.14	Matt.21.9	2
Zeph.3.14	Luke.2.10-Luke.2.14	2
Zeph.3.14	Rev.19.1-Rev.19.6	2
Zeph.3.15	Isa.51.22	4
Zeph.3.15	Zeph.3.5	3
Zeph.3.15	John.1.49	3
Zeph.3.15	Gen.30.23	2
Zeph.3.15	Ps.85.3	2
Zeph.3.15	Isa.13.1-Isa.13.14	2
Zeph.3.15	Isa.25.8	2
Zeph.3.15	Isa.33.22	2
Zeph.3.15	Isa.35.10	2
Zeph.3.15	Isa.40.1-Isa.40.2	2
Zeph.3.15	Isa.54.14	2
Zeph.3.15	Isa.60.18	2
Zeph.3.15	Isa.65.19	2
Zeph.3.15	Jer.50.1-Jer.50.46	2
Zeph.3.15	Ezek.37.24-Ezek.37.28	2
Zeph.3.15	Ezek.39.29	2
Zeph.3.15	Ezek.48.35	2
Zeph.3.15	Joel.3.17	2
Zeph.3.15	Joel.3.20-Joel.3.21	2
Zeph.3.15	Amos.9.15	2
Zeph.3.15	Mic.7.10	2
Zeph.3.15	Mic.7.16-Mic.7.20	2
Zeph.3.15	Hab.2.8	2
Zeph.3.15	Hab.2.17	2
Zeph.3.15	Zeph.3.17	2
Zeph.3.15	Zech.1.14-Zech.1.16	2
Zeph.3.15	Zech.2.8-Zech.2.9	2
Zeph.3.15	Zech.8.13-Zech.8.15	2
Zeph.3.15	Zech.9.9	2
Zeph.3.15	Zech.10.6-Zech.10.7	2
Zeph.3.15	Zech.12.3	2
Zeph.3.15	Zech.14.11	2
Zeph.3.15	John.12.15	2
Zeph.3.15	John.19.19	2
Zeph.3.15	Rom.8.33-Rom.8.34	2
Zeph.3.15	Rev.7.15	2
Zeph.3.15	Rev.12.10	2
Zeph.3.15	Rev.19.16	2
Zeph.3.15	Rev.21.3-Rev.21.4	2
Zeph.3.16	Heb.12.12	5
Zeph.3.16	Isa.35.3-Isa.35.4	4
Zeph.3.16	Job.4.3	2
Zeph.3.16	Isa.40.9	2
Zeph.3.16	Isa.41.10	2
Zeph.3.16	Isa.41.13-Isa.41.14	2
Zeph.3.16	Isa.43.1-Isa.43.2	2
Zeph.3.16	Isa.44.2	2
Zeph.3.16	Isa.54.4	2
Zeph.3.16	Jer.46.27-Jer.46.28	2
Zeph.3.16	Hag.2.4-Hag.2.5	2
Zeph.3.16	Zech.8.15	2
Zeph.3.16	John.12.12	2
Zeph.3.16	2Cor.4.1	2
Zeph.3.16	Gal.6.9	2
Zeph.3.16	Eph.3.13	2
Zeph.3.16	Heb.12.3-Heb.12.5	2
Zeph.3.16	Rev.2.3	2
Zeph.3.17	Jer.32.41	5
Zeph.3.17	Zeph.3.5	4
Zeph.3.17	Zeph.3.15	4
Zeph.3.17	Ps.147.11	3
Zeph.3.17	Ps.149.4	3
Zeph.3.17	Isa.12.2	3
Zeph.3.17	Isa.62.4-Isa.62.5	3
Zeph.3.17	Isa.63.1	3
Zeph.3.17	John.15.11	3
Zeph.3.17	Heb.7.25	3
Zeph.3.17	Gen.1.31	2
Zeph.3.17	Gen.2.2	2
Zeph.3.17	Gen.17.1	2
Zeph.3.17	Gen.18.14	2
Zeph.3.17	Num.14.8	2
Zeph.3.17	Deut.30.9	2
Zeph.3.17	Ps.24.8-Ps.24.10	2
Zeph.3.17	Isa.9.6	2
Zeph.3.17	Isa.12.6	2
Zeph.3.17	Isa.18.4	2
Zeph.3.17	Isa.63.12	2
Zeph.3.17	Isa.65.19	2
Zeph.3.17	Luke.15.5-Luke.15.6	2
Zeph.3.17	Luke.15.23-Luke.15.24	2
Zeph.3.17	Luke.15.32	2
Zeph.3.17	John.13.1	2
Zeph.3.18	Ps.42.2-Ps.42.4	3
Zeph.3.18	Lam.1.4	3
Zeph.3.18	Ps.43.3	2
Zeph.3.18	Ps.63.1-Ps.63.2	2
Zeph.3.18	Ps.84.1-Ps.84.2	2
Zeph.3.18	Ps.137.3-Ps.137.6	2
Zeph.3.18	Jer.23.3	2
Zeph.3.18	Jer.31.8-Jer.31.9	2
Zeph.3.18	Lam.1.7	2
Zeph.3.18	Lam.2.6-Lam.2.7	2
Zeph.3.18	Ezek.34.13	2
Zeph.3.18	Ezek.36.24	2
Zeph.3.18	Hos.1.11	2
Zeph.3.18	Hos.9.5	2
Zeph.3.18	Zeph.3.20	2
Zeph.3.18	Rom.11.25-Rom.11.26	2
Zeph.3.19	Isa.60.14	4
Zeph.3.19	Ezek.34.16	4
Zeph.3.19	Isa.61.7	3
Zeph.3.19	Isa.62.7	3
Zeph.3.19	Jer.33.9	3
Zeph.3.19	Mic.4.6-Mic.4.7	3
Zeph.3.19	Isa.25.9-Isa.25.12	2
Zeph.3.19	Isa.26.11	2
Zeph.3.19	Isa.41.11-Isa.41.16	2
Zeph.3.19	Isa.43.14-Isa.43.17	2
Zeph.3.19	Isa.49.25-Isa.49.26	2
Zeph.3.19	Isa.51.22-Isa.51.23	2
Zeph.3.19	Isa.60.18	2
Zeph.3.19	Isa.66.14-Isa.66.16	2
Zeph.3.19	Jer.30.16	2
Zeph.3.19	Jer.31.8	2
Zeph.3.19	Jer.46.28	2
Zeph.3.19	Jer.51.35-Jer.51.36	2
Zeph.3.19	Ezek.39.17-Ezek.39.22	2
Zeph.3.19	Ezek.39.26	2
Zeph.3.19	Joel.3.2-Joel.3.9	2
Zeph.3.19	Mic.7.10	2
Zeph.3.19	Nah.1.11-Nah.1.14	2
Zeph.3.19	Zeph.3.15	2
Zeph.3.19	Zech.2.8-Zech.2.9	2
Zeph.3.19	Zech.12.3-Zech.12.4	2
Zeph.3.19	Zech.14.2-Zech.14.3	2
Zeph.3.19	Heb.12.13	2
Zeph.3.19	Rev.19.17-Rev.19.21	2
Zeph.3.19	Rev.20.9	2
Zeph.3.20	Jer.29.14	4
Zeph.3.20	Joel.3.1	4
Zeph.3.20	Ezek.37.21	3
Zeph.3.20	Ps.35.6	2
Zeph.3.20	Isa.11.11-Isa.11.12	2
Zeph.3.20	Isa.27.12-Isa.27.13	2
Zeph.3.20	Isa.56.5	2
Zeph.3.20	Isa.56.8	2
Zeph.3.20	Isa.60.15	2
Zeph.3.20	Isa.61.9	2
Zeph.3.20	Isa.62.7	2
Zeph.3.20	Isa.62.12	2
Zeph.3.20	Isa.66.22	2
Zeph.3.20	Ezek.16.53	2
Zeph.3.20	Ezek.28.25	2
Zeph.3.20	Ezek.34.16	2
Zeph.3.20	Ezek.37.12	2
Zeph.3.20	Ezek.39.28	2
Zeph.3.20	Amos.9.14	2
Zeph.3.20	Zeph.2.7	2
Zeph.3.20	Zeph.3.19	2
Zeph.3.20	Mal.3.12	2