1Tim.1.1	Titus.1.3	8
1Tim.1.1	Col.1.27	5
1Tim.1.1	Luke.1.47	3
1Tim.1.1	1Tim.2.7	3
1Tim.1.1	Ps.106.21	2
1Tim.1.1	Isa.12.2	2
1Tim.1.1	Isa.43.3	2
1Tim.1.1	Isa.43.11	2
1Tim.1.1	Isa.45.15	2
1Tim.1.1	Isa.45.21	2
1Tim.1.1	Isa.49.26	2
1Tim.1.1	Isa.60.16	2
1Tim.1.1	Isa.63.8	2
1Tim.1.1	Hos.13.4	2
1Tim.1.1	Luke.2.11	2
1Tim.1.1	Acts.9.15	2
1Tim.1.1	Acts.26.16-Acts.26.18	2
1Tim.1.1	Rom.1.1	2
1Tim.1.1	Rom.15.12-Rom.15.13	2
1Tim.1.1	1Cor.1.1	2
1Tim.1.1	1Cor.9.17	2
1Tim.1.1	2Cor.1.1	2
1Tim.1.1	Gal.1.1	2
1Tim.1.1	Gal.1.11	2
1Tim.1.1	2Thess.2.16	2
1Tim.1.1	1Tim.1.12	2
1Tim.1.1	1Tim.2.3	2
1Tim.1.1	1Tim.4.10	2
1Tim.1.1	2Tim.1.10-2Tim.1.11	2
1Tim.1.1	Titus.2.10	2
1Tim.1.1	Titus.2.13	2
1Tim.1.1	Titus.3.4	2
1Tim.1.1	Titus.3.6	2
1Tim.1.1	1Pet.1.3	2
1Tim.1.1	1Pet.1.21	2
1Tim.1.1	2Pet.1.1	2
1Tim.1.1	1John.4.14	2
1Tim.1.1	Jude.1.25	2
1Tim.1.2	2Tim.1.2	9
1Tim.1.2	Titus.1.4	7
1Tim.1.2	Rom.1.7	3
1Tim.1.2	1Cor.4.14-1Cor.4.17	3
1Tim.1.2	Acts.16.1-Acts.16.3	2
1Tim.1.2	Gal.1.3	2
1Tim.1.2	Phil.2.19-Phil.2.22	2
1Tim.1.2	1Thess.3.2	2
1Tim.1.2	1Tim.1.18	2
1Tim.1.2	2Tim.2.1	2
1Tim.1.2	1Pet.1.2	2
1Tim.1.3	Gal.1.6-Gal.1.7	5
1Tim.1.3	1Tim.6.3	5
1Tim.1.3	Col.2.6-Col.2.11	3
1Tim.1.3	1Tim.4.6	3
1Tim.1.3	1Tim.4.11	3
1Tim.1.3	Titus.1.9-Titus.1.11	3
1Tim.1.3	2John.1.7	3
1Tim.1.3	2John.1.9-2John.1.10	3
1Tim.1.3	Acts.18.19	2
1Tim.1.3	Acts.19.1-Acts.19.10	2
1Tim.1.3	Acts.20.1-Acts.20.3	2
1Tim.1.3	Eph.4.14	2
1Tim.1.3	Phil.2.24	2
1Tim.1.3	1Tim.5.7	2
1Tim.1.3	1Tim.6.10	2
1Tim.1.3	1Tim.6.17	2
1Tim.1.3	Rev.2.1-Rev.2.2	2
1Tim.1.3	Rev.2.14	2
1Tim.1.3	Rev.2.20	2
1Tim.1.4	1Tim.4.7	6
1Tim.1.4	Titus.1.14	5
1Tim.1.4	Titus.3.9	5
1Tim.1.4	2Tim.4.4	4
1Tim.1.4	2Pet.1.16	4
1Tim.1.4	2Cor.1.12	2
1Tim.1.4	2Cor.7.9-2Cor.7.10	2
1Tim.1.4	Eph.4.12-Eph.4.16	2
1Tim.1.4	1Tim.3.16	2
1Tim.1.4	1Tim.6.3-1Tim.6.5	2
1Tim.1.4	1Tim.6.11	2
1Tim.1.4	1Tim.6.20	2
1Tim.1.4	2Tim.2.14	2
1Tim.1.4	2Tim.2.16-2Tim.2.18	2
1Tim.1.4	2Tim.2.22	2
1Tim.1.4	Titus.1.1	2
1Tim.1.4	Heb.13.9	2
1Tim.1.5	2Tim.1.5	7
1Tim.1.5	2Tim.2.22	5
1Tim.1.5	1Tim.1.19	4
1Tim.1.5	1Pet.3.16	4
1Tim.1.5	1Pet.3.21	4
1Tim.1.5	Ps.51.10	3
1Tim.1.5	Gal.5.22	3
1Tim.1.5	1Tim.3.9	3
1Tim.1.5	2Tim.1.3	3
1Tim.1.5	Ps.24.4	2
1Tim.1.5	Jer.4.14	2
1Tim.1.5	Matt.5.8	2
1Tim.1.5	Matt.12.35	2
1Tim.1.5	Mark.12.28-Mark.12.34	2
1Tim.1.5	Acts.15.9	2
1Tim.1.5	Acts.23.1	2
1Tim.1.5	Acts.24.16	2
1Tim.1.5	Rom.9.1	2
1Tim.1.5	Rom.10.4	2
1Tim.1.5	Rom.13.8-Rom.13.10	2
1Tim.1.5	Rom.14.15	2
1Tim.1.5	1Cor.8.1-1Cor.8.3	2
1Tim.1.5	1Cor.13.1-1Cor.14.1	2
1Tim.1.5	2Cor.1.12	2
1Tim.1.5	Gal.5.6	2
1Tim.1.5	Gal.5.13-Gal.5.14	2
1Tim.1.5	Titus.1.15	2
1Tim.1.5	Heb.9.14	2
1Tim.1.5	Heb.10.22	2
1Tim.1.5	Heb.11.5-Heb.11.6	2
1Tim.1.5	Heb.13.18	2
1Tim.1.5	Jas.4.8	2
1Tim.1.5	1Pet.1.22	2
1Tim.1.5	1Pet.4.8	2
1Tim.1.5	2Pet.1.7	2
1Tim.1.5	1John.3.3	2
1Tim.1.5	1John.3.23	2
1Tim.1.5	1John.4.7-1John.4.14	2
1Tim.1.6	Titus.1.10	4
1Tim.1.6	1Tim.5.15	2
1Tim.1.6	1Tim.6.4-1Tim.6.5	2
1Tim.1.6	1Tim.6.20-1Tim.6.21	2
1Tim.1.6	2Tim.2.18	2
1Tim.1.6	2Tim.2.23-2Tim.2.24	2
1Tim.1.6	2Tim.4.10	2
1Tim.1.6	Titus.3.9	2
1Tim.1.7	1Tim.6.4	3
1Tim.1.7	Isa.29.13-Isa.29.14	2
1Tim.1.7	Jer.8.8-Jer.8.9	2
1Tim.1.7	Matt.15.14	2
1Tim.1.7	Matt.21.27	2
1Tim.1.7	Matt.23.16-Matt.23.24	2
1Tim.1.7	John.3.9-John.3.10	2
1Tim.1.7	John.9.40-John.9.41	2
1Tim.1.7	Acts.15.1	2
1Tim.1.7	Rom.1.22	2
1Tim.1.7	Rom.2.19-Rom.2.21	2
1Tim.1.7	Gal.3.2	2
1Tim.1.7	Gal.3.5	2
1Tim.1.7	Gal.4.21	2
1Tim.1.7	Gal.5.3-Gal.5.4	2
1Tim.1.7	2Tim.3.7	2
1Tim.1.7	Titus.1.10-Titus.1.11	2
1Tim.1.7	2Pet.2.12	2
1Tim.1.8	Rom.7.16	4
1Tim.1.8	Rom.7.12-Rom.7.13	3
1Tim.1.8	Deut.4.6-Deut.4.8	2
1Tim.1.8	Neh.9.13	2
1Tim.1.8	Ps.19.7-Ps.19.10	2
1Tim.1.8	Ps.119.96-Ps.119.105	2
1Tim.1.8	Ps.119.127-Ps.119.128	2
1Tim.1.8	Rom.7.18	2
1Tim.1.8	Rom.7.22	2
1Tim.1.8	Rom.12.2	2
1Tim.1.8	Gal.3.21	2
1Tim.1.8	2Tim.2.5	2
1Tim.1.9	Gal.5.23	4
1Tim.1.9	Gal.3.19	3
1Tim.1.9	Heb.12.16	3
1Tim.1.9	1Pet.4.18	3
1Tim.1.9	Gen.9.5-Gen.9.6	2
1Tim.1.9	Exod.20.13	2
1Tim.1.9	Exod.21.14	2
1Tim.1.9	Lev.20.9	2
1Tim.1.9	Num.35.30-Num.35.33	2
1Tim.1.9	Deut.21.6-Deut.21.9	2
1Tim.1.9	Deut.27.16	2
1Tim.1.9	2Sam.16.11	2
1Tim.1.9	2Sam.17.1-2Sam.17.4	2
1Tim.1.9	2Kgs.19.37	2
1Tim.1.9	2Chr.32.21	2
1Tim.1.9	Prov.20.20	2
1Tim.1.9	Prov.28.17	2
1Tim.1.9	Prov.28.24	2
1Tim.1.9	Prov.30.11	2
1Tim.1.9	Prov.30.17	2
1Tim.1.9	Jer.23.11	2
1Tim.1.9	Ezek.21.25	2
1Tim.1.9	Matt.10.21	2
1Tim.1.9	Rom.1.30	2
1Tim.1.9	Rom.4.13	2
1Tim.1.9	Rom.5.20	2
1Tim.1.9	Rom.6.14	2
1Tim.1.9	Gal.3.10-Gal.3.14	2
1Tim.1.9	Gal.5.21	2
1Tim.1.9	2Thess.2.8	2
1Tim.1.9	Titus.1.16	2
1Tim.1.9	Titus.3.3	2
1Tim.1.9	Heb.11.31	2
1Tim.1.9	1Pet.2.7	2
1Tim.1.9	1Pet.3.20	2
1Tim.1.9	Rev.21.8	2
1Tim.1.9	Rev.22.15	2
1Tim.1.10	Lev.18.22	5
1Tim.1.10	2Tim.4.3	5
1Tim.1.10	1Tim.6.3	4
1Tim.1.10	Titus.1.9	4
1Tim.1.10	Exod.21.16	3
1Tim.1.10	Lev.20.13	3
1Tim.1.10	Rom.1.26	3
1Tim.1.10	2Tim.1.13	3
1Tim.1.10	Jude.1.7	3
1Tim.1.10	Rev.18.13	3
1Tim.1.10	Rev.21.8	3
1Tim.1.10	Rev.21.27	3
1Tim.1.10	Rev.22.15	3
1Tim.1.10	Gen.19.5	2
1Tim.1.10	Gen.37.27	2
1Tim.1.10	Gen.40.15	2
1Tim.1.10	Exod.20.7	2
1Tim.1.10	Deut.24.7	2
1Tim.1.10	Ezek.17.16-Ezek.17.19	2
1Tim.1.10	Hos.4.1-Hos.4.2	2
1Tim.1.10	Hos.10.4	2
1Tim.1.10	Zech.5.4	2
1Tim.1.10	Zech.8.17	2
1Tim.1.10	Mal.3.5	2
1Tim.1.10	Matt.5.33-Matt.5.37	2
1Tim.1.10	Mark.7.21-Mark.7.22	2
1Tim.1.10	John.8.44	2
1Tim.1.10	1Cor.6.9-1Cor.6.10	2
1Tim.1.10	Gal.5.19-Gal.5.21	2
1Tim.1.10	Eph.5.3-Eph.5.6	2
1Tim.1.10	Titus.1.13	2
1Tim.1.10	Titus.2.1-Titus.2.2	2
1Tim.1.10	Heb.13.4	2
1Tim.1.11	Gal.2.7	5
1Tim.1.11	2Cor.4.4	4
1Tim.1.11	1Tim.6.15	4
1Tim.1.11	Rom.2.16	3
1Tim.1.11	Titus.1.3	3
1Tim.1.11	Ps.138.2	2
1Tim.1.11	Luke.2.10-Luke.2.11	2
1Tim.1.11	Luke.2.14	2
1Tim.1.11	1Cor.4.1-1Cor.4.2	2
1Tim.1.11	1Cor.9.17	2
1Tim.1.11	2Cor.3.8-2Cor.3.11	2
1Tim.1.11	2Cor.4.6	2
1Tim.1.11	2Cor.5.18-2Cor.5.20	2
1Tim.1.11	Eph.1.6	2
1Tim.1.11	Eph.1.12	2
1Tim.1.11	Eph.2.7	2
1Tim.1.11	Eph.3.10	2
1Tim.1.11	Col.1.25	2
1Tim.1.11	1Thess.2.4	2
1Tim.1.11	1Tim.2.7	2
1Tim.1.11	1Tim.6.20	2
1Tim.1.11	2Tim.1.11	2
1Tim.1.11	2Tim.1.14	2
1Tim.1.11	2Tim.2.2	2
1Tim.1.11	1Pet.1.11-1Pet.1.12	2
1Tim.1.12	Phil.4.13	5
1Tim.1.12	Acts.9.15	3
1Tim.1.12	Acts.9.22	3
1Tim.1.12	Acts.16.15	3
1Tim.1.12	1Cor.7.25	3
1Tim.1.12	1Cor.15.10	3
1Tim.1.12	2Cor.3.5-2Cor.3.6	3
1Tim.1.12	2Cor.4.1	3
1Tim.1.12	2Cor.12.9-2Cor.12.10	3
1Tim.1.12	Phil.2.11	3
1Tim.1.12	Col.1.25	3
1Tim.1.12	2Tim.4.17	3
1Tim.1.12	John.5.23	2
1Tim.1.12	1Tim.1.11	2
1Tim.1.12	Rev.5.9-Rev.5.14	2
1Tim.1.12	Rev.7.10-Rev.7.12	2
1Tim.1.13	Acts.8.3	5
1Tim.1.13	Acts.3.17	3
1Tim.1.13	Num.15.30	2
1Tim.1.13	Hos.2.23	2
1Tim.1.13	Luke.12.47	2
1Tim.1.13	Luke.23.34	2
1Tim.1.13	John.9.39-John.9.41	2
1Tim.1.13	Acts.9.1	2
1Tim.1.13	Acts.9.5	2
1Tim.1.13	Acts.9.13	2
1Tim.1.13	Acts.22.4	2
1Tim.1.13	Acts.26.9-Acts.26.11	2
1Tim.1.13	Rom.5.20-Rom.5.21	2
1Tim.1.13	Rom.11.30-Rom.11.31	2
1Tim.1.13	1Cor.7.25	2
1Tim.1.13	1Cor.15.9	2
1Tim.1.13	Gal.1.13	2
1Tim.1.13	Phil.3.6	2
1Tim.1.13	1Tim.1.16	2
1Tim.1.13	Heb.4.16	2
1Tim.1.13	Heb.6.4-Heb.6.8	2
1Tim.1.13	Heb.10.26-Heb.10.29	2
1Tim.1.13	1Pet.2.10	2
1Tim.1.13	2Pet.2.21-2Pet.2.22	2
1Tim.1.14	2Tim.1.13	4
1Tim.1.14	Exod.34.6	2
1Tim.1.14	Isa.55.6-Isa.55.7	2
1Tim.1.14	Luke.7.47-Luke.7.50	2
1Tim.1.14	Acts.15.11	2
1Tim.1.14	Rom.5.15-Rom.5.20	2
1Tim.1.14	Rom.16.20	2
1Tim.1.14	1Cor.15.10	2
1Tim.1.14	2Cor.8.9	2
1Tim.1.14	2Cor.13.14	2
1Tim.1.14	Eph.1.7-Eph.1.8	2
1Tim.1.14	1Thess.1.3	2
1Tim.1.14	1Thess.5.8	2
1Tim.1.14	1Pet.1.3	2
1Tim.1.14	1John.4.10	2
1Tim.1.14	Rev.22.21	2
1Tim.1.15	1Cor.15.9	5
1Tim.1.15	1Tim.3.1	5
1Tim.1.15	2Tim.2.11	5
1Tim.1.15	Titus.3.8	5
1Tim.1.15	Matt.1.21	4
1Tim.1.15	Matt.9.13	4
1Tim.1.15	Matt.20.28	4
1Tim.1.15	Mark.2.17	4
1Tim.1.15	John.3.16-John.3.17	4
1Tim.1.15	Eph.3.8	4
1Tim.1.15	1Tim.4.9	4
1Tim.1.15	Luke.5.32	3
1Tim.1.15	Luke.19.10	3
1Tim.1.15	John.1.12	3
1Tim.1.15	John.1.29	3
1Tim.1.15	John.12.47	3
1Tim.1.15	1Tim.1.13	3
1Tim.1.15	1John.4.9-1John.4.10	3
1Tim.1.15	Rev.22.6	3
1Tim.1.15	Job.42.6	2
1Tim.1.15	Ezek.16.63	2
1Tim.1.15	Ezek.36.31-Ezek.36.32	2
1Tim.1.15	Matt.18.10	2
1Tim.1.15	John.3.36	2
1Tim.1.15	Acts.3.26	2
1Tim.1.15	Acts.11.1	2
1Tim.1.15	Acts.11.18	2
1Tim.1.15	Rom.3.24-Rom.3.26	2
1Tim.1.15	Rom.5.6	2
1Tim.1.15	Rom.5.8-Rom.5.10	2
1Tim.1.15	1Tim.1.19	2
1Tim.1.15	Heb.7.25	2
1Tim.1.15	1John.3.5	2
1Tim.1.15	1John.3.8	2
1Tim.1.15	1John.5.11	2
1Tim.1.15	Rev.5.9	2
1Tim.1.15	Rev.21.5	2
1Tim.1.16	1Tim.1.13	4
1Tim.1.16	Eph.2.7	3
1Tim.1.16	Exod.34.8	2
1Tim.1.16	Num.23.3	2
1Tim.1.16	2Chr.33.9-2Chr.33.13	2
1Tim.1.16	2Chr.33.19	2
1Tim.1.16	Ps.25.11	2
1Tim.1.16	Isa.1.18	2
1Tim.1.16	Isa.43.25	2
1Tim.1.16	Isa.55.7	2
1Tim.1.16	Luke.7.47	2
1Tim.1.16	Luke.15.10	2
1Tim.1.16	Luke.18.13-Luke.18.14	2
1Tim.1.16	Luke.19.7-Luke.19.9	2
1Tim.1.16	Luke.23.43	2
1Tim.1.16	John.3.15-John.3.16	2
1Tim.1.16	John.3.36	2
1Tim.1.16	John.5.24	2
1Tim.1.16	John.6.37	2
1Tim.1.16	John.6.40	2
1Tim.1.16	John.6.54	2
1Tim.1.16	John.20.31	2
1Tim.1.16	Acts.13.39	2
1Tim.1.16	Rom.2.4-Rom.2.5	2
1Tim.1.16	Rom.5.20-Rom.5.21	2
1Tim.1.16	Rom.6.23	2
1Tim.1.16	Rom.15.4	2
1Tim.1.16	2Cor.4.1	2
1Tim.1.16	Eph.1.6	2
1Tim.1.16	Eph.1.12	2
1Tim.1.16	2Thess.1.10	2
1Tim.1.16	Heb.7.25	2
1Tim.1.16	1Pet.3.20	2
1Tim.1.16	2Pet.3.9	2
1Tim.1.16	2Pet.3.15	2
1Tim.1.16	1John.5.11-1John.5.12	2
1Tim.1.17	Col.1.15	5
1Tim.1.17	Matt.6.13	4
1Tim.1.17	1Tim.6.15-1Tim.6.16	4
1Tim.1.17	Jude.1.25	4
1Tim.1.17	1Chr.29.11	3
1Tim.1.17	Ps.10.16	3
1Tim.1.17	Ps.45.6	3
1Tim.1.17	Ps.90.2	3
1Tim.1.17	Dan.2.44	3
1Tim.1.17	Mic.5.2	3
1Tim.1.17	John.1.18	3
1Tim.1.17	Rom.1.23	3
1Tim.1.17	Heb.11.27	3
1Tim.1.17	2Pet.3.18	3
1Tim.1.17	1John.4.12	3
1Tim.1.17	Neh.9.5	2
1Tim.1.17	Ps.41.13	2
1Tim.1.17	Ps.45.1	2
1Tim.1.17	Ps.47.6-Ps.47.8	2
1Tim.1.17	Ps.57.11	2
1Tim.1.17	Ps.72.18-Ps.72.19	2
1Tim.1.17	Ps.106.48	2
1Tim.1.17	Ps.145.13	2
1Tim.1.17	Jer.10.10	2
1Tim.1.17	Dan.4.34	2
1Tim.1.17	Dan.4.37	2
1Tim.1.17	Dan.7.14	2
1Tim.1.17	Mal.1.14	2
1Tim.1.17	Matt.25.34	2
1Tim.1.17	Matt.28.20	2
1Tim.1.17	Rom.1.20	2
1Tim.1.17	Rom.2.7	2
1Tim.1.17	Rom.11.36	2
1Tim.1.17	Rom.16.27	2
1Tim.1.17	Eph.3.20-Eph.3.21	2
1Tim.1.17	Heb.1.8-Heb.1.13	2
1Tim.1.17	1Pet.5.11	2
1Tim.1.17	Rev.4.8-Rev.4.11	2
1Tim.1.17	Rev.5.9-Rev.5.14	2
1Tim.1.17	Rev.7.12	2
1Tim.1.17	Rev.15.3	2
1Tim.1.17	Rev.17.14	2
1Tim.1.17	Rev.19.1	2
1Tim.1.17	Rev.19.6	2
1Tim.1.17	Rev.19.16	2
1Tim.1.18	1Tim.4.14	5
1Tim.1.18	1Tim.1.2	3
1Tim.1.18	2Tim.4.7	3
1Tim.1.18	2Cor.10.3-2Cor.10.4	2
1Tim.1.18	Eph.6.12-Eph.6.18	2
1Tim.1.18	Phil.2.22	2
1Tim.1.18	1Tim.1.11-1Tim.1.12	2
1Tim.1.18	1Tim.4.4	2
1Tim.1.18	1Tim.6.12-1Tim.6.14	2
1Tim.1.18	1Tim.6.20	2
1Tim.1.18	2Tim.1.2	2
1Tim.1.18	2Tim.2.1-2Tim.2.5	2
1Tim.1.18	2Tim.4.1-2Tim.4.3	2
1Tim.1.18	Titus.1.4	2
1Tim.1.18	Phlm.1.10	2
1Tim.1.19	1Tim.1.5	3
1Tim.1.19	1Tim.3.9	3
1Tim.1.19	1Tim.6.9	3
1Tim.1.19	2Pet.2.1-2Pet.2.3	3
1Tim.1.19	Jude.1.10-Jude.1.13	3
1Tim.1.19	Rev.3.8	3
1Tim.1.19	Rev.3.10	3
1Tim.1.19	Matt.6.27	2
1Tim.1.19	1Cor.11.19	2
1Tim.1.19	Gal.1.6-Gal.1.8	2
1Tim.1.19	Gal.5.4	2
1Tim.1.19	Phil.3.18-Phil.3.19	2
1Tim.1.19	1Tim.4.1-1Tim.4.2	2
1Tim.1.19	1Tim.6.21	2
1Tim.1.19	2Tim.3.1-2Tim.3.6	2
1Tim.1.19	2Tim.4.4	2
1Tim.1.19	Titus.1.9	2
1Tim.1.19	Heb.3.14	2
1Tim.1.19	Heb.6.4-Heb.6.6	2
1Tim.1.19	1Pet.3.15-1Pet.3.16	2
1Tim.1.19	2Pet.2.12-2Pet.2.22	2
1Tim.1.19	1John.2.19	2
1Tim.1.19	Rev.3.3	1
1Tim.1.20	2Tim.2.17	5
1Tim.1.20	Acts.13.45	3
1Tim.1.20	1Cor.5.4-1Cor.5.5	3
1Tim.1.20	1Cor.11.32	3
1Tim.1.20	Acts.19.33	2
1Tim.1.20	2Cor.10.6	2
1Tim.1.20	2Cor.13.10	2
1Tim.1.20	2Thess.3.15	2
1Tim.1.20	2Tim.2.14	2
1Tim.1.20	2Tim.3.2	2
1Tim.1.20	2Tim.4.14-2Tim.4.15	2
1Tim.1.20	Rev.3.19	2
1Tim.1.20	Rev.13.1	2
1Tim.1.20	Rev.13.5-Rev.13.6	2
1Tim.1.20	Matt.18.17	1
1Tim.2.1	Rom.6.17	3
1Tim.2.1	Gen.18.23-Gen.18.32	2
1Tim.2.1	1Kgs.8.41-1Kgs.8.43	2
1Tim.2.1	Ps.67.1-Ps.67.4	2
1Tim.2.1	Ps.72.19	2
1Tim.2.1	Matt.6.9-Matt.6.10	2
1Tim.2.1	Acts.17.30	2
1Tim.2.1	Rom.1.8	2
1Tim.2.1	1Cor.15.3	2
1Tim.2.1	2Cor.8.6	2
1Tim.2.1	Eph.3.13	2
1Tim.2.1	Eph.5.20	2
1Tim.2.1	Phil.1.3	2
1Tim.2.1	1Thess.3.12	2
1Tim.2.1	2Thess.1.3	2
1Tim.2.1	1Tim.2.4	2
1Tim.2.1	1Tim.5.5	2
1Tim.2.1	2Tim.2.24	2
1Tim.2.1	Titus.2.11	2
1Tim.2.1	Titus.3.2	2
1Tim.2.1	Heb.6.11	2
1Tim.2.1	Jas.5.16	2
1Tim.2.2	Ezra.6.10	5
1Tim.2.2	Gen.49.14-Gen.49.15	2
1Tim.2.2	2Sam.20.19	2
1Tim.2.2	Neh.1.11	2
1Tim.2.2	Ps.20.1-Ps.20.4	2
1Tim.2.2	Ps.72.1	2
1Tim.2.2	Prov.24.21	2
1Tim.2.2	Eccl.3.12-Eccl.3.13	2
1Tim.2.2	Eccl.8.2-Eccl.8.5	2
1Tim.2.2	Jer.29.7	2
1Tim.2.2	Luke.1.6	2
1Tim.2.2	Luke.2.25	2
1Tim.2.2	Acts.10.22	2
1Tim.2.2	Acts.24.16	2
1Tim.2.2	Rom.12.18	2
1Tim.2.2	Rom.13.1-Rom.13.7	2
1Tim.2.2	Phil.4.8	2
1Tim.2.2	1Thess.4.11	2
1Tim.2.2	Titus.2.10-Titus.2.14	2
1Tim.2.2	Heb.12.14	2
1Tim.2.2	1Pet.2.9-1Pet.2.13	2
1Tim.2.2	2Pet.1.3-2Pet.1.7	2
1Tim.2.3	1Tim.1.1	4
1Tim.2.3	Luke.1.47	3
1Tim.2.3	1Tim.5.4	3
1Tim.2.3	Isa.45.21	2
1Tim.2.3	Rom.12.1-Rom.12.2	2
1Tim.2.3	Rom.14.18	2
1Tim.2.3	Eph.5.9-Eph.5.10	2
1Tim.2.3	Phil.1.11	2
1Tim.2.3	Phil.4.18	2
1Tim.2.3	Col.1.10	2
1Tim.2.3	1Thess.4.1	2
1Tim.2.3	2Tim.1.9	2
1Tim.2.3	Heb.13.16	2
1Tim.2.3	1Pet.2.5	2
1Tim.2.3	1Pet.2.20	2
1Tim.2.4	Ezek.18.23	6
1Tim.2.4	Ezek.18.32	5
1Tim.2.4	2Tim.2.25	5
1Tim.2.4	Titus.2.11	5
1Tim.2.4	2Pet.3.9	5
1Tim.2.4	2Tim.3.7	4
1Tim.2.4	Heb.10.26	4
1Tim.2.4	Isa.45.22	2
1Tim.2.4	Isa.49.6	2
1Tim.2.4	Isa.53.11	2
1Tim.2.4	Isa.55.1	2
1Tim.2.4	Ezek.33.11	2
1Tim.2.4	Hab.2.14	2
1Tim.2.4	Matt.28.19	2
1Tim.2.4	Mark.16.15	2
1Tim.2.4	Luke.1.77	2
1Tim.2.4	Luke.14.23	2
1Tim.2.4	Luke.24.47	2
1Tim.2.4	John.3.15-John.3.17	2
1Tim.2.4	John.6.37	2
1Tim.2.4	John.14.6	2
1Tim.2.4	John.17.17	2
1Tim.2.4	Rom.3.29-Rom.3.30	2
1Tim.2.4	Rom.10.12-Rom.10.15	2
1Tim.2.4	2Cor.5.17-2Cor.5.19	2
1Tim.2.4	1Thess.2.15-1Thess.2.16	2
1Tim.2.4	1Tim.4.10	2
1Tim.2.4	Titus.1.1	2
1Tim.2.4	Rev.14.6	2
1Tim.2.5	Gal.3.20	6
1Tim.2.5	1Cor.8.6	4
1Tim.2.5	Deut.6.4	3
1Tim.2.5	Isa.44.6	3
1Tim.2.5	Matt.1.23	3
1Tim.2.5	John.1.14	3
1Tim.2.5	Rom.3.29-Rom.3.30	3
1Tim.2.5	Rom.10.12	3
1Tim.2.5	Job.9.33	2
1Tim.2.5	Mark.12.29-Mark.12.33	2
1Tim.2.5	Luke.2.10-Luke.2.11	2
1Tim.2.5	John.17.3	2
1Tim.2.5	1Cor.8.4	2
1Tim.2.5	1Cor.15.45-1Cor.15.47	2
1Tim.2.5	Eph.4.6	2
1Tim.2.5	Phil.2.6-Phil.2.8	2
1Tim.2.5	Heb.2.6-Heb.2.13	2
1Tim.2.5	Heb.7.25	2
1Tim.2.5	Heb.8.6	2
1Tim.2.5	Heb.9.15	2
1Tim.2.5	Heb.12.24	2
1Tim.2.5	Rev.1.13	2
1Tim.2.6	Matt.20.28	5
1Tim.2.6	1Cor.1.6	5
1Tim.2.6	1Tim.6.15	5
1Tim.2.6	Gal.4.4	4
1Tim.2.6	Titus.1.3	4
1Tim.2.6	Job.33.24	2
1Tim.2.6	Isa.53.6	2
1Tim.2.6	Mark.10.45	2
1Tim.2.6	John.6.51	2
1Tim.2.6	John.10.15	2
1Tim.2.6	Rom.5.6	2
1Tim.2.6	Rom.16.26	2
1Tim.2.6	2Cor.5.14-2Cor.5.15	2
1Tim.2.6	2Cor.5.21	2
1Tim.2.6	Eph.1.7	2
1Tim.2.6	Eph.1.9-Eph.1.10	2
1Tim.2.6	Eph.1.17	2
1Tim.2.6	Eph.3.5	2
1Tim.2.6	Eph.5.2	2
1Tim.2.6	2Thess.1.10	2
1Tim.2.6	2Tim.1.8	2
1Tim.2.6	Titus.2.14	2
1Tim.2.6	Heb.9.12	2
1Tim.2.6	1Pet.1.18-1Pet.1.19	2
1Tim.2.6	1Pet.2.24	2
1Tim.2.6	1Pet.3.18	2
1Tim.2.6	1John.2.1-1John.2.2	2
1Tim.2.6	1John.4.10	2
1Tim.2.6	1John.5.11-1John.5.12	2
1Tim.2.6	Rev.1.5	2
1Tim.2.6	Rev.5.9	2
1Tim.2.7	Acts.9.15	5
1Tim.2.7	2Tim.1.11	5
1Tim.2.7	Rom.9.1	4
1Tim.2.7	Eph.3.7-Eph.3.8	4
1Tim.2.7	Ps.111.7	2
1Tim.2.7	Eccl.1.1-Eccl.1.2	2
1Tim.2.7	Eccl.1.12	2
1Tim.2.7	Eccl.7.27	2
1Tim.2.7	Eccl.12.8-Eccl.12.10	2
1Tim.2.7	John.7.35	2
1Tim.2.7	Acts.14.27	2
1Tim.2.7	Acts.22.21	2
1Tim.2.7	Acts.26.17-Acts.26.18	2
1Tim.2.7	Acts.26.20	2
1Tim.2.7	Rom.1.9	2
1Tim.2.7	Rom.10.14	2
1Tim.2.7	Rom.11.13	2
1Tim.2.7	Rom.15.16	2
1Tim.2.7	2Cor.11.31	2
1Tim.2.7	Gal.1.16	2
1Tim.2.7	Gal.1.20	2
1Tim.2.7	Gal.2.9	2
1Tim.2.7	Gal.2.16	2
1Tim.2.7	Gal.3.9	2
1Tim.2.7	1Tim.1.11-1Tim.1.12	2
1Tim.2.7	2Pet.2.5	2
1Tim.2.8	Ps.134.2	4
1Tim.2.8	John.4.21	4
1Tim.2.8	Ps.63.4	3
1Tim.2.8	Isa.1.15	3
1Tim.2.8	1Tim.5.14	3
1Tim.2.8	Titus.3.8	3
1Tim.2.8	Jas.4.8	3
1Tim.2.8	1Kgs.3.11	2
1Tim.2.8	2Chr.33.11-2Chr.33.12	2
1Tim.2.8	Job.16.17	2
1Tim.2.8	Ps.24.4	2
1Tim.2.8	Ps.26.6	2
1Tim.2.8	Ps.35.13	2
1Tim.2.8	Ps.66.18	2
1Tim.2.8	Ps.130.1-Ps.130.2	2
1Tim.2.8	Prov.15.8	2
1Tim.2.8	Prov.21.27	2
1Tim.2.8	Isa.58.7-Isa.58.11	2
1Tim.2.8	Jer.7.9-Jer.7.10	2
1Tim.2.8	Lam.3.55-Lam.3.56	2
1Tim.2.8	Jonah.2.1-Jonah.2.2	2
1Tim.2.8	Mal.1.9-Mal.1.11	2
1Tim.2.8	Matt.5.22-Matt.5.24	2
1Tim.2.8	Matt.5.44	2
1Tim.2.8	Matt.6.12	2
1Tim.2.8	Matt.6.14-Matt.6.15	2
1Tim.2.8	Matt.21.21	2
1Tim.2.8	Mark.11.23-Mark.11.25	2
1Tim.2.8	Luke.23.34	2
1Tim.2.8	Luke.23.42-Luke.23.43	2
1Tim.2.8	Luke.24.50	2
1Tim.2.8	John.4.23-John.4.24	2
1Tim.2.8	Acts.7.60	2
1Tim.2.8	Acts.10.2	2
1Tim.2.8	Acts.10.4	2
1Tim.2.8	Acts.10.31	2
1Tim.2.8	Acts.21.5	2
1Tim.2.8	1Cor.7.7	2
1Tim.2.8	Heb.10.22	2
1Tim.2.8	Jas.1.6-Jas.1.8	2
1Tim.2.8	1Pet.3.7	2
1Tim.2.8	1John.3.20-1John.3.22	2
1Tim.2.9	1Pet.3.3-1Pet.3.5	3
1Tim.2.9	Gen.24.53	2
1Tim.2.9	Exod.35.22-Exod.35.23	2
1Tim.2.9	2Kgs.9.30	2
1Tim.2.9	Esth.5.1	2
1Tim.2.9	Ps.149.4	2
1Tim.2.9	Prov.7.10	2
1Tim.2.9	Prov.31.22	2
1Tim.2.9	Isa.3.16	2
1Tim.2.9	Isa.3.18-Isa.3.24	2
1Tim.2.9	Isa.61.4	2
1Tim.2.9	Jer.2.32	2
1Tim.2.9	Jer.4.30	2
1Tim.2.9	Ezek.16.9-Ezek.16.16	2
1Tim.2.9	Matt.6.28-Matt.6.29	2
1Tim.2.9	Matt.11.8	2
1Tim.2.9	Titus.2.3-Titus.2.5	2
1Tim.2.9	Ps.45.13-Ps.45.14	1
1Tim.2.10	Acts.9.36	3
1Tim.2.10	Prov.31.31	2
1Tim.2.10	Acts.9.39	2
1Tim.2.10	Eph.2.10	2
1Tim.2.10	1Tim.5.6-1Tim.5.10	2
1Tim.2.10	Titus.2.14	2
1Tim.2.10	Titus.3.8	2
1Tim.2.10	1Pet.2.12	2
1Tim.2.10	1Pet.3.3-1Pet.3.5	2
1Tim.2.10	2Pet.1.6-2Pet.1.8	2
1Tim.2.10	2Pet.3.11	2
1Tim.2.10	Rev.2.19	2
1Tim.2.11	1Cor.14.34-1Cor.14.35	4
1Tim.2.11	Gen.3.16	2
1Tim.2.11	Esth.1.20	2
1Tim.2.11	1Cor.11.3	2
1Tim.2.11	Eph.5.22-Eph.5.24	2
1Tim.2.11	Col.3.18	2
1Tim.2.11	Titus.2.5	2
1Tim.2.11	1Pet.3.1	2
1Tim.2.11	1Pet.3.5-1Pet.3.6	2
1Tim.2.12	1Cor.14.34	6
1Tim.2.13	Gen.2.22	5
1Tim.2.13	Gen.2.7	4
1Tim.2.13	Gen.2.18	4
1Tim.2.13	1Cor.11.8-1Cor.11.9	4
1Tim.2.13	Gen.1.27	3
1Tim.2.14	Gen.3.6	6
1Tim.2.14	2Cor.11.3	5
1Tim.2.14	Gen.3.12-Gen.3.13	3
1Tim.2.15	Gen.3.15-Gen.3.16	2
1Tim.2.15	Isa.7.14	2
1Tim.2.15	Isa.9.6	2
1Tim.2.15	Jer.31.22	2
1Tim.2.15	Matt.1.21-Matt.1.25	2
1Tim.2.15	Luke.2.7	2
1Tim.2.15	Luke.2.10-Luke.2.11	2
1Tim.2.15	Gal.4.4-Gal.4.5	2
1Tim.2.15	1Tim.1.5	2
1Tim.2.15	1Tim.1.14	2
1Tim.2.15	1Tim.2.9	2
1Tim.2.15	Titus.2.12	2
1Tim.2.15	1Pet.4.7	2
1Tim.3.1	Acts.20.28	7
1Tim.3.1	1Tim.1.15	5
1Tim.3.1	Phil.1.1	4
1Tim.3.1	1Pet.5.2	4
1Tim.3.1	Acts.1.20	3
1Tim.3.1	Titus.1.7	3
1Tim.3.1	1Pet.2.25	3
1Tim.3.1	Prov.11.30	2
1Tim.3.1	Luke.15.10	2
1Tim.3.1	Rom.11.13	2
1Tim.3.1	Eph.4.12	2
1Tim.3.1	1Thess.5.14	2
1Tim.3.1	1Tim.3.2-1Tim.3.7	2
1Tim.3.1	1Tim.4.9	2
1Tim.3.1	2Tim.2.11	2
1Tim.3.1	Titus.3.8	2
1Tim.3.1	Heb.12.15	2
1Tim.3.1	Jas.5.19-Jas.5.20	2
1Tim.3.1	1Pet.4.15	2
1Tim.3.2	1Tim.5.9	5
1Tim.3.2	2Tim.2.24	5
1Tim.3.2	Rom.12.13	4
1Tim.3.2	1Pet.4.9	4
1Tim.3.2	Titus.1.6-Titus.1.9	3
1Tim.3.2	Heb.13.2	3
1Tim.3.2	Isa.56.10	2
1Tim.3.2	Luke.1.6	2
1Tim.3.2	Phil.2.15	2
1Tim.3.2	1Tim.3.10-1Tim.3.11	2
1Tim.3.2	1Tim.4.3	2
1Tim.3.2	Titus.2.2	2
1Tim.3.2	Heb.3.14	2
1Tim.3.2	1Pet.4.7	2
1Tim.3.2	1Pet.5.8	2
1Tim.3.3	Titus.1.7	9
1Tim.3.3	1Tim.3.8	5
1Tim.3.3	Isa.28.7	4
1Tim.3.3	Titus.3.2	4
1Tim.3.3	Jas.4.1	4
1Tim.3.3	Lev.10.9	3
1Tim.3.3	Luke.12.42-Luke.12.46	3
1Tim.3.3	Eph.5.18	3
1Tim.3.3	Heb.13.5	3
1Tim.3.3	1Pet.5.2	3
1Tim.3.3	1Sam.2.15-1Sam.2.17	2
1Tim.3.3	1Sam.8.3	2
1Tim.3.3	2Kgs.5.20-2Kgs.5.27	2
1Tim.3.3	Prov.1.19	2
1Tim.3.3	Prov.15.27	2
1Tim.3.3	Eccl.7.8	2
1Tim.3.3	Isa.5.11-Isa.5.12	2
1Tim.3.3	Isa.28.1	2
1Tim.3.3	Isa.56.11-Isa.56.12	2
1Tim.3.3	Jer.6.13	2
1Tim.3.3	Jer.8.10	2
1Tim.3.3	Ezek.44.21	2
1Tim.3.3	Mic.2.11	2
1Tim.3.3	Mic.3.5	2
1Tim.3.3	Mic.3.11	2
1Tim.3.3	Mal.1.10	2
1Tim.3.3	Matt.21.13	2
1Tim.3.3	Matt.24.45-Matt.24.51	2
1Tim.3.3	Luke.21.34-Luke.21.36	2
1Tim.3.3	John.10.12-John.10.13	2
1Tim.3.3	John.12.5-John.12.6	2
1Tim.3.3	Acts.8.18-Acts.8.21	2
1Tim.3.3	Acts.20.33	2
1Tim.3.3	Rom.16.18	2
1Tim.3.3	1Thess.5.14	2
1Tim.3.3	1Tim.6.10-1Tim.6.11	2
1Tim.3.3	2Tim.2.24-2Tim.2.25	2
1Tim.3.3	Titus.1.11	2
1Tim.3.3	Titus.2.3	2
1Tim.3.3	2Pet.2.3	2
1Tim.3.3	2Pet.2.14-2Pet.2.15	2
1Tim.3.3	Jude.1.11	2
1Tim.3.3	Rev.1.9	2
1Tim.3.3	Rev.18.11-Rev.18.13	2
1Tim.3.4	1Tim.3.12	4
1Tim.3.4	Titus.1.6	4
1Tim.3.4	Gen.18.19	3
1Tim.3.4	Josh.24.15	2
1Tim.3.4	Ps.101.2-Ps.101.8	2
1Tim.3.4	Acts.10.2	2
1Tim.3.4	Phil.4.8	2
1Tim.3.4	Titus.2.2	2
1Tim.3.4	Titus.2.7	2
1Tim.3.5	1Tim.3.15	3
1Tim.3.5	1Sam.2.29-1Sam.2.30	2
1Tim.3.5	1Sam.3.13	2
1Tim.3.5	Acts.20.28	2
1Tim.3.5	1Cor.10.32	2
1Tim.3.5	Eph.1.22	2
1Tim.3.5	Eph.5.24	2
1Tim.3.5	Eph.5.32	2
1Tim.3.6	1Tim.6.4	3
1Tim.3.6	Deut.8.14	2
1Tim.3.6	Deut.17.20	2
1Tim.3.6	2Kgs.14.10	2
1Tim.3.6	2Chr.26.16	2
1Tim.3.6	2Chr.32.25	2
1Tim.3.6	Prov.16.18-Prov.16.19	2
1Tim.3.6	Prov.18.12	2
1Tim.3.6	Prov.29.23	2
1Tim.3.6	Isa.2.12	2
1Tim.3.6	Isa.14.12-Isa.14.14	2
1Tim.3.6	Luke.10.18	2
1Tim.3.6	1Cor.3.1	2
1Tim.3.6	1Cor.4.6-1Cor.4.8	2
1Tim.3.6	1Cor.8.1	2
1Tim.3.6	2Cor.12.7	2
1Tim.3.6	2Tim.3.4	2
1Tim.3.6	Heb.5.12-Heb.5.13	2
1Tim.3.6	1Pet.2.2	2
1Tim.3.6	1Pet.5.5	2
1Tim.3.6	2Pet.2.4	2
1Tim.3.6	Jude.1.6	2
1Tim.3.7	2Tim.2.26	5
1Tim.3.7	1Tim.6.9	4
1Tim.3.7	2Cor.8.21	3
1Tim.3.7	1Sam.2.24	2
1Tim.3.7	Mark.4.11	2
1Tim.3.7	Acts.6.3	2
1Tim.3.7	Acts.10.22	2
1Tim.3.7	Acts.22.12	2
1Tim.3.7	1Cor.5.12	2
1Tim.3.7	1Cor.10.32	2
1Tim.3.7	2Cor.6.3	2
1Tim.3.7	Col.4.5	2
1Tim.3.7	1Thess.4.12	2
1Tim.3.7	1Thess.5.22	2
1Tim.3.7	1Tim.5.14	2
1Tim.3.7	1Tim.5.24-1Tim.5.25	2
1Tim.3.7	Titus.2.5	2
1Tim.3.7	Titus.2.8	2
1Tim.3.7	1Pet.4.14-1Pet.4.16	2
1Tim.3.7	3John.1.12	2
1Tim.3.8	Phil.1.1	7
1Tim.3.8	Titus.2.3	4
1Tim.3.8	Lev.10.9	3
1Tim.3.8	Acts.6.3-Acts.6.6	3
1Tim.3.8	1Tim.3.3	3
1Tim.3.8	1Tim.5.23	3
1Tim.3.8	Ps.5.9	2
1Tim.3.8	Ps.12.2	2
1Tim.3.8	Ps.50.19	2
1Tim.3.8	Ps.52.2	2
1Tim.3.8	Ezek.44.21	2
1Tim.3.8	Rom.3.13	2
1Tim.3.8	1Tim.3.12	2
1Tim.3.8	Titus.1.7	2
1Tim.3.8	Jas.3.10	2
1Tim.3.8	1Pet.5.2	2
1Tim.3.9	1Tim.1.19	5
1Tim.3.9	1Tim.1.5	3
1Tim.3.9	1Tim.3.16	2
1Tim.3.9	2John.1.9-2John.1.10	2
1Tim.3.10	1Tim.5.22	4
1Tim.3.10	Acts.6.1-Acts.6.2	2
1Tim.3.10	1Cor.1.8	2
1Tim.3.10	Col.1.22	2
1Tim.3.10	1Tim.3.2	2
1Tim.3.10	1Tim.3.6	2
1Tim.3.10	1Tim.3.13	2
1Tim.3.10	Titus.1.6-Titus.1.7	2
1Tim.3.10	1John.4.1	2
1Tim.3.11	Titus.2.3	7
1Tim.3.11	1Tim.3.2	3
1Tim.3.11	2Tim.3.3	3
1Tim.3.11	Lev.21.7	2
1Tim.3.11	Lev.21.13-Lev.21.15	2
1Tim.3.11	Ps.15.3	2
1Tim.3.11	Ps.50.20	2
1Tim.3.11	Ps.101.5	2
1Tim.3.11	Prov.10.18	2
1Tim.3.11	Prov.25.13	2
1Tim.3.11	Jer.9.4	2
1Tim.3.11	Ezek.44.22	2
1Tim.3.11	Matt.4.1	2
1Tim.3.11	Luke.1.5-Luke.1.6	2
1Tim.3.11	John.6.70	2
1Tim.3.11	1Thess.5.6-1Thess.5.8	2
1Tim.3.11	1Tim.1.12	2
1Tim.3.11	1Tim.6.2	2
1Tim.3.11	2Tim.4.5	2
1Tim.3.11	Titus.3.2	2
1Tim.3.11	1Pet.5.8	2
1Tim.3.11	Rev.12.9-Rev.12.10	2
1Tim.3.12	1Tim.3.2	5
1Tim.3.12	Phil.1.1	2
1Tim.3.12	1Tim.3.4-1Tim.3.5	2
1Tim.3.12	1Tim.3.8	2
1Tim.3.13	Matt.25.21	4
1Tim.3.13	Matt.20.28	2
1Tim.3.13	Luke.16.10-Luke.16.12	2
1Tim.3.13	Luke.19.17	2
1Tim.3.13	Acts.6.5	2
1Tim.3.13	Acts.6.8	2
1Tim.3.13	Acts.6.15-Acts.7.53	2
1Tim.3.13	Acts.21.35	2
1Tim.3.13	Rom.12.7-Rom.12.8	2
1Tim.3.13	1Cor.16.15	2
1Tim.3.13	Phil.1.14	2
1Tim.3.13	1Thess.2.2	2
1Tim.3.13	2Tim.2.1	2
1Tim.3.13	Heb.6.10	2
1Tim.3.13	1Pet.4.10-1Pet.4.11	2
1Tim.3.14	1Cor.11.34	2
1Tim.3.14	1Cor.16.5-1Cor.16.7	2
1Tim.3.14	2Cor.1.15-2Cor.1.17	2
1Tim.3.14	1Thess.2.18	2
1Tim.3.14	1Tim.4.13	2
1Tim.3.14	Phlm.1.22	2
1Tim.3.14	Heb.13.23	2
1Tim.3.14	2John.1.12	2
1Tim.3.14	3John.1.14	2
1Tim.3.15	Matt.16.16	3
1Tim.3.15	Matt.18.18	3
1Tim.3.15	2Cor.6.16	3
1Tim.3.15	Gal.2.9	3
1Tim.3.15	1Tim.4.10	3
1Tim.3.15	1Pet.2.5	3
1Tim.3.15	Deut.5.26	2
1Tim.3.15	Deut.31.23	2
1Tim.3.15	Josh.3.10	2
1Tim.3.15	1Sam.17.26	2
1Tim.3.15	1Sam.17.36	2
1Tim.3.15	1Kgs.2.2	2
1Tim.3.15	1Kgs.2.4	2
1Tim.3.15	2Kgs.19.4	2
1Tim.3.15	1Chr.22.13	2
1Tim.3.15	1Chr.28.9-1Chr.28.21	2
1Tim.3.15	Ps.42.2	2
1Tim.3.15	Ps.84.2	2
1Tim.3.15	Jer.1.18	2
1Tim.3.15	Jer.10.10	2
1Tim.3.15	Jer.23.36	2
1Tim.3.15	Dan.6.26	2
1Tim.3.15	Hos.1.10	2
1Tim.3.15	Matt.16.18-Matt.16.19	2
1Tim.3.15	John.1.17	2
1Tim.3.15	John.6.69	2
1Tim.3.15	John.14.6	2
1Tim.3.15	John.18.37	2
1Tim.3.15	Acts.1.2	2
1Tim.3.15	Acts.14.15	2
1Tim.3.15	Rom.3.2	2
1Tim.3.15	Rom.9.26	2
1Tim.3.15	2Cor.3.3	2
1Tim.3.15	2Cor.6.7	2
1Tim.3.15	Gal.3.1	2
1Tim.3.15	Eph.2.21-Eph.2.22	2
1Tim.3.15	Eph.4.21	2
1Tim.3.15	Col.1.5	2
1Tim.3.15	1Thess.1.9	2
1Tim.3.15	1Tim.3.2	2
1Tim.3.15	1Tim.3.5	2
1Tim.3.15	1Tim.3.16	2
1Tim.3.15	1Tim.6.16	2
1Tim.3.15	2Tim.2.20	2
1Tim.3.15	Heb.3.2-Heb.3.6	2
1Tim.3.15	Heb.3.12	2
1Tim.3.15	Heb.9.14	2
1Tim.3.15	Heb.12.22	2
1Tim.3.15	Rev.7.2	2
1Tim.3.16	John.1.14	7
1Tim.3.16	Heb.1.3	6
1Tim.3.16	Mark.16.19	5
1Tim.3.16	Luke.24.4	5
1Tim.3.16	Rom.16.25	5
1Tim.3.16	Col.1.23	5
1Tim.3.16	Isa.9.6	3
1Tim.3.16	Matt.1.23	3
1Tim.3.16	Matt.3.16	3
1Tim.3.16	Luke.22.43	3
1Tim.3.16	Acts.20.28	3
1Tim.3.16	1Pet.1.12	3
1Tim.3.16	1John.3.5	3
1Tim.3.16	Ps.68.17-Ps.68.18	2
1Tim.3.16	Isa.7.14	2
1Tim.3.16	Isa.50.5-Isa.50.7	2
1Tim.3.16	Jer.23.5-Jer.23.6	2
1Tim.3.16	Mic.5.2	2
1Tim.3.16	Matt.4.11	2
1Tim.3.16	Matt.13.11	2
1Tim.3.16	Matt.28.2	2
1Tim.3.16	Mark.1.13	2
1Tim.3.16	Mark.16.5	2
1Tim.3.16	Luke.2.10-Luke.2.14	2
1Tim.3.16	Luke.2.32	2
1Tim.3.16	Luke.24.51	2
1Tim.3.16	John.1.1-John.1.2	2
1Tim.3.16	John.1.32-John.1.33	2
1Tim.3.16	John.6.62	2
1Tim.3.16	John.13.3	2
1Tim.3.16	John.15.26	2
1Tim.3.16	John.16.8-John.16.9	2
1Tim.3.16	John.16.28	2
1Tim.3.16	John.17.5	2
1Tim.3.16	John.20.12	2
1Tim.3.16	Acts.1.1-Acts.1.11	2
1Tim.3.16	Acts.1.19	2
1Tim.3.16	Acts.2.32-Acts.2.36	2
1Tim.3.16	Acts.10.34	2
1Tim.3.16	Acts.13.46-Acts.13.48	2
1Tim.3.16	Acts.14.27	2
1Tim.3.16	Rom.8.3	2
1Tim.3.16	Rom.9.5	2
1Tim.3.16	Rom.10.12	2
1Tim.3.16	Rom.10.18	2
1Tim.3.16	1Cor.2.7	2
1Tim.3.16	1Cor.15.47	2
1Tim.3.16	Gal.2.8	2
1Tim.3.16	Gal.4.4	2
1Tim.3.16	Eph.1.9	2
1Tim.3.16	Eph.3.3-Eph.3.10	2
1Tim.3.16	Eph.4.8-Eph.4.10	2
1Tim.3.16	Eph.6.19	2
1Tim.3.16	Phil.2.6-Phil.2.8	2
1Tim.3.16	Col.1.6	2
1Tim.3.16	Col.1.16-Col.1.18	2
1Tim.3.16	Col.1.27	2
1Tim.3.16	Col.2.2	2
1Tim.3.16	2Thess.1.10	2
1Tim.3.16	2Thess.2.7	2
1Tim.3.16	1Tim.3.9	2
1Tim.3.16	Heb.2.9-Heb.2.13	2
1Tim.3.16	Heb.7.7	2
1Tim.3.16	Heb.8.1	2
1Tim.3.16	Heb.12.2	2
1Tim.3.16	1Pet.1.20	2
1Tim.3.16	1Pet.3.18	2
1Tim.3.16	1Pet.3.22	2
1Tim.3.16	1John.1.2	2
1Tim.3.16	1John.5.6-1John.5.8	2
1Tim.3.16	Rev.1.17-Rev.1.18	2
1Tim.3.16	Rev.7.9	2
1Tim.3.16	Rev.17.5	2
1Tim.3.16	Rev.17.7	2
1Tim.3.16	Rom.1.3-Rom.1.4	1
1Tim.4.1	2Pet.3.3	4
1Tim.4.1	Jude.1.18	4
1Tim.4.1	Ezek.38.16	3
1Tim.4.1	John.16.13	3
1Tim.4.1	Rev.20.8	3
1Tim.4.1	Gen.3.3-Gen.3.5	2
1Tim.4.1	Gen.3.13	2
1Tim.4.1	Num.24.14	2
1Tim.4.1	Deut.4.30	2
1Tim.4.1	Deut.32.29	2
1Tim.4.1	1Kgs.22.22-1Kgs.22.23	2
1Tim.4.1	2Chr.18.19-2Chr.18.22	2
1Tim.4.1	Isa.2.2	2
1Tim.4.1	Jer.48.47	2
1Tim.4.1	Jer.49.39	2
1Tim.4.1	Ezek.1.3	2
1Tim.4.1	Dan.10.14	2
1Tim.4.1	Dan.11.35-Dan.11.38	2
1Tim.4.1	Hos.3.5	2
1Tim.4.1	Mic.4.1	2
1Tim.4.1	Matt.24.5-Matt.24.12	2
1Tim.4.1	Acts.13.2	2
1Tim.4.1	Acts.17.18	2
1Tim.4.1	Acts.28.25	2
1Tim.4.1	1Cor.8.5-1Cor.8.6	2
1Tim.4.1	1Cor.10.20	2
1Tim.4.1	1Cor.12.11	2
1Tim.4.1	2Cor.11.3	2
1Tim.4.1	2Cor.11.13-2Cor.11.15	2
1Tim.4.1	Col.2.18	2
1Tim.4.1	2Thess.2.3-2Thess.2.12	2
1Tim.4.1	2Tim.3.1-2Tim.3.9	2
1Tim.4.1	2Tim.3.13	2
1Tim.4.1	2Tim.4.4	2
1Tim.4.1	1Pet.1.20	2
1Tim.4.1	2Pet.2.1	2
1Tim.4.1	1John.2.18	2
1Tim.4.1	1John.4.6	2
1Tim.4.1	Jude.1.4	2
1Tim.4.1	Rev.9.2-Rev.9.11	2
1Tim.4.1	Rev.9.20	2
1Tim.4.1	Rev.13.14	2
1Tim.4.1	Rev.16.14	2
1Tim.4.1	Rev.18.2	2
1Tim.4.1	Rev.18.23	2
1Tim.4.1	Rev.19.20	2
1Tim.4.1	Rev.20.2-Rev.20.3	2
1Tim.4.1	Rev.20.10	2
1Tim.4.1	Rev.2.7	1
1Tim.4.1	Rev.2.11	1
1Tim.4.1	Rev.2.17	1
1Tim.4.1	Rev.2.29	1
1Tim.4.1	Rev.3.6	1
1Tim.4.1	Rev.3.13	1
1Tim.4.1	Rev.3.22	1
1Tim.4.2	Eph.4.19	4
1Tim.4.2	1Kgs.13.18	2
1Tim.4.2	1Kgs.22.22	2
1Tim.4.2	Isa.9.15	2
1Tim.4.2	Jer.5.21	2
1Tim.4.2	Jer.23.14	2
1Tim.4.2	Jer.23.32	2
1Tim.4.2	Dan.8.23-Dan.8.25	2
1Tim.4.2	Matt.7.15	2
1Tim.4.2	Matt.24.24	2
1Tim.4.2	Acts.20.30	2
1Tim.4.2	Rom.1.28	2
1Tim.4.2	Rom.16.18	2
1Tim.4.2	Eph.4.14	2
1Tim.4.2	2Tim.3.5	2
1Tim.4.2	2Pet.2.1-2Pet.2.3	2
1Tim.4.2	Rev.16.14	2
1Tim.4.3	Rom.14.6	6
1Tim.4.3	Gen.9.3	5
1Tim.4.3	Heb.13.4	5
1Tim.4.3	Col.2.16	4
1Tim.4.3	Dan.11.37	3
1Tim.4.3	1Cor.7.28	3
1Tim.4.3	1Cor.7.36-1Cor.7.39	3
1Tim.4.3	1Cor.8.8	3
1Tim.4.3	Col.3.17	3
1Tim.4.3	1Tim.4.4	3
1Tim.4.3	Gen.1.29-Gen.1.30	2
1Tim.4.3	1Sam.9.13	2
1Tim.4.3	Eccl.5.18	2
1Tim.4.3	Matt.14.19	2
1Tim.4.3	Matt.15.36	2
1Tim.4.3	Luke.24.30	2
1Tim.4.3	John.6.23	2
1Tim.4.3	John.8.31-John.8.32	2
1Tim.4.3	Acts.10.13-Acts.10.15	2
1Tim.4.3	Acts.27.35	2
1Tim.4.3	Rom.14.3	2
1Tim.4.3	Rom.14.17	2
1Tim.4.3	1Cor.6.13	2
1Tim.4.3	1Cor.10.30-1Cor.10.31	2
1Tim.4.3	Col.2.20-Col.2.23	2
1Tim.4.3	2Thess.2.13-2Thess.2.14	2
1Tim.4.3	1Tim.2.4	2
1Tim.4.3	Heb.13.9	2
1Tim.4.4	Gen.1.31	3
1Tim.4.4	Rom.14.14	3
1Tim.4.4	Deut.32.4	2
1Tim.4.4	Acts.11.7-Acts.11.9	2
1Tim.4.4	Acts.15.20-Acts.15.21	2
1Tim.4.4	Acts.15.29	2
1Tim.4.4	Acts.21.25	2
1Tim.4.4	Rom.14.20	2
1Tim.4.4	1Cor.10.23	2
1Tim.4.4	1Cor.10.25	2
1Tim.4.4	1Tim.4.3	2
1Tim.4.5	Gen.1.25	2
1Tim.4.5	Gen.1.31	2
1Tim.4.5	Luke.4.4	2
1Tim.4.5	Luke.11.41	2
1Tim.4.5	1Cor.7.14	2
1Tim.4.5	1Tim.4.3	2
1Tim.4.5	Titus.1.15	2
1Tim.4.6	1Tim.1.10	3
1Tim.4.6	Ps.19.7	2
1Tim.4.6	Prov.4.2	2
1Tim.4.6	Jer.15.16	2
1Tim.4.6	Matt.13.52	2
1Tim.4.6	John.7.16-John.7.17	2
1Tim.4.6	Acts.20.31	2
1Tim.4.6	Acts.20.35	2
1Tim.4.6	Rom.15.15	2
1Tim.4.6	1Cor.4.1-1Cor.4.2	2
1Tim.4.6	1Cor.4.17	2
1Tim.4.6	2Cor.3.6	2
1Tim.4.6	2Cor.6.4	2
1Tim.4.6	Eph.4.15-Eph.4.16	2
1Tim.4.6	Eph.6.21	2
1Tim.4.6	Phil.3.16	2
1Tim.4.6	Col.2.19	2
1Tim.4.6	Col.3.16	2
1Tim.4.6	Col.4.7	2
1Tim.4.6	1Thess.3.2	2
1Tim.4.6	1Tim.4.16	2
1Tim.4.6	1Tim.6.3	2
1Tim.4.6	2Tim.1.6	2
1Tim.4.6	2Tim.2.14-2Tim.2.15	2
1Tim.4.6	2Tim.3.10	2
1Tim.4.6	2Tim.3.14-2Tim.3.17	2
1Tim.4.6	2Tim.4.3	2
1Tim.4.6	Titus.2.1	2
1Tim.4.6	Titus.2.7-Titus.2.10	2
1Tim.4.6	1Pet.2.2	2
1Tim.4.6	2Pet.1.12-2Pet.1.15	2
1Tim.4.6	2Pet.3.1-2Pet.3.2	2
1Tim.4.6	2John.1.9	2
1Tim.4.6	Jude.1.5	2
1Tim.4.7	1Tim.1.4	6
1Tim.4.7	2Tim.2.16	3
1Tim.4.7	Heb.5.14	3
1Tim.4.7	Acts.24.16	2
1Tim.4.7	1Tim.2.10	2
1Tim.4.7	1Tim.3.16	2
1Tim.4.7	1Tim.6.11	2
1Tim.4.7	1Tim.6.20	2
1Tim.4.7	2Tim.2.23	2
1Tim.4.7	2Tim.3.12	2
1Tim.4.7	2Tim.4.4	2
1Tim.4.7	Titus.1.14	2
1Tim.4.7	Titus.2.12	2
1Tim.4.7	Titus.3.9	2
1Tim.4.7	2Pet.1.5-2Pet.1.8	2
1Tim.4.8	Matt.6.33	5
1Tim.4.8	1Tim.6.6	4
1Tim.4.8	Ps.37.9	3
1Tim.4.8	Ps.37.11	3
1Tim.4.8	Ps.84.11	3
1Tim.4.8	Ps.145.19	3
1Tim.4.8	Mark.10.30	3
1Tim.4.8	Deut.28.1-Deut.28.14	2
1Tim.4.8	1Sam.15.22	2
1Tim.4.8	Job.5.19-Job.5.26	2
1Tim.4.8	Job.22.2	2
1Tim.4.8	Ps.37.3-Ps.37.4	2
1Tim.4.8	Ps.37.16-Ps.37.19	2
1Tim.4.8	Ps.37.29	2
1Tim.4.8	Ps.50.7-Ps.50.15	2
1Tim.4.8	Ps.91.10-Ps.91.16	2
1Tim.4.8	Ps.112.1-Ps.112.3	2
1Tim.4.8	Ps.128.1-Ps.128.6	2
1Tim.4.8	Prov.3.16-Prov.3.18	2
1Tim.4.8	Prov.19.23	2
1Tim.4.8	Prov.22.4	2
1Tim.4.8	Eccl.8.12	2
1Tim.4.8	Isa.1.11-Isa.1.16	2
1Tim.4.8	Isa.3.10	2
1Tim.4.8	Isa.32.17-Isa.32.18	2
1Tim.4.8	Isa.33.16	2
1Tim.4.8	Isa.58.3-Isa.58.5	2
1Tim.4.8	Isa.65.13-Isa.65.14	2
1Tim.4.8	Jer.6.20	2
1Tim.4.8	Amos.5.21-Amos.5.24	2
1Tim.4.8	Matt.5.3-Matt.5.12	2
1Tim.4.8	Matt.19.29	2
1Tim.4.8	Mark.10.19-Mark.10.20	2
1Tim.4.8	Luke.12.31-Luke.12.32	2
1Tim.4.8	Rom.8.28	2
1Tim.4.8	1Cor.3.22	2
1Tim.4.8	1Cor.8.8	2
1Tim.4.8	Col.2.21-Col.2.23	2
1Tim.4.8	Titus.3.8	2
1Tim.4.8	Heb.9.9-Heb.9.10	2
1Tim.4.8	Heb.13.9	2
1Tim.4.8	2Pet.1.3-2Pet.1.4	2
1Tim.4.8	1John.2.25	2
1Tim.4.8	Rev.3.12	2
1Tim.4.8	Rev.3.21	2
1Tim.4.9	1Tim.1.15	6
1Tim.4.10	1Tim.2.4	3
1Tim.4.10	Ps.107.6-Ps.107.43	2
1Tim.4.10	Ps.118.8	2
1Tim.4.10	Isa.12.2	2
1Tim.4.10	Isa.45.21-Isa.45.22	2
1Tim.4.10	Isa.50.10	2
1Tim.4.10	Jer.17.7	2
1Tim.4.10	Dan.3.28	2
1Tim.4.10	Nah.1.7	2
1Tim.4.10	Matt.27.43	2
1Tim.4.10	John.1.29	2
1Tim.4.10	John.3.15-John.3.17	2
1Tim.4.10	John.4.42	2
1Tim.4.10	John.5.24	2
1Tim.4.10	Rom.15.12-Rom.15.13	2
1Tim.4.10	1Cor.4.9-1Cor.4.13	2
1Tim.4.10	2Cor.4.8-2Cor.4.10	2
1Tim.4.10	2Cor.6.3-2Cor.6.10	2
1Tim.4.10	2Cor.11.23-2Cor.11.27	2
1Tim.4.10	1Tim.2.6	2
1Tim.4.10	1Tim.3.15	2
1Tim.4.10	1Tim.6.17	2
1Tim.4.10	2Tim.2.9-2Tim.2.10	2
1Tim.4.10	2Tim.3.10-2Tim.3.12	2
1Tim.4.10	Heb.11.26	2
1Tim.4.10	Heb.13.13	2
1Tim.4.10	1Pet.1.21	2
1Tim.4.10	1Pet.4.14-1Pet.4.15	2
1Tim.4.10	1John.2.2	2
1Tim.4.10	1John.4.14	2
1Tim.4.10	1John.5.10-1John.5.13	2
1Tim.4.10	Ps.36.6	1
1Tim.4.10	Ps.37.40	1
1Tim.4.10	Ps.52.8	1
1Tim.4.10	Ps.84.12	1
1Tim.4.10	Ps.107.2	1
1Tim.4.11	1Tim.6.2	5
1Tim.4.11	1Tim.5.7	3
1Tim.4.11	2Tim.4.2	2
1Tim.4.11	Titus.2.15	2
1Tim.4.11	Titus.3.8	2
1Tim.4.12	2Tim.2.22	4
1Tim.4.12	Titus.2.7	4
1Tim.4.12	1Pet.5.3	4
1Tim.4.12	Matt.18.10	3
1Tim.4.12	1Cor.11.1	3
1Tim.4.12	1Cor.16.10-1Cor.16.11	2
1Tim.4.12	2Cor.6.4-2Cor.6.17	2
1Tim.4.12	Phil.4.8	2
1Tim.4.12	1Thess.1.6	2
1Tim.4.12	1Thess.2.10	2
1Tim.4.12	2Thess.3.7-2Thess.3.9	2
1Tim.4.12	1Tim.1.14	2
1Tim.4.12	2Tim.2.7	2
1Tim.4.12	2Tim.2.15	2
1Tim.4.12	Titus.2.15	2
1Tim.4.12	Jas.3.13	2
1Tim.4.12	Jas.3.17	2
1Tim.4.12	2Pet.1.5-2Pet.1.8	2
1Tim.4.13	Deut.17.19	2
1Tim.4.13	Josh.1.8	2
1Tim.4.13	Ps.1.2-Ps.1.3	2
1Tim.4.13	Ps.119.97-Ps.119.104	2
1Tim.4.13	Prov.2.4-Prov.2.5	2
1Tim.4.13	Matt.13.51-Matt.13.52	2
1Tim.4.13	John.5.39	2
1Tim.4.13	Acts.6.4	2
1Tim.4.13	Acts.17.11	2
1Tim.4.13	Rom.12.8	2
1Tim.4.13	1Cor.14.3	2
1Tim.4.13	1Cor.14.6	2
1Tim.4.13	1Cor.14.26	2
1Tim.4.13	1Tim.3.14-1Tim.3.15	2
1Tim.4.13	1Tim.4.6	2
1Tim.4.13	1Tim.4.16	2
1Tim.4.13	2Tim.2.15-2Tim.2.17	2
1Tim.4.13	2Tim.4.2	2
1Tim.4.13	Titus.2.15	2
1Tim.4.14	2Tim.1.6	7
1Tim.4.14	Acts.6.6	5
1Tim.4.14	1Tim.1.18	5
1Tim.4.14	1Thess.5.19	3
1Tim.4.14	1Tim.5.22	3
1Tim.4.14	Matt.25.14-Matt.25.30	2
1Tim.4.14	Luke.19.12-Luke.19.26	2
1Tim.4.14	Acts.8.17	2
1Tim.4.14	Acts.13.3	2
1Tim.4.14	Acts.19.6	2
1Tim.4.14	Rom.12.6-Rom.12.8	2
1Tim.4.14	1Pet.4.9-1Pet.4.11	2
1Tim.4.15	Matt.5.16	3
1Tim.4.15	Josh.1.8	2
1Tim.4.15	Ps.1.2	2
1Tim.4.15	Ps.19.14	2
1Tim.4.15	Ps.49.3	2
1Tim.4.15	Ps.63.6	2
1Tim.4.15	Ps.77.12	2
1Tim.4.15	Ps.104.34	2
1Tim.4.15	Ps.105.5	2
1Tim.4.15	Ps.119.15	2
1Tim.4.15	Ps.119.23	2
1Tim.4.15	Ps.119.48	2
1Tim.4.15	Ps.119.97	2
1Tim.4.15	Ps.119.99	2
1Tim.4.15	Ps.119.148	2
1Tim.4.15	Ps.143.5	2
1Tim.4.15	Acts.6.4	2
1Tim.4.15	1Cor.16.15	2
1Tim.4.15	2Cor.4.14	2
1Tim.4.15	2Cor.8.5	2
1Tim.4.15	Phil.2.15-Phil.2.16	2
1Tim.4.15	1Tim.4.6	2
1Tim.4.15	Titus.2.14	2
1Tim.4.16	Titus.2.7	4
1Tim.4.16	Rom.11.14	3
1Tim.4.16	1Chr.28.10	2
1Tim.4.16	2Chr.19.6	2
1Tim.4.16	Isa.55.11	2
1Tim.4.16	Jer.23.22	2
1Tim.4.16	Ezek.3.19-Ezek.3.21	2
1Tim.4.16	Ezek.33.7-Ezek.33.9	2
1Tim.4.16	Mark.13.9	2
1Tim.4.16	Luke.21.34	2
1Tim.4.16	Acts.6.4	2
1Tim.4.16	Acts.20.26-Acts.20.28	2
1Tim.4.16	Acts.26.22	2
1Tim.4.16	Rom.2.7	2
1Tim.4.16	Rom.10.10-Rom.10.14	2
1Tim.4.16	Rom.16.17	2
1Tim.4.16	1Cor.3.10-1Cor.3.11	2
1Tim.4.16	1Cor.9.22	2
1Tim.4.16	1Cor.9.27	2
1Tim.4.16	Eph.4.14	2
1Tim.4.16	Col.4.17	2
1Tim.4.16	1Thess.2.16	2
1Tim.4.16	1Thess.2.19-1Thess.2.20	2
1Tim.4.16	1Tim.1.3	2
1Tim.4.16	1Tim.4.6	2
1Tim.4.16	2Tim.2.10	2
1Tim.4.16	2Tim.3.14	2
1Tim.4.16	2Tim.4.2	2
1Tim.4.16	Titus.1.9	2
1Tim.4.16	Titus.2.15	2
1Tim.4.16	Phlm.1.19	2
1Tim.4.16	Heb.12.15	2
1Tim.4.16	Heb.13.9	2
1Tim.4.16	Jas.5.20	2
1Tim.4.16	2John.1.8-2John.1.9	2
1Tim.5.1	Lev.19.32	5
1Tim.5.1	Gal.6.1	3
1Tim.5.1	Titus.2.6	3
1Tim.5.1	1Pet.5.5-1Pet.5.6	3
1Tim.5.1	Deut.33.9	2
1Tim.5.1	Matt.18.15-Matt.18.17	2
1Tim.5.1	Matt.23.8	2
1Tim.5.1	Acts.14.23	2
1Tim.5.1	Acts.15.4	2
1Tim.5.1	Acts.15.6	2
1Tim.5.1	Acts.20.17	2
1Tim.5.1	Rom.13.7	2
1Tim.5.1	Gal.2.11-Gal.2.14	2
1Tim.5.1	1Tim.5.17	2
1Tim.5.1	1Tim.5.19-1Tim.5.20	2
1Tim.5.1	2Tim.2.24-2Tim.2.25	2
1Tim.5.1	Titus.1.5-Titus.1.6	2
1Tim.5.1	Titus.2.2	2
1Tim.5.1	Phlm.1.9-Phlm.1.10	2
1Tim.5.1	Jas.3.17	2
1Tim.5.1	Jas.5.14	2
1Tim.5.1	1Pet.5.1	2
1Tim.5.1	2John.1.1	2
1Tim.5.1	3John.1.1	2
1Tim.5.1	Rev.4.4	2
1Tim.5.2	Matt.12.50	2
1Tim.5.2	John.19.26-John.19.27	2
1Tim.5.2	Phil.4.8	2
1Tim.5.2	1Tim.4.12	2
1Tim.5.2	1Tim.5.3	2
1Tim.5.2	2Tim.2.22	2
1Tim.5.2	1Thess.5.22	1
1Tim.5.3	Acts.6.1	3
1Tim.5.3	Acts.9.39	3
1Tim.5.3	Exod.20.12	2
1Tim.5.3	Deut.10.18	2
1Tim.5.3	Deut.14.29	2
1Tim.5.3	Deut.16.11	2
1Tim.5.3	Deut.16.14	2
1Tim.5.3	Deut.27.19	2
1Tim.5.3	Job.29.13	2
1Tim.5.3	Job.31.16	2
1Tim.5.3	Ps.68.5	2
1Tim.5.3	Ps.94.6	2
1Tim.5.3	Ps.146.9	2
1Tim.5.3	Jer.49.11	2
1Tim.5.3	Matt.15.6	2
1Tim.5.3	Matt.23.13	2
1Tim.5.3	Luke.2.37	2
1Tim.5.3	Luke.7.12	2
1Tim.5.3	John.1.47	2
1Tim.5.3	1Thess.2.6	2
1Tim.5.3	1Tim.5.2	2
1Tim.5.3	1Tim.5.4-1Tim.5.5	2
1Tim.5.3	1Tim.5.9-1Tim.5.11	2
1Tim.5.3	1Tim.5.16-1Tim.5.17	2
1Tim.5.3	Jas.1.27	2
1Tim.5.3	1Pet.2.17	2
1Tim.5.3	1Pet.3.7	2
1Tim.5.4	1Tim.2.3	5
1Tim.5.4	Gen.45.10-Gen.45.11	3
1Tim.5.4	Matt.15.4-Matt.15.6	3
1Tim.5.4	Mark.7.11-Mark.7.13	3
1Tim.5.4	Gen.47.12	2
1Tim.5.4	Gen.47.28	2
1Tim.5.4	Judg.12.14	2
1Tim.5.4	Ruth.2.2	2
1Tim.5.4	Ruth.2.18	2
1Tim.5.4	1Sam.22.3-1Sam.22.4	2
1Tim.5.4	Job.18.19	2
1Tim.5.4	Prov.31.28	2
1Tim.5.4	Isa.14.22	2
1Tim.5.4	Luke.2.51	2
1Tim.5.4	John.19.26-John.19.27	2
1Tim.5.4	Eph.6.1-Eph.6.3	2
1Tim.5.5	Luke.2.37	5
1Tim.5.5	1Tim.5.3	5
1Tim.5.5	1Cor.7.32	4
1Tim.5.5	1Pet.3.5	4
1Tim.5.5	Luke.18.1	3
1Tim.5.5	1Tim.5.16	3
1Tim.5.5	Ruth.2.12	2
1Tim.5.5	Ps.91.4	2
1Tim.5.5	Isa.3.26	2
1Tim.5.5	Isa.12.2	2
1Tim.5.5	Isa.49.21	2
1Tim.5.5	Isa.50.10	2
1Tim.5.5	Isa.54.1	2
1Tim.5.5	Lam.1.13	2
1Tim.5.5	Luke.18.7	2
1Tim.5.5	Acts.26.7	2
1Tim.5.5	Rom.1.5	2
1Tim.5.5	Rom.1.12	2
1Tim.5.5	Rom.1.20-Rom.1.21	2
1Tim.5.5	1Cor.7.34	2
1Tim.5.5	Eph.6.18	2
1Tim.5.6	Luke.15.24	4
1Tim.5.6	Jas.5.5	4
1Tim.5.6	Rev.3.1	4
1Tim.5.6	Deut.28.54	2
1Tim.5.6	Deut.28.56	2
1Tim.5.6	1Sam.15.32	2
1Tim.5.6	1Sam.25.6	2
1Tim.5.6	Job.21.11-Job.21.15	2
1Tim.5.6	Ps.73.5-Ps.73.7	2
1Tim.5.6	Prov.29.21	2
1Tim.5.6	Isa.22.13	2
1Tim.5.6	Isa.47.1	2
1Tim.5.6	Jer.6.2	2
1Tim.5.6	Lam.4.5	2
1Tim.5.6	Amos.6.5-Amos.6.6	2
1Tim.5.6	Matt.8.22	2
1Tim.5.6	Luke.7.25	2
1Tim.5.6	Luke.12.19	2
1Tim.5.6	Luke.15.13	2
1Tim.5.6	Luke.15.32	2
1Tim.5.6	Luke.16.19	2
1Tim.5.6	2Cor.5.14-2Cor.5.15	2
1Tim.5.6	Eph.2.1	2
1Tim.5.6	Eph.2.5	2
1Tim.5.6	Eph.5.14	2
1Tim.5.6	Col.2.13	2
1Tim.5.6	Rev.18.7	2
1Tim.5.7	1Tim.4.11	5
1Tim.5.7	1Tim.1.3	2
1Tim.5.7	1Tim.6.17	2
1Tim.5.7	2Tim.4.1	2
1Tim.5.7	Titus.1.13	2
1Tim.5.7	Titus.2.15	2
1Tim.5.8	Titus.1.16	4
1Tim.5.8	Gen.30.30	3
1Tim.5.8	Isa.58.7	3
1Tim.5.8	Gal.6.10	3
1Tim.5.8	2Cor.6.15	2
1Tim.5.8	2Cor.12.14	2
1Tim.5.8	2Tim.3.5	2
1Tim.5.8	2Pet.2.1	2
1Tim.5.8	Rev.3.8	2
1Tim.5.8	Matt.7.11	1
1Tim.5.8	Matt.18.17	1
1Tim.5.8	Luke.11.11-Luke.11.13	1
1Tim.5.8	Luke.12.47-Luke.12.48	1
1Tim.5.8	John.15.22	1
1Tim.5.8	2Cor.2.15-2Cor.2.16	1
1Tim.5.8	Jude.1.4	1
1Tim.5.8	Rev.2.13	1
1Tim.5.9	1Tim.3.2	5
1Tim.5.9	Luke.2.36-Luke.2.37	2
1Tim.5.9	1Cor.7.10-1Cor.7.11	2
1Tim.5.9	1Cor.7.39-1Cor.7.40	2
1Tim.5.9	1Tim.3.12	2
1Tim.5.9	1Tim.5.3-1Tim.5.4	2
1Tim.5.9	1Tim.5.11	2
1Tim.5.9	1Tim.5.14	2
1Tim.5.10	1Tim.6.18	5
1Tim.5.10	Titus.3.8	5
1Tim.5.10	Luke.7.44	4
1Tim.5.10	Acts.9.36	4
1Tim.5.10	1Pet.2.12	4
1Tim.5.10	Gen.18.4	3
1Tim.5.10	Titus.2.7	3
1Tim.5.10	Gen.19.2	2
1Tim.5.10	Gen.24.32	2
1Tim.5.10	Lev.25.35	2
1Tim.5.10	Ps.119.4	2
1Tim.5.10	Isa.1.17	2
1Tim.5.10	Matt.5.16	2
1Tim.5.10	Luke.7.38	2
1Tim.5.10	John.13.5-John.13.15	2
1Tim.5.10	Acts.6.3	2
1Tim.5.10	Acts.9.39	2
1Tim.5.10	Acts.10.22	2
1Tim.5.10	Acts.16.14-Acts.16.15	2
1Tim.5.10	Acts.22.12	2
1Tim.5.10	Rom.12.13	2
1Tim.5.10	Eph.2.10	2
1Tim.5.10	Col.1.10	2
1Tim.5.10	1Tim.2.10	2
1Tim.5.10	1Tim.3.7	2
1Tim.5.10	1Tim.5.16	2
1Tim.5.10	1Tim.5.25	2
1Tim.5.10	2Tim.1.5	2
1Tim.5.10	2Tim.2.21	2
1Tim.5.10	2Tim.3.15	2
1Tim.5.10	2Tim.3.17	2
1Tim.5.10	Titus.2.14	2
1Tim.5.10	Titus.3.1	2
1Tim.5.10	Titus.3.14	2
1Tim.5.10	Heb.10.24	2
1Tim.5.10	Heb.13.2	2
1Tim.5.10	Heb.13.21	2
1Tim.5.10	1Pet.4.9	2
1Tim.5.10	3John.1.12	2
1Tim.5.11	1Tim.5.14	4
1Tim.5.11	Deut.32.15	2
1Tim.5.11	Isa.3.16	2
1Tim.5.11	Hos.13.6	2
1Tim.5.11	1Cor.7.39-1Cor.7.40	2
1Tim.5.11	1Tim.4.3	2
1Tim.5.11	1Tim.5.9	2
1Tim.5.11	Jas.5.5	2
1Tim.5.11	2Pet.2.18	2
1Tim.5.11	Rev.18.7	2
1Tim.5.12	Gal.1.6	3
1Tim.5.12	Jas.3.1	3
1Tim.5.12	1Pet.4.17	3
1Tim.5.12	Rev.2.4-Rev.2.5	3
1Tim.5.12	1Cor.11.34	2
1Tim.5.13	Prov.20.19	3
1Tim.5.13	Titus.1.11	3
1Tim.5.13	1Pet.4.15	3
1Tim.5.13	Lev.19.16	2
1Tim.5.13	Prov.31.27	2
1Tim.5.13	Luke.10.7	2
1Tim.5.13	Acts.20.20	2
1Tim.5.13	Acts.20.30	2
1Tim.5.13	2Thess.3.6-2Thess.3.11	2
1Tim.5.13	Jas.3.10	2
1Tim.5.13	3John.1.10	2
1Tim.5.14	Titus.2.5	8
1Tim.5.14	1Tim.6.1	5
1Tim.5.14	1Tim.4.3	3
1Tim.5.14	Titus.2.8	3
1Tim.5.14	Gen.18.6	2
1Tim.5.14	Gen.18.9	2
1Tim.5.14	2Sam.12.14	2
1Tim.5.14	Prov.14.1	2
1Tim.5.14	Prov.31.27-Prov.31.29	2
1Tim.5.14	Dan.6.4	2
1Tim.5.14	Luke.23.35-Luke.23.41	2
1Tim.5.14	Rom.14.13	2
1Tim.5.14	1Cor.7.8-1Cor.7.9	2
1Tim.5.14	2Cor.11.12	2
1Tim.5.14	1Tim.2.8	2
1Tim.5.14	1Tim.5.11	2
1Tim.5.14	Heb.13.4	2
1Tim.5.14	1Pet.4.14-1Pet.4.15	2
1Tim.5.15	Matt.4.10	2
1Tim.5.15	Phil.3.18-Phil.3.19	2
1Tim.5.15	1Tim.1.20	2
1Tim.5.15	2Tim.1.15	2
1Tim.5.15	2Tim.2.18	2
1Tim.5.15	2Tim.4.10	2
1Tim.5.15	2Pet.2.2	2
1Tim.5.15	2Pet.2.20-2Pet.2.22	2
1Tim.5.15	2Pet.3.16	2
1Tim.5.15	1John.2.19	2
1Tim.5.15	Jude.1.4-Jude.1.5	2
1Tim.5.15	Rev.12.9	2
1Tim.5.16	1Tim.5.3-1Tim.5.5	4
1Tim.5.16	1Tim.5.8	2
1Tim.5.17	Rom.12.8	5
1Tim.5.17	Luke.10.7	4
1Tim.5.17	Phil.2.29	4
1Tim.5.17	Heb.13.7	4
1Tim.5.17	Heb.13.17	4
1Tim.5.17	2Kgs.2.9	2
1Tim.5.17	Isa.40.2	2
1Tim.5.17	Jer.16.18	2
1Tim.5.17	Jer.17.18	2
1Tim.5.17	Zech.9.12	2
1Tim.5.17	Matt.9.37-Matt.9.38	2
1Tim.5.17	Matt.24.25	2
1Tim.5.17	Luke.10.1-Luke.10.2	2
1Tim.5.17	Luke.12.42	2
1Tim.5.17	John.4.38	2
1Tim.5.17	Acts.11.30	2
1Tim.5.17	Acts.20.35	2
1Tim.5.17	Acts.28.10	2
1Tim.5.17	Rom.15.27	2
1Tim.5.17	Rom.16.12	2
1Tim.5.17	1Cor.3.9	2
1Tim.5.17	1Cor.9.5-1Cor.9.14	2
1Tim.5.17	1Cor.15.10	2
1Tim.5.17	1Cor.16.16	2
1Tim.5.17	2Cor.6.1	2
1Tim.5.17	Gal.6.6	2
1Tim.5.17	Phil.2.16	2
1Tim.5.17	Phil.4.3	2
1Tim.5.17	1Thess.5.12-1Thess.5.13	2
1Tim.5.17	1Tim.3.5	2
1Tim.5.17	1Tim.4.6	2
1Tim.5.17	1Tim.4.10	2
1Tim.5.17	1Tim.4.16	2
1Tim.5.17	1Tim.5.3	2
1Tim.5.17	2Tim.2.6	2
1Tim.5.17	2Tim.4.2	2
1Tim.5.17	Heb.13.24	2
1Tim.5.18	Deut.25.4	7
1Tim.5.18	Lev.19.13	6
1Tim.5.18	Matt.10.10	6
1Tim.5.18	Luke.10.7	5
1Tim.5.18	1Cor.9.14	4
1Tim.5.18	Deut.24.14-Deut.24.15	3
1Tim.5.18	1Cor.9.7-1Cor.9.10	3
1Tim.5.18	Rom.4.3	2
1Tim.5.18	Rom.9.17	2
1Tim.5.18	Rom.10.11	2
1Tim.5.18	Rom.11.2	2
1Tim.5.18	Gal.3.8	2
1Tim.5.18	Jas.4.5	2
1Tim.5.19	Deut.19.15	4
1Tim.5.19	Matt.18.16	4
1Tim.5.19	Deut.17.6	3
1Tim.5.19	Deut.19.18-Deut.19.19	2
1Tim.5.19	John.8.17	2
1Tim.5.19	John.18.29	2
1Tim.5.19	Acts.11.30	2
1Tim.5.19	Acts.24.2-Acts.24.13	2
1Tim.5.19	Acts.25.16	2
1Tim.5.19	2Cor.13.1	2
1Tim.5.19	Titus.1.6	2
1Tim.5.19	Heb.10.28	2
1Tim.5.20	Deut.13.11	4
1Tim.5.20	2Tim.4.2	4
1Tim.5.20	Titus.1.13	4
1Tim.5.20	1Tim.1.20	3
1Tim.5.20	Lev.19.17	2
1Tim.5.20	Deut.17.13	2
1Tim.5.20	Deut.19.20	2
1Tim.5.20	Deut.21.21	2
1Tim.5.20	Acts.5.5	2
1Tim.5.20	Acts.5.11	2
1Tim.5.20	Acts.19.17	2
1Tim.5.20	Gal.2.11-Gal.2.14	2
1Tim.5.21	1Tim.6.13	5
1Tim.5.21	2Tim.4.1	5
1Tim.5.21	2Tim.2.14	4
1Tim.5.21	Matt.25.41	3
1Tim.5.21	2Cor.5.16	3
1Tim.5.21	2Pet.2.4	3
1Tim.5.21	Jude.1.6	3
1Tim.5.21	Lev.19.15	2
1Tim.5.21	Deut.1.7	2
1Tim.5.21	Deut.33.9	2
1Tim.5.21	Ps.107.43	2
1Tim.5.21	Ps.119.34	2
1Tim.5.21	Prov.18.5	2
1Tim.5.21	Mal.2.9	2
1Tim.5.21	Matt.16.27	2
1Tim.5.21	Matt.28.20	2
1Tim.5.21	Luke.20.21	2
1Tim.5.21	Acts.15.37-Acts.15.38	2
1Tim.5.21	1Thess.5.27	2
1Tim.5.21	Jas.2.1-Jas.2.4	2
1Tim.5.21	Jas.3.17	2
1Tim.5.21	Rev.12.7-Rev.12.9	2
1Tim.5.21	Rev.14.10	2
1Tim.5.22	Eph.5.11	4
1Tim.5.22	1Tim.3.10	4
1Tim.5.22	Acts.6.6	3
1Tim.5.22	1Tim.3.6	3
1Tim.5.22	1Tim.4.14	3
1Tim.5.22	2John.1.11	3
1Tim.5.22	Josh.9.14	2
1Tim.5.22	Acts.13.3	2
1Tim.5.22	Acts.18.6	2
1Tim.5.22	Acts.20.26	2
1Tim.5.22	1Tim.4.12	2
1Tim.5.22	2Tim.1.6	2
1Tim.5.22	2Tim.2.2	2
1Tim.5.22	Titus.1.5-Titus.1.9	2
1Tim.5.22	Heb.6.2	2
1Tim.5.22	Rev.18.4	2
1Tim.5.23	1Tim.3.8	4
1Tim.5.23	Ps.104.15	3
1Tim.5.23	Eph.5.18	3
1Tim.5.23	1Tim.3.3	3
1Tim.5.23	Titus.1.7	3
1Tim.5.23	Titus.2.3	3
1Tim.5.23	Lev.10.9-Lev.10.11	2
1Tim.5.23	Prov.31.4-Prov.31.7	2
1Tim.5.23	Ezek.44.21	2
1Tim.5.23	1Tim.4.4	2
1Tim.5.24	Jer.2.34	2
1Tim.5.24	Acts.1.16-Acts.1.20	2
1Tim.5.24	Acts.5.1-Acts.5.11	2
1Tim.5.24	Acts.8.18	2
1Tim.5.24	Gal.5.19-Gal.5.21	2
1Tim.5.24	2Tim.4.10	2
1Tim.5.24	2Pet.2.20-2Pet.2.21	2
1Tim.5.25	Ps.37.5-Ps.37.6	2
1Tim.5.25	Prov.10.9	2
1Tim.5.25	Matt.5.16	2
1Tim.5.25	Matt.6.3-Matt.6.6	2
1Tim.5.25	Luke.11.33	2
1Tim.5.25	Acts.9.36	2
1Tim.5.25	Acts.10.22	2
1Tim.5.25	Acts.16.1-Acts.16.3	2
1Tim.5.25	Acts.22.12	2
1Tim.5.25	Gal.5.22-Gal.5.23	2
1Tim.5.25	Phil.1.11	2
1Tim.5.25	1Tim.3.7	2
1Tim.6.1	Titus.2.5	5
1Tim.6.1	Isa.52.5	3
1Tim.6.1	Rom.2.24	3
1Tim.6.1	Gen.13.7-Gen.13.8	2
1Tim.6.1	Gen.16.9	2
1Tim.6.1	Gen.24.2	2
1Tim.6.1	Gen.24.12	2
1Tim.6.1	Gen.24.27	2
1Tim.6.1	Gen.24.35-Gen.24.67	2
1Tim.6.1	Deut.28.48	2
1Tim.6.1	2Sam.12.14	2
1Tim.6.1	2Kgs.5.2-2Kgs.5.3	2
1Tim.6.1	2Kgs.5.13	2
1Tim.6.1	Neh.9.5	2
1Tim.6.1	Isa.47.6	2
1Tim.6.1	Isa.58.6	2
1Tim.6.1	Ezek.36.20	2
1Tim.6.1	Ezek.36.23	2
1Tim.6.1	Mal.1.6	2
1Tim.6.1	Matt.11.9	2
1Tim.6.1	Matt.11.30	2
1Tim.6.1	Luke.17.1	2
1Tim.6.1	Acts.10.7	2
1Tim.6.1	Acts.10.22	2
1Tim.6.1	Acts.15.10	2
1Tim.6.1	1Cor.7.21-1Cor.7.22	2
1Tim.6.1	1Cor.10.32	2
1Tim.6.1	Gal.5.1	2
1Tim.6.1	Eph.6.5-Eph.6.8	2
1Tim.6.1	Col.3.22-Col.3.25	2
1Tim.6.1	1Tim.5.14	2
1Tim.6.1	Titus.2.8-Titus.2.10	2
1Tim.6.1	1Pet.2.12	2
1Tim.6.1	1Pet.2.17-1Pet.2.20	2
1Tim.6.1	1Pet.3.16	2
1Tim.6.2	1Tim.4.11	5
1Tim.6.2	Gen.16.4-Gen.16.5	2
1Tim.6.2	Num.16.3	2
1Tim.6.2	Joel.2.28	2
1Tim.6.2	Matt.6.24	2
1Tim.6.2	Matt.23.8	2
1Tim.6.2	Matt.25.40	2
1Tim.6.2	Rom.8.29	2
1Tim.6.2	Rom.11.17	2
1Tim.6.2	Gal.3.26-Gal.3.29	2
1Tim.6.2	Gal.5.6	2
1Tim.6.2	Eph.1.1	2
1Tim.6.2	Eph.1.15	2
1Tim.6.2	Eph.3.6	2
1Tim.6.2	Col.1.2	2
1Tim.6.2	Col.1.4	2
1Tim.6.2	Col.3.11-Col.3.12	2
1Tim.6.2	Col.4.1	2
1Tim.6.2	2Thess.1.3	2
1Tim.6.2	1Tim.5.1	2
1Tim.6.2	Titus.2.1	2
1Tim.6.2	Titus.2.15	2
1Tim.6.2	Titus.3.8	2
1Tim.6.2	Phlm.1.5-Phlm.1.7	2
1Tim.6.2	Phlm.1.10-Phlm.1.16	2
1Tim.6.2	Heb.3.1	2
1Tim.6.2	Heb.3.14	2
1Tim.6.2	1Pet.5.1	2
1Tim.6.2	2Pet.2.10	2
1Tim.6.2	Jude.1.8	2
1Tim.6.3	1Tim.1.3	5
1Tim.6.3	1Tim.1.10	5
1Tim.6.3	Titus.1.1	4
1Tim.6.3	Rom.16.17	3
1Tim.6.3	Prov.15.4	2
1Tim.6.3	Matt.22.21	2
1Tim.6.3	Matt.28.20	2
1Tim.6.3	Gal.1.6-Gal.1.7	2
1Tim.6.3	1Thess.4.1-1Thess.4.2	2
1Tim.6.3	1Thess.4.8	2
1Tim.6.3	1Tim.1.6	2
1Tim.6.3	1Tim.4.7-1Tim.4.8	2
1Tim.6.3	2Tim.1.13	2
1Tim.6.3	2Tim.4.3	2
1Tim.6.3	Titus.1.9	2
1Tim.6.3	Titus.2.1-Titus.2.2	2
1Tim.6.3	Titus.2.11-Titus.2.14	2
1Tim.6.3	Titus.3.8	2
1Tim.6.3	2Pet.1.3-2Pet.1.7	2
1Tim.6.4	1Tim.1.4	4
1Tim.6.4	1Tim.3.6	4
1Tim.6.4	1Tim.1.7	3
1Tim.6.4	2Tim.2.14	3
1Tim.6.4	2Tim.2.23	3
1Tim.6.4	2Tim.3.4	3
1Tim.6.4	Titus.3.9	3
1Tim.6.4	Prov.13.7	2
1Tim.6.4	Prov.25.14	2
1Tim.6.4	Prov.26.12	2
1Tim.6.4	Isa.58.4	2
1Tim.6.4	Acts.8.9	2
1Tim.6.4	Acts.8.21-Acts.8.23	2
1Tim.6.4	Acts.15.2	2
1Tim.6.4	Acts.18.15	2
1Tim.6.4	Rom.2.8	2
1Tim.6.4	Rom.12.16	2
1Tim.6.4	Rom.13.13	2
1Tim.6.4	Rom.14.1	2
1Tim.6.4	1Cor.3.3	2
1Tim.6.4	1Cor.3.18	2
1Tim.6.4	1Cor.8.1-1Cor.8.2	2
1Tim.6.4	1Cor.11.16	2
1Tim.6.4	1Cor.11.18	2
1Tim.6.4	2Cor.11.20	2
1Tim.6.4	Gal.5.15	2
1Tim.6.4	Gal.5.20-Gal.5.21	2
1Tim.6.4	Gal.5.26	2
1Tim.6.4	Gal.6.3	2
1Tim.6.4	Phil.1.15	2
1Tim.6.4	Phil.2.3	2
1Tim.6.4	Phil.2.14	2
1Tim.6.4	Col.2.18	2
1Tim.6.4	2Thess.2.4	2
1Tim.6.4	Jas.1.19	2
1Tim.6.4	Jas.2.14-Jas.2.18	2
1Tim.6.4	Jas.4.1-Jas.4.2	2
1Tim.6.4	Jas.4.5-Jas.4.6	2
1Tim.6.4	1Pet.2.1-1Pet.2.2	2
1Tim.6.4	2Pet.2.12	2
1Tim.6.4	2Pet.2.18	2
1Tim.6.4	Jude.1.10	2
1Tim.6.4	Jude.1.16	2
1Tim.6.4	Rev.3.17	2
1Tim.6.5	2Tim.3.8	4
1Tim.6.5	Titus.1.11	4
1Tim.6.5	2Pet.2.3	4
1Tim.6.5	2Kgs.5.20-2Kgs.5.27	2
1Tim.6.5	Isa.56.11	2
1Tim.6.5	Jer.6.13	2
1Tim.6.5	Jer.8.10	2
1Tim.6.5	Ezek.33.31	2
1Tim.6.5	Matt.7.17-Matt.7.20	2
1Tim.6.5	Matt.12.33	2
1Tim.6.5	Matt.21.13	2
1Tim.6.5	Matt.23.13	2
1Tim.6.5	John.3.19-John.3.21	2
1Tim.6.5	Acts.8.18-Acts.8.20	2
1Tim.6.5	Acts.19.24-Acts.19.28	2
1Tim.6.5	Rom.16.17-Rom.16.18	2
1Tim.6.5	1Cor.11.16	2
1Tim.6.5	Eph.4.17-Eph.4.19	2
1Tim.6.5	2Thess.2.8-2Thess.2.11	2
1Tim.6.5	2Thess.3.6	2
1Tim.6.5	1Tim.1.6	2
1Tim.6.5	1Tim.3.3	2
1Tim.6.5	1Tim.3.8	2
1Tim.6.5	1Tim.6.6	2
1Tim.6.5	2Tim.3.5	2
1Tim.6.5	Titus.1.15-Titus.1.16	2
1Tim.6.5	Heb.3.12-Heb.3.13	2
1Tim.6.5	2Pet.2.15	2
1Tim.6.5	2John.1.8-2John.1.10	2
1Tim.6.5	Jude.1.11	2
1Tim.6.5	Rev.18.3	2
1Tim.6.5	Rev.18.13	2
1Tim.6.6	1Tim.4.8	5
1Tim.6.6	Heb.13.5	5
1Tim.6.6	1Tim.6.8	4
1Tim.6.6	Ps.37.16	3
1Tim.6.6	Prov.15.16	3
1Tim.6.6	Prov.16.8	3
1Tim.6.6	Phil.4.11-Phil.4.13	3
1Tim.6.6	Exod.2.21	2
1Tim.6.6	Ps.84.11	2
1Tim.6.6	Prov.3.13-Prov.3.18	2
1Tim.6.6	Prov.8.18-Prov.8.21	2
1Tim.6.6	Matt.6.32-Matt.6.33	2
1Tim.6.6	Luke.3.14	2
1Tim.6.6	Luke.12.31-Luke.12.32	2
1Tim.6.6	Rom.5.3-Rom.5.5	2
1Tim.6.6	Rom.8.28	2
1Tim.6.6	2Cor.4.17-2Cor.5.1	2
1Tim.6.6	Phil.1.21	2
1Tim.6.7	Job.1.21	6
1Tim.6.7	Ps.49.17	4
1Tim.6.7	Prov.27.24	3
1Tim.6.7	Eccl.5.15-Eccl.5.16	3
1Tim.6.7	Luke.12.20-Luke.12.21	3
1Tim.6.7	Luke.16.22-Luke.16.23	1
1Tim.6.8	Gen.28.20	3
1Tim.6.8	Gen.48.15	2
1Tim.6.8	Deut.2.7	2
1Tim.6.8	Deut.8.3-Deut.8.4	2
1Tim.6.8	Prov.27.23-Prov.27.27	2
1Tim.6.8	Prov.30.8-Prov.30.9	2
1Tim.6.8	Eccl.2.24-Eccl.2.26	2
1Tim.6.8	Eccl.3.12-Eccl.3.13	2
1Tim.6.8	Matt.6.11	2
1Tim.6.8	Matt.6.25-Matt.6.33	2
1Tim.6.8	Heb.13.5-Heb.13.6	2
1Tim.6.9	Prov.15.27	5
1Tim.6.9	1Tim.3.7	5
1Tim.6.9	Matt.13.22	3
1Tim.6.9	Gen.13.10-Gen.13.13	2
1Tim.6.9	Num.22.17-Num.22.19	2
1Tim.6.9	Num.31.8	2
1Tim.6.9	Deut.7.25	2
1Tim.6.9	Josh.7.11	2
1Tim.6.9	Josh.7.24-Josh.7.26	2
1Tim.6.9	2Kgs.5.20-2Kgs.5.27	2
1Tim.6.9	Ps.11.6	2
1Tim.6.9	Prov.1.17-Prov.1.19	2
1Tim.6.9	Prov.20.21	2
1Tim.6.9	Prov.21.6	2
1Tim.6.9	Prov.22.16	2
1Tim.6.9	Prov.23.4	2
1Tim.6.9	Prov.28.20-Prov.28.22	2
1Tim.6.9	Isa.5.8	2
1Tim.6.9	Hos.12.7-Hos.12.8	2
1Tim.6.9	Amos.8.4-Amos.8.6	2
1Tim.6.9	Zech.11.5	2
1Tim.6.9	Matt.19.22	2
1Tim.6.9	Matt.26.15	2
1Tim.6.9	Matt.27.3-Matt.27.5	2
1Tim.6.9	Mark.4.19	2
1Tim.6.9	Luke.21.35	2
1Tim.6.9	Acts.5.4-Acts.5.5	2
1Tim.6.9	Acts.8.20	2
1Tim.6.9	Eph.4.22	2
1Tim.6.9	1Tim.1.9	2
1Tim.6.9	2Tim.2.26	2
1Tim.6.9	Jas.5.1-Jas.5.4	2
1Tim.6.9	2Pet.2.3	2
1Tim.6.9	2Pet.2.15-2Pet.2.16	2
1Tim.6.9	1John.2.15-1John.2.17	2
1Tim.6.9	Jude.1.11	2
1Tim.6.10	Deut.16.19	3
1Tim.6.10	Ps.32.10	3
1Tim.6.10	Prov.1.19	3
1Tim.6.10	Mic.3.11	3
1Tim.6.10	Gen.29.31-Gen.29.35	2
1Tim.6.10	Gen.34.23-Gen.34.24	2
1Tim.6.10	Gen.38.16	2
1Tim.6.10	Exod.23.7-Exod.23.8	2
1Tim.6.10	Deut.23.4-Deut.23.5	2
1Tim.6.10	Deut.23.18	2
1Tim.6.10	Judg.17.10-Judg.17.11	2
1Tim.6.10	Judg.18.19-Judg.18.20	2
1Tim.6.10	Judg.18.29-Judg.18.31	2
1Tim.6.10	2Sam.4.10-2Sam.4.11	2
1Tim.6.10	2Kgs.5.27	2
1Tim.6.10	Prov.1.31	2
1Tim.6.10	Isa.1.23	2
1Tim.6.10	Isa.56.11	2
1Tim.6.10	Jer.5.27-Jer.5.28	2
1Tim.6.10	Ezek.13.19	2
1Tim.6.10	Ezek.16.33	2
1Tim.6.10	Ezek.22.12	2
1Tim.6.10	Mic.7.3-Mic.7.4	2
1Tim.6.10	Mal.1.10	2
1Tim.6.10	Matt.23.13	2
1Tim.6.10	Acts.1.16-Acts.1.19	2
1Tim.6.10	1Tim.3.3	2
1Tim.6.10	1Tim.6.9	2
1Tim.6.10	1Tim.6.21	2
1Tim.6.10	2Tim.4.10	2
1Tim.6.10	Titus.1.11	2
1Tim.6.10	Jas.5.19	2
1Tim.6.10	2Pet.2.7-2Pet.2.8	2
1Tim.6.10	Jude.1.11	2
1Tim.6.10	Rev.2.14-Rev.2.15	2
1Tim.6.10	Rev.18.13	2
1Tim.6.10	Gen.29.14	1
1Tim.6.10	Gen.29.26	1
1Tim.6.11	2Tim.2.22	9
1Tim.6.11	2Tim.3.17	5
1Tim.6.11	Deut.16.20	2
1Tim.6.11	Deut.33.1	2
1Tim.6.11	1Sam.2.27	2
1Tim.6.11	1Sam.9.6	2
1Tim.6.11	1Kgs.13.1	2
1Tim.6.11	1Kgs.13.26	2
1Tim.6.11	1Kgs.17.18	2
1Tim.6.11	1Kgs.17.24	2
1Tim.6.11	1Kgs.20.28	2
1Tim.6.11	2Kgs.1.9	2
1Tim.6.11	2Kgs.1.13	2
1Tim.6.11	2Kgs.5.20	2
1Tim.6.11	2Kgs.23.17	2
1Tim.6.11	1Chr.23.14	2
1Tim.6.11	2Chr.8.14	2
1Tim.6.11	Neh.12.24	2
1Tim.6.11	Neh.12.36	2
1Tim.6.11	Ps.34.14	2
1Tim.6.11	Ps.38.20	2
1Tim.6.11	Isa.51.1	2
1Tim.6.11	Jer.35.4	2
1Tim.6.11	Rom.14.19	2
1Tim.6.11	1Cor.6.18	2
1Tim.6.11	1Cor.10.14	2
1Tim.6.11	1Cor.14.1	2
1Tim.6.11	Gal.5.22-Gal.5.23	2
1Tim.6.11	Phil.4.8-Phil.4.9	2
1Tim.6.11	1Tim.4.12	2
1Tim.6.11	1Tim.5.10	2
1Tim.6.11	1Tim.6.20	2
1Tim.6.11	Titus.2.11-Titus.2.12	2
1Tim.6.11	Heb.12.14	2
1Tim.6.11	1Pet.3.11	2
1Tim.6.11	2Pet.1.5-2Pet.1.7	2
1Tim.6.12	1Tim.1.18	6
1Tim.6.12	1Cor.9.25-1Cor.9.26	4
1Tim.6.12	Col.3.15	3
1Tim.6.12	1Tim.6.13	3
1Tim.6.12	1Tim.6.19	3
1Tim.6.12	1Pet.5.10	3
1Tim.6.12	Deut.26.3	2
1Tim.6.12	Deut.26.17-Deut.26.19	2
1Tim.6.12	Ps.63.8	2
1Tim.6.12	Prov.3.18	2
1Tim.6.12	Song.3.4	2
1Tim.6.12	Isa.44.5	2
1Tim.6.12	Zech.10.5	2
1Tim.6.12	Luke.12.8-Luke.12.9	2
1Tim.6.12	Rom.8.28-Rom.8.30	2
1Tim.6.12	Rom.9.23-Rom.9.24	2
1Tim.6.12	Rom.10.9-Rom.10.10	2
1Tim.6.12	2Cor.6.7	2
1Tim.6.12	2Cor.9.13	2
1Tim.6.12	2Cor.10.3-2Cor.10.5	2
1Tim.6.12	Eph.6.10-Eph.6.18	2
1Tim.6.12	Phil.3.12-Phil.3.14	2
1Tim.6.12	1Thess.2.12	2
1Tim.6.12	1Thess.5.8-1Thess.5.9	2
1Tim.6.12	2Thess.2.14	2
1Tim.6.12	2Tim.1.9	2
1Tim.6.12	2Tim.4.7	2
1Tim.6.12	Heb.3.14	2
1Tim.6.12	Heb.6.18	2
1Tim.6.12	Heb.13.23	2
1Tim.6.12	1Pet.3.9	2
1Tim.6.12	1John.2.25	2
1Tim.6.12	Rev.3.3	2
1Tim.6.13	1Tim.5.21	5
1Tim.6.13	Matt.27.11	3
1Tim.6.13	John.5.21	3
1Tim.6.13	John.18.36-John.18.37	3
1Tim.6.13	Rev.1.5	3
1Tim.6.13	Rev.3.14	3
1Tim.6.13	Deut.32.39	2
1Tim.6.13	1Sam.2.6	2
1Tim.6.13	John.5.26	2
1Tim.6.13	John.14.6	2
1Tim.6.13	John.14.25-John.14.26	2
1Tim.6.13	John.19.11	2
1Tim.6.13	Acts.17.25	2
1Tim.6.13	1Tim.2.5	2
1Tim.6.13	1Tim.6.12	2
1Tim.6.13	Rev.21.6	2
1Tim.6.13	Rev.22.1	2
1Tim.6.14	1Chr.28.9-1Chr.28.10	2
1Tim.6.14	1Chr.28.20	2
1Tim.6.14	Song.4.7	2
1Tim.6.14	1Cor.1.8	2
1Tim.6.14	Eph.5.27	2
1Tim.6.14	Phil.1.6	2
1Tim.6.14	Phil.1.10	2
1Tim.6.14	Phil.2.15	2
1Tim.6.14	Col.1.22	2
1Tim.6.14	Col.4.17	2
1Tim.6.14	1Thess.3.13	2
1Tim.6.14	1Thess.5.23	2
1Tim.6.14	2Thess.2.1	2
1Tim.6.14	2Thess.2.8	2
1Tim.6.14	1Tim.4.11-1Tim.4.16	2
1Tim.6.14	1Tim.6.20	2
1Tim.6.14	2Tim.4.1	2
1Tim.6.14	Titus.2.13	2
1Tim.6.14	Heb.9.14	2
1Tim.6.14	Heb.9.28	2
1Tim.6.14	1Pet.1.7	2
1Tim.6.14	1Pet.1.19	2
1Tim.6.14	2Pet.3.14	2
1Tim.6.14	1John.3.2	2
1Tim.6.14	Jude.1.24	2
1Tim.6.14	Rev.1.7	2
1Tim.6.15	1Tim.1.11	5
1Tim.6.15	Rev.17.14	5
1Tim.6.15	1Tim.1.17	4
1Tim.6.15	Rev.19.16	4
1Tim.6.15	Ezra.7.12	2
1Tim.6.15	Ps.47.2	2
1Tim.6.15	Ps.83.18	2
1Tim.6.15	Prov.8.15	2
1Tim.6.15	Jer.10.10	2
1Tim.6.15	Jer.46.18	2
1Tim.6.15	Dan.2.44-Dan.2.47	2
1Tim.6.15	Dan.4.34	2
1Tim.6.15	Matt.6.13	2
1Tim.6.15	1Tim.2.6	2
1Tim.6.16	1Tim.1.17	9
1Tim.6.16	John.1.18	5
1Tim.6.16	Ps.104.2	4
1Tim.6.16	1John.1.5	4
1Tim.6.16	Exod.3.14	2
1Tim.6.16	Exod.33.20	2
1Tim.6.16	Deut.32.40	2
1Tim.6.16	Ps.90.2	2
1Tim.6.16	Isa.57.15	2
1Tim.6.16	Hab.3.4	2
1Tim.6.16	John.6.46	2
1Tim.6.16	John.8.58	2
1Tim.6.16	John.14.9	2
1Tim.6.16	Rom.16.25-Rom.16.27	2
1Tim.6.16	Eph.3.21	2
1Tim.6.16	Phil.4.20	2
1Tim.6.16	Col.1.15	2
1Tim.6.16	Heb.13.8	2
1Tim.6.16	Jude.1.25	2
1Tim.6.16	Rev.1.6	2
1Tim.6.16	Rev.1.8	2
1Tim.6.16	Rev.1.16-Rev.1.18	2
1Tim.6.16	Rev.4.11	2
1Tim.6.16	Rev.7.12	2
1Tim.6.16	Rev.21.3	2
1Tim.6.16	Rev.22.5	2
1Tim.6.17	Rom.11.20	4
1Tim.6.17	1Tim.4.10	4
1Tim.6.17	Ps.62.10	3
1Tim.6.17	Prov.23.5	3
1Tim.6.17	Mark.10.24	3
1Tim.6.17	Acts.14.17	3
1Tim.6.17	Gen.13.2	2
1Tim.6.17	Deut.6.10-Deut.6.12	2
1Tim.6.17	Deut.8.17	2
1Tim.6.17	Deut.33.15	2
1Tim.6.17	2Chr.26.16	2
1Tim.6.17	2Chr.32.25-2Chr.32.26	2
1Tim.6.17	Job.1.1-Job.1.3	2
1Tim.6.17	Job.31.24-Job.31.25	2
1Tim.6.17	Ps.10.3-Ps.10.4	2
1Tim.6.17	Ps.52.7	2
1Tim.6.17	Ps.62.8	2
1Tim.6.17	Ps.73.5-Ps.73.9	2
1Tim.6.17	Ps.84.11-Ps.84.12	2
1Tim.6.17	Ps.104.28	2
1Tim.6.17	Ps.118.8-Ps.118.9	2
1Tim.6.17	Prov.11.28	2
1Tim.6.17	Prov.27.24	2
1Tim.6.17	Prov.30.9	2
1Tim.6.17	Eccl.5.13-Eccl.5.14	2
1Tim.6.17	Eccl.5.18-Eccl.5.19	2
1Tim.6.17	Jer.2.31	2
1Tim.6.17	Jer.9.23-Jer.9.24	2
1Tim.6.17	Jer.17.7-Jer.17.8	2
1Tim.6.17	Ezek.16.49-Ezek.16.50	2
1Tim.6.17	Ezek.16.56	2
1Tim.6.17	Dan.4.30	2
1Tim.6.17	Dan.5.19-Dan.5.23	2
1Tim.6.17	Hos.13.6	2
1Tim.6.17	Hab.1.15-Hab.1.16	2
1Tim.6.17	Matt.6.32	2
1Tim.6.17	Matt.19.23	2
1Tim.6.17	Matt.27.57	2
1Tim.6.17	Luke.12.15-Luke.12.21	2
1Tim.6.17	Luke.19.2	2
1Tim.6.17	Luke.19.9-Luke.19.10	2
1Tim.6.17	Acts.14.27	2
1Tim.6.17	Acts.17.25	2
1Tim.6.17	Eph.5.5	2
1Tim.6.17	Col.3.16	2
1Tim.6.17	1Thess.1.9	2
1Tim.6.17	1Tim.1.3	2
1Tim.6.17	1Tim.3.15	2
1Tim.6.17	1Tim.5.21	2
1Tim.6.17	1Tim.6.13	2
1Tim.6.17	2Tim.4.10	2
1Tim.6.17	Titus.2.12	2
1Tim.6.17	Titus.3.6	2
1Tim.6.17	Jas.1.9-Jas.1.10	2
1Tim.6.17	Rev.18.6-Rev.18.7	2
1Tim.6.18	Rom.12.8	4
1Tim.6.18	Rom.12.13	4
1Tim.6.18	1Tim.5.10	4
1Tim.6.18	Heb.13.16	4
1Tim.6.18	Luke.12.21	3
1Tim.6.18	Titus.3.8	3
1Tim.6.18	Deut.15.7-Deut.15.11	2
1Tim.6.18	2Chr.24.16	2
1Tim.6.18	Ps.37.3	2
1Tim.6.18	Ps.112.9	2
1Tim.6.18	Prov.11.24-Prov.11.25	2
1Tim.6.18	Eccl.3.12	2
1Tim.6.18	Eccl.11.1-Eccl.11.2	2
1Tim.6.18	Eccl.11.6	2
1Tim.6.18	Isa.32.8	2
1Tim.6.18	Isa.58.7	2
1Tim.6.18	Luke.6.33-Luke.6.35	2
1Tim.6.18	Luke.14.12-Luke.14.14	2
1Tim.6.18	Acts.2.44-Acts.2.45	2
1Tim.6.18	Acts.4.34-Acts.4.37	2
1Tim.6.18	Acts.9.36	2
1Tim.6.18	Acts.10.38	2
1Tim.6.18	Acts.11.29	2
1Tim.6.18	1Cor.16.2	2
1Tim.6.18	2Cor.8.1-2Cor.8.2	2
1Tim.6.18	2Cor.8.9	2
1Tim.6.18	2Cor.8.12	2
1Tim.6.18	2Cor.9.6-2Cor.9.15	2
1Tim.6.18	Gal.6.10	2
1Tim.6.18	Phil.4.18-Phil.4.19	2
1Tim.6.18	Titus.2.14	2
1Tim.6.18	Jas.2.5	2
1Tim.6.18	1Pet.3.11	2
1Tim.6.18	1John.3.17	2
1Tim.6.18	3John.1.11	2
1Tim.6.19	Luke.16.9	4
1Tim.6.19	1Tim.6.12	4
1Tim.6.19	Matt.6.19-Matt.6.21	3
1Tim.6.19	Ps.17.14	2
1Tim.6.19	Prov.10.25	2
1Tim.6.19	Prov.31.25	2
1Tim.6.19	Matt.10.41-Matt.10.42	2
1Tim.6.19	Matt.19.21	2
1Tim.6.19	Matt.25.34-Matt.25.40	2
1Tim.6.19	Luke.6.48-Luke.6.49	2
1Tim.6.19	Luke.12.33	2
1Tim.6.19	Luke.16.25	2
1Tim.6.19	Luke.18.2	2
1Tim.6.19	Luke.18.22	2
1Tim.6.19	Gal.5.6	2
1Tim.6.19	Gal.6.8-Gal.6.9	2
1Tim.6.19	Eph.3.17	2
1Tim.6.19	Phil.3.14	2
1Tim.6.19	2Tim.2.19	2
1Tim.6.19	1Pet.1.4	2
1Tim.6.20	Col.2.8	5
1Tim.6.20	2Tim.2.16	4
1Tim.6.20	Titus.1.14	4
1Tim.6.20	Acts.17.21	3
1Tim.6.20	Rom.3.2	3
1Tim.6.20	Col.2.18	3
1Tim.6.20	1Tim.1.4	3
1Tim.6.20	1Tim.1.6	3
1Tim.6.20	1Tim.4.7	3
1Tim.6.20	2Tim.3.14-2Tim.3.16	3
1Tim.6.20	Acts.17.18	2
1Tim.6.20	Rom.1.22	2
1Tim.6.20	1Cor.1.19-1Cor.1.23	2
1Tim.6.20	1Cor.2.6	2
1Tim.6.20	1Cor.3.19	2
1Tim.6.20	2Thess.1.4	2
1Tim.6.20	2Thess.2.15	2
1Tim.6.20	1Tim.1.11	2
1Tim.6.20	1Tim.6.4-1Tim.6.5	2
1Tim.6.20	1Tim.6.11	2
1Tim.6.20	1Tim.6.14	2
1Tim.6.20	2Tim.1.12-2Tim.1.14	2
1Tim.6.20	2Tim.2.1	2
1Tim.6.20	Titus.1.4	2
1Tim.6.20	Titus.1.9	2
1Tim.6.20	Titus.3.9	2
1Tim.6.20	Rev.3.3	2
1Tim.6.21	2Tim.2.18	4
1Tim.6.21	Col.4.18	3
1Tim.6.21	1Tim.1.19	3
1Tim.6.21	Matt.6.13	2
1Tim.6.21	Rom.1.7	2
1Tim.6.21	Rom.16.20	2
1Tim.6.21	Rom.16.23	2
1Tim.6.21	1Tim.1.6	2
1Tim.6.21	1Tim.6.10	2
1Tim.6.21	2Tim.4.22	2
1Tim.6.21	Titus.3.15	2
1Tim.6.21	Heb.10.1-Heb.10.12	2
1Tim.6.21	Heb.13.25	2