Joel.1.1	Jer.1.2	4
Joel.1.1	Acts.2.16	4
Joel.1.1	Ezek.1.3	3
Joel.1.1	Hos.1.1	3
Joel.1.1	2Pet.1.21	2
Joel.1.2	Hos.5.1	5
Joel.1.2	Joel.2.2	5
Joel.1.2	Job.8.8	3
Joel.1.2	Jer.30.7	3
Joel.1.2	Deut.4.32-Deut.4.35	2
Joel.1.2	Job.12.12	2
Joel.1.2	Job.15.10	2
Joel.1.2	Job.21.7	2
Joel.1.2	Ps.49.1	2
Joel.1.2	Isa.7.17	2
Joel.1.2	Isa.34.1	2
Joel.1.2	Jer.5.21	2
Joel.1.2	Dan.12.1	2
Joel.1.2	Hos.4.1	2
Joel.1.2	Joel.1.14	2
Joel.1.2	Amos.3.1	2
Joel.1.2	Amos.4.1	2
Joel.1.2	Amos.5.1	2
Joel.1.2	Mic.1.2	2
Joel.1.2	Mic.3.1	2
Joel.1.2	Mic.3.9	2
Joel.1.2	Matt.13.9	2
Joel.1.2	Matt.24.21	2
Joel.1.2	Rev.2.7	2
Joel.1.3	Exod.10.1-Exod.10.2	2
Joel.1.3	Exod.13.14	2
Joel.1.3	Deut.6.7	2
Joel.1.3	Josh.4.6-Josh.4.7	2
Joel.1.3	Josh.4.21-Josh.4.22	2
Joel.1.3	Ps.44.1	2
Joel.1.3	Ps.71.18	2
Joel.1.3	Ps.78.3-Ps.78.8	2
Joel.1.3	Ps.145.4	2
Joel.1.3	Isa.38.19	2
Joel.1.4	Joel.2.25	6
Joel.1.4	Amos.4.9	4
Joel.1.4	Exod.10.4	3
Joel.1.4	Deut.28.38	3
Joel.1.4	Ps.78.46	3
Joel.1.4	Ps.105.34	3
Joel.1.4	Isa.33.4	3
Joel.1.4	Amos.7.1	3
Joel.1.4	Exod.10.12-Exod.10.15	2
Joel.1.4	Deut.28.42	2
Joel.1.4	1Kgs.8.37	2
Joel.1.4	2Chr.6.28	2
Joel.1.4	2Chr.7.13	2
Joel.1.4	Jer.51.14	2
Joel.1.4	Jer.51.27	2
Joel.1.4	Nah.3.15-Nah.3.17	2
Joel.1.4	Rev.9.3-Rev.9.7	2
Joel.1.5	Isa.24.7-Isa.24.11	2
Joel.1.5	Isa.32.10-Isa.32.12	2
Joel.1.5	Jer.4.8	2
Joel.1.5	Ezek.30.2	2
Joel.1.5	Joel.1.11	2
Joel.1.5	Joel.1.13	2
Joel.1.5	Joel.3.3	2
Joel.1.5	Amos.6.3-Amos.6.7	2
Joel.1.5	Luke.16.19	2
Joel.1.5	Luke.16.23-Luke.16.25	2
Joel.1.5	Luke.21.34-Luke.21.36	2
Joel.1.5	Rom.13.11-Rom.13.14	2
Joel.1.5	Jas.5.1	2
Joel.1.6	Joel.2.25	4
Joel.1.6	Ps.107.34	2
Joel.1.6	Prov.30.14	2
Joel.1.6	Prov.30.25-Prov.30.27	2
Joel.1.6	Isa.8.8	2
Joel.1.6	Isa.32.13	2
Joel.1.6	Hos.9.3	2
Joel.1.6	Joel.2.2-Joel.2.11	2
Joel.1.6	Rev.9.7-Rev.9.10	2
Joel.1.7	Isa.5.6	4
Joel.1.7	Joel.1.12	3
Joel.1.7	Exod.10.15	2
Joel.1.7	Ps.105.33	2
Joel.1.7	Isa.24.7	2
Joel.1.7	Jer.8.13	2
Joel.1.7	Hos.2.12	2
Joel.1.7	Amos.4.9	2
Joel.1.7	Hab.3.17	2
Joel.1.8	Isa.22.12	4
Joel.1.8	Prov.2.17	2
Joel.1.8	Isa.24.7-Isa.24.12	2
Joel.1.8	Isa.32.11	2
Joel.1.8	Jer.3.4	2
Joel.1.8	Jer.9.17-Jer.9.19	2
Joel.1.8	Joel.1.13-Joel.1.15	2
Joel.1.8	Joel.2.12-Joel.2.14	2
Joel.1.8	Amos.8.10	2
Joel.1.8	Mal.2.15	2
Joel.1.8	Jas.4.8-Jas.4.9	2
Joel.1.8	Jas.5.1	2
Joel.1.9	Joel.2.14	5
Joel.1.9	Joel.2.17	5
Joel.1.9	Hos.9.4	4
Joel.1.9	Joel.1.13	4
Joel.1.9	Isa.61.6	3
Joel.1.9	Exod.28.1	2
Joel.1.9	2Chr.13.10	2
Joel.1.9	Lam.1.4	2
Joel.1.9	Lam.1.16	2
Joel.1.9	Joel.1.16	2
Joel.1.10	Jer.12.11	3
Joel.1.10	Hos.4.3	3
Joel.1.10	Hos.9.2	3
Joel.1.10	Joel.1.5	3
Joel.1.10	Lev.26.20	2
Joel.1.10	Isa.24.3-Isa.24.4	2
Joel.1.10	Isa.24.11	2
Joel.1.10	Jer.12.4	2
Joel.1.10	Jer.14.2-Jer.14.6	2
Joel.1.10	Jer.48.33	2
Joel.1.10	Joel.1.12	2
Joel.1.10	Joel.1.17-Joel.1.20	2
Joel.1.10	Hag.1.11	2
Joel.1.11	Isa.17.11	4
Joel.1.11	Jer.9.12	3
Joel.1.11	Jer.14.3-Jer.14.4	3
Joel.1.11	Amos.5.16	2
Joel.1.11	Rom.5.5	2
Joel.1.12	Isa.24.11	4
Joel.1.12	Song.2.3	3
Joel.1.12	Isa.16.10	3
Joel.1.12	Joel.1.10	3
Joel.1.12	Num.13.23	2
Joel.1.12	Ps.4.7	2
Joel.1.12	Ps.92.12	2
Joel.1.12	Song.4.13	2
Joel.1.12	Song.7.7-Song.7.9	2
Joel.1.12	Isa.9.3	2
Joel.1.12	Jer.48.3	2
Joel.1.12	Jer.48.33	2
Joel.1.12	Hos.9.1-Hos.9.2	2
Joel.1.12	Joel.1.16	2
Joel.1.12	Hab.3.17-Hab.3.18	2
Joel.1.12	Hag.2.19	2
Joel.1.13	Jer.4.8	5
Joel.1.13	Joel.1.8-Joel.1.9	4
Joel.1.13	1Kgs.21.27	3
Joel.1.13	Jer.9.10	3
Joel.1.13	Ezek.7.18	3
Joel.1.13	Joel.2.17	3
Joel.1.13	Lev.2.8-Lev.2.10	2
Joel.1.13	Num.29.6	2
Joel.1.13	2Sam.12.16	2
Joel.1.13	Isa.61.6	2
Joel.1.13	Jonah.3.5-Jonah.3.8	2
Joel.1.13	1Cor.4.1	2
Joel.1.13	1Cor.9.13	2
Joel.1.13	2Cor.3.6	2
Joel.1.13	2Cor.6.4	2
Joel.1.13	2Cor.11.23	2
Joel.1.13	Heb.7.13-Heb.7.14	2
Joel.1.14	Joel.2.15-Joel.2.16	4
Joel.1.14	Jonah.3.8	4
Joel.1.14	Lev.23.36	3
Joel.1.14	Deut.29.10-Deut.29.11	2
Joel.1.14	2Chr.20.3-2Chr.20.4	2
Joel.1.14	2Chr.20.13	2
Joel.1.14	Neh.8.18	2
Joel.1.14	Neh.9.2-Neh.9.3	2
Joel.1.15	Jer.30.7	4
Joel.1.15	Ezek.7.2-Ezek.7.12	3
Joel.1.15	Joel.2.11	3
Joel.1.15	Joel.2.31	3
Joel.1.15	Ps.37.13	2
Joel.1.15	Isa.13.6-Isa.13.9	2
Joel.1.15	Ezek.12.22-Ezek.12.28	2
Joel.1.15	Joel.2.1-Joel.2.2	2
Joel.1.15	Amos.5.16-Amos.5.18	2
Joel.1.15	Zeph.1.14-Zeph.1.18	2
Joel.1.15	Luke.19.41-Luke.19.44	2
Joel.1.15	Jas.5.9	2
Joel.1.15	Rev.6.17	2
Joel.1.16	Deut.12.6-Deut.12.7	3
Joel.1.16	Ps.43.4	3
Joel.1.16	Deut.12.11-Deut.12.12	2
Joel.1.16	Deut.16.10-Deut.16.15	2
Joel.1.16	Ps.105.3	2
Joel.1.16	Isa.3.7	2
Joel.1.16	Isa.62.8-Isa.62.9	2
Joel.1.16	Joel.1.5-Joel.1.9	2
Joel.1.16	Joel.1.13	2
Joel.1.16	Amos.4.6-Amos.4.7	2
Joel.1.17	Gen.23.16	2
Joel.1.17	Isa.17.10-Isa.17.11	2
Joel.1.18	Jer.12.4	4
Joel.1.18	Hos.4.3	4
Joel.1.18	Jer.14.5-Jer.14.6	3
Joel.1.18	1Kgs.18.5	2
Joel.1.18	Joel.1.20	2
Joel.1.18	Rom.8.22	2
Joel.1.19	Ps.50.15	5
Joel.1.19	Jer.9.10	5
Joel.1.19	Amos.7.4	4
Joel.1.19	Mic.7.7	3
Joel.1.19	Ps.91.15	2
Joel.1.19	Joel.2.3	2
Joel.1.19	Hab.3.17-Hab.3.18	2
Joel.1.19	Luke.18.1	2
Joel.1.19	Luke.18.7	2
Joel.1.19	Phil.4.6-Phil.4.7	2
Joel.1.20	Ps.104.21	5
Joel.1.20	1Kgs.17.7	4
Joel.1.20	1Kgs.18.5	3
Joel.1.20	Job.38.41	3
Joel.1.20	Ps.145.15	3
Joel.1.20	Ps.147.9	3
Joel.2.1	Joel.1.15	5
Joel.2.1	Joel.2.15	5
Joel.2.1	Jer.4.5	4
Joel.2.1	Obad.1.15	4
Joel.2.1	Zeph.1.16	4
Joel.2.1	Num.10.5-Num.10.9	3
Joel.2.1	Hos.5.8	3
Joel.2.1	Joel.3.17	3
Joel.2.1	Amos.3.6	3
Joel.2.1	Num.10.3	2
Joel.2.1	1Chr.15.28	2
Joel.2.1	Ezra.9.3-Ezra.9.4	2
Joel.2.1	Ps.87.1	2
Joel.2.1	Ps.119.120	2
Joel.2.1	Isa.2.12	2
Joel.2.1	Isa.66.2	2
Joel.2.1	Isa.66.5	2
Joel.2.1	Jer.5.22	2
Joel.2.1	Jer.16.7	2
Joel.2.1	Jer.16.10	2
Joel.2.1	Ezek.7.5-Ezek.7.7	2
Joel.2.1	Ezek.7.10	2
Joel.2.1	Ezek.7.12	2
Joel.2.1	Ezek.12.23	2
Joel.2.1	Ezek.33.3	2
Joel.2.1	Ezek.33.6	2
Joel.2.1	Dan.6.26	2
Joel.2.1	Dan.9.16	2
Joel.2.1	Dan.9.20	2
Joel.2.1	Hos.8.1	2
Joel.2.1	Amos.8.2	2
Joel.2.1	Zeph.1.14	2
Joel.2.1	Zeph.3.11	2
Joel.2.1	Zech.8.3	2
Joel.2.1	Mal.4.1	2
Joel.2.1	1Thess.5.2	2
Joel.2.1	Jas.5.8	2
Joel.2.1	1Pet.4.7	2
Joel.2.1	Phil.2.12	1
Joel.2.2	Joel.1.6	5
Joel.2.2	Joel.2.25	4
Joel.2.2	Dan.12.1	3
Joel.2.2	Joel.2.10-Joel.2.11	3
Joel.2.2	Joel.2.31	3
Joel.2.2	Exod.10.6	2
Joel.2.2	Exod.10.14	2
Joel.2.2	Exod.20.21	2
Joel.2.2	Deut.32.7	2
Joel.2.2	Ps.10.6	2
Joel.2.2	Ps.97.2	2
Joel.2.2	Isa.5.30	2
Joel.2.2	Isa.8.22	2
Joel.2.2	Jer.13.16	2
Joel.2.2	Dan.9.12	2
Joel.2.2	Joel.1.2-Joel.1.3	2
Joel.2.2	Joel.2.5	2
Joel.2.2	Joel.3.14-Joel.3.15	2
Joel.2.2	Amos.4.13	2
Joel.2.2	Amos.5.18-Amos.5.20	2
Joel.2.2	Zeph.1.14-Zeph.1.15	2
Joel.2.2	Mark.13.19	2
Joel.2.2	Heb.12.18	2
Joel.2.2	Jude.1.13	2
Joel.2.3	Gen.2.8	4
Joel.2.3	Isa.51.3	4
Joel.2.3	Zech.7.14	4
Joel.2.3	Exod.10.5	3
Joel.2.3	Exod.10.15	3
Joel.2.3	Joel.1.19-Joel.1.20	3
Joel.2.3	Gen.13.10	2
Joel.2.3	Ps.50.3	2
Joel.2.3	Ps.105.34-Ps.105.35	2
Joel.2.3	Jer.5.17	2
Joel.2.3	Ezek.31.8-Ezek.31.9	2
Joel.2.3	Joel.1.4-Joel.1.7	2
Joel.2.3	Amos.7.4	2
Joel.2.4	Rev.9.7	5
Joel.2.5	Isa.5.24	5
Joel.2.5	Rev.9.9	5
Joel.2.5	Isa.30.30	4
Joel.2.5	Nah.2.3-Nah.2.4	2
Joel.2.5	Nah.3.2-Nah.3.3	2
Joel.2.5	Matt.3.12	2
Joel.2.6	Nah.2.10	5
Joel.2.6	Isa.13.8	4
Joel.2.6	Jer.30.6	3
Joel.2.6	Ps.119.83	2
Joel.2.6	Jer.8.21	2
Joel.2.6	Lam.4.8	2
Joel.2.7	Prov.30.27	3
Joel.2.7	2Sam.1.23	2
Joel.2.7	2Sam.2.18-2Sam.2.19	2
Joel.2.7	2Sam.5.8	2
Joel.2.7	Ps.19.5	2
Joel.2.7	Isa.5.26-Isa.5.29	2
Joel.2.7	Jer.5.10	2
Joel.2.7	Joel.2.9	2
Joel.2.8	2Chr.23.10	2
Joel.2.8	2Chr.32.5	2
Joel.2.8	Neh.4.17	2
Joel.2.8	Neh.4.23	2
Joel.2.8	Job.33.18	2
Joel.2.8	Job.36.12	2
Joel.2.8	Song.4.13	2
Joel.2.9	Jer.9.21	5
Joel.2.9	John.10.1	4
Joel.2.9	Exod.10.6	3
Joel.2.10	Matt.24.29	6
Joel.2.10	Ps.18.7	5
Joel.2.10	Isa.13.10	5
Joel.2.10	Rev.8.12	4
Joel.2.10	Isa.34.4	3
Joel.2.10	Jer.4.23	3
Joel.2.10	Joel.2.31	3
Joel.2.10	Nah.1.5	3
Joel.2.10	Ps.114.7	2
Joel.2.10	Ezek.32.7-Ezek.32.8	2
Joel.2.10	Joel.2.2	2
Joel.2.10	Joel.3.15-Joel.3.16	2
Joel.2.10	Amos.5.8	2
Joel.2.10	Matt.27.51	2
Joel.2.10	Mark.13.24-Mark.13.25	2
Joel.2.10	Luke.21.25-Luke.21.26	2
Joel.2.10	Acts.2.20	2
Joel.2.10	Rev.6.12	2
Joel.2.10	Rev.20.11	2
Joel.2.11	Rev.18.8	5
Joel.2.11	Joel.3.16	4
Joel.2.11	Mal.3.2	4
Joel.2.11	Num.24.23	3
Joel.2.11	Ps.46.6	3
Joel.2.11	Isa.13.4	3
Joel.2.11	Jer.25.30	3
Joel.2.11	Jer.30.7	3
Joel.2.11	Jer.50.34	3
Joel.2.11	Joel.1.15	3
Joel.2.11	Rev.6.17	3
Joel.2.11	2Sam.22.14-2Sam.22.15	2
Joel.2.11	Isa.7.18	2
Joel.2.11	Isa.42.13	2
Joel.2.11	Ezek.22.14	2
Joel.2.11	Joel.2.25	2
Joel.2.11	Joel.2.31	2
Joel.2.11	Amos.1.2	2
Joel.2.11	Amos.5.18	2
Joel.2.11	Amos.5.20	2
Joel.2.11	Nah.1.6	2
Joel.2.11	Zeph.1.14-Zeph.1.15	2
Joel.2.12	Jer.4.1	5
Joel.2.12	Hos.12.6	5
Joel.2.12	Deut.4.29-Deut.4.30	3
Joel.2.12	1Sam.7.3	3
Joel.2.12	1Sam.7.6	3
Joel.2.12	Judg.20.26	2
Joel.2.12	1Kgs.8.47-1Kgs.8.49	2
Joel.2.12	2Chr.6.38-2Chr.6.39	2
Joel.2.12	2Chr.7.13-2Chr.7.14	2
Joel.2.12	2Chr.20.3-2Chr.20.4	2
Joel.2.12	Neh.9.1-Neh.9.2	2
Joel.2.12	Isa.22.12	2
Joel.2.12	Isa.55.6-Isa.55.7	2
Joel.2.12	Jer.29.12-Jer.29.13	2
Joel.2.12	Lam.3.40-Lam.3.41	2
Joel.2.12	Hos.6.1	2
Joel.2.12	Hos.14.1	2
Joel.2.12	Jonah.3.5-Jonah.3.8	2
Joel.2.12	Zech.1.3-Zech.1.4	2
Joel.2.12	Zech.7.3	2
Joel.2.12	Zech.7.5	2
Joel.2.12	Zech.12.10-Zech.12.14	2
Joel.2.12	Acts.26.20	2
Joel.2.12	Jas.4.8-Jas.4.9	2
Joel.2.13	Ps.34.18	5
Joel.2.13	Jonah.4.2	5
Joel.2.13	Job.1.20	4
Joel.2.13	Isa.57.15	4
Joel.2.13	Gen.37.29	3
Joel.2.13	Gen.37.34	3
Joel.2.13	2Sam.1.11	3
Joel.2.13	1Kgs.21.27	3
Joel.2.13	Ps.51.17	3
Joel.2.13	Ps.86.5	3
Joel.2.13	Ps.86.15	3
Joel.2.13	Exod.34.6-Exod.34.7	2
Joel.2.13	Num.14.18	2
Joel.2.13	2Kgs.5.7	2
Joel.2.13	2Kgs.6.30	2
Joel.2.13	2Kgs.22.11	2
Joel.2.13	2Kgs.22.19	2
Joel.2.13	Neh.9.17	2
Joel.2.13	Ps.103.8	2
Joel.2.13	Ps.106.45	2
Joel.2.13	Ps.145.7-Ps.145.9	2
Joel.2.13	Isa.58.5	2
Joel.2.13	Isa.66.2	2
Joel.2.13	Jer.18.7-Jer.18.8	2
Joel.2.13	Ezek.9.4	2
Joel.2.13	Amos.7.2-Amos.7.6	2
Joel.2.13	Mic.7.18	2
Joel.2.13	Nah.1.3	2
Joel.2.13	Matt.5.3-Matt.5.4	2
Joel.2.13	Matt.6.16-Matt.6.18	2
Joel.2.13	Rom.2.4	2
Joel.2.13	Rom.5.20-Rom.5.21	2
Joel.2.13	Eph.2.4	2
Joel.2.13	1Tim.4.8	2
Joel.2.13	Jas.1.19-Jas.1.20	2
Joel.2.14	Joel.1.13	5
Joel.2.14	Hag.2.19	5
Joel.2.14	Joel.1.9	4
Joel.2.14	Jonah.3.9	4
Joel.2.14	Exod.32.30	2
Joel.2.14	Josh.14.12	2
Joel.2.14	1Sam.6.5	2
Joel.2.14	2Sam.12.22	2
Joel.2.14	2Kgs.19.4	2
Joel.2.14	Isa.65.8	2
Joel.2.14	Jer.26.3	2
Joel.2.14	Joel.1.16	2
Joel.2.14	Amos.5.15	2
Joel.2.14	Jonah.1.6	2
Joel.2.14	Zeph.2.3	2
Joel.2.14	2Cor.9.5-2Cor.9.11	2
Joel.2.14	2Tim.2.25	2
Joel.2.15	Joel.1.14	5
Joel.2.15	Num.10.3	3
Joel.2.15	2Kgs.10.20	3
Joel.2.15	Jer.36.9	3
Joel.2.15	Joel.2.1	3
Joel.2.15	1Kgs.21.9	2
Joel.2.15	1Kgs.21.12	2
Joel.2.16	Exod.19.10	3
Joel.2.16	Exod.19.22	3
Joel.2.16	1Sam.16.5	3
Joel.2.16	2Chr.20.13	3
Joel.2.16	2Chr.29.5	3
Joel.2.16	1Cor.7.5	3
Joel.2.16	Exod.19.15	2
Joel.2.16	Deut.29.10-Deut.29.11	2
Joel.2.16	Josh.7.13	2
Joel.2.16	2Chr.29.23-2Chr.29.24	2
Joel.2.16	2Chr.30.17	2
Joel.2.16	2Chr.30.19	2
Joel.2.16	2Chr.35.6	2
Joel.2.16	Job.1.5	2
Joel.2.16	Ps.19.5	2
Joel.2.16	Joel.1.14	2
Joel.2.16	Jonah.3.7-Jonah.3.8	2
Joel.2.16	Zech.12.11-Zech.12.14	2
Joel.2.16	Matt.9.15	2
Joel.2.17	Ezek.8.16	5
Joel.2.17	Ps.79.10	4
Joel.2.17	Ps.115.2	4
Joel.2.17	1Kgs.6.3	3
Joel.2.17	2Chr.8.12	3
Joel.2.17	Ps.42.10	3
Joel.2.17	Ps.74.10	3
Joel.2.17	Isa.37.20	3
Joel.2.17	Joel.1.9	3
Joel.2.17	Amos.7.2	3
Joel.2.17	Amos.7.5	3
Joel.2.17	Matt.23.35	3
Joel.2.17	Exod.32.11-Exod.32.13	2
Joel.2.17	Exod.34.9	2
Joel.2.17	Num.14.14-Num.14.16	2
Joel.2.17	Deut.9.16-Deut.9.29	2
Joel.2.17	Deut.28.37	2
Joel.2.17	Deut.32.27	2
Joel.2.17	1Kgs.9.7	2
Joel.2.17	2Chr.7.20	2
Joel.2.17	Neh.9.36	2
Joel.2.17	Ps.42.3	2
Joel.2.17	Ps.44.10-Ps.44.14	2
Joel.2.17	Ps.74.18-Ps.74.23	2
Joel.2.17	Ps.79.4	2
Joel.2.17	Ps.89.41	2
Joel.2.17	Ps.89.51	2
Joel.2.17	Isa.63.17-Isa.63.19	2
Joel.2.17	Isa.64.9-Isa.64.12	2
Joel.2.17	Ezek.20.9	2
Joel.2.17	Ezek.36.4-Ezek.36.7	2
Joel.2.17	Dan.9.18-Dan.9.19	2
Joel.2.17	Hos.14.2	2
Joel.2.17	Joel.1.13	2
Joel.2.17	Mic.7.10	2
Joel.2.17	Mal.1.9	2
Joel.2.17	Matt.27.43	2
Joel.2.18	Zech.1.14	5
Joel.2.18	Zech.8.2	4
Joel.2.18	Ps.103.13	3
Joel.2.18	Isa.60.10	3
Joel.2.18	Isa.63.9	3
Joel.2.18	Isa.63.15	3
Joel.2.18	Deut.32.16	2
Joel.2.18	Deut.32.36	2
Joel.2.18	Deut.32.43	2
Joel.2.18	Judg.10.16	2
Joel.2.18	Ps.103.17	2
Joel.2.18	Isa.42.13	2
Joel.2.18	Jer.31.20	2
Joel.2.18	Lam.3.22	2
Joel.2.18	Hos.11.8-Hos.11.9	2
Joel.2.18	Luke.15.20	2
Joel.2.18	Jas.5.11	2
Joel.2.19	Ezek.34.29	4
Joel.2.19	Joel.1.10	4
Joel.2.19	Ezek.36.15	3
Joel.2.19	Mal.3.10-Mal.3.12	3
Joel.2.19	Isa.62.8-Isa.62.9	2
Joel.2.19	Isa.65.21-Isa.65.24	2
Joel.2.19	Jer.31.12	2
Joel.2.19	Ezek.39.29	2
Joel.2.19	Hos.2.15	2
Joel.2.19	Joel.2.24	2
Joel.2.19	Amos.9.13-Amos.9.14	2
Joel.2.19	Hag.2.16-Hag.2.19	2
Joel.2.19	Matt.6.33	2
Joel.2.20	Zech.14.8	5
Joel.2.20	Deut.11.24	4
Joel.2.20	Isa.34.3	4
Joel.2.20	Ezek.47.18	3
Joel.2.20	Exod.10.19	2
Joel.2.20	Jer.1.14-Jer.1.15	2
Joel.2.20	Ezek.39.12-Ezek.39.16	2
Joel.2.20	Ezek.47.7-Ezek.47.8	2
Joel.2.20	Joel.1.4-Joel.1.6	2
Joel.2.20	Joel.2.2-Joel.2.11	2
Joel.2.20	Amos.4.10	2
Joel.2.20	2Kgs.8.13	1
Joel.2.21	Isa.54.4	4
Joel.2.21	Zeph.3.16-Zeph.3.17	4
Joel.2.21	Gen.15.1	2
Joel.2.21	Deut.4.32	2
Joel.2.21	1Sam.12.16	2
Joel.2.21	1Sam.12.24	2
Joel.2.21	Ps.65.12-Ps.65.13	2
Joel.2.21	Ps.71.19	2
Joel.2.21	Ps.96.11-Ps.96.12	2
Joel.2.21	Ps.98.8	2
Joel.2.21	Ps.126.1-Ps.126.3	2
Joel.2.21	Isa.35.1	2
Joel.2.21	Isa.41.10	2
Joel.2.21	Isa.44.23	2
Joel.2.21	Isa.55.12	2
Joel.2.21	Jer.30.9-Jer.30.10	2
Joel.2.21	Jer.33.3	2
Joel.2.21	Hos.2.21	2
Joel.2.21	Joel.2.20	2
Joel.2.21	Zech.8.15	2
Joel.2.22	Ps.65.12	4
Joel.2.22	Joel.1.18-Joel.1.20	3
Joel.2.22	Zech.8.12	3
Joel.2.22	Gen.4.12	2
Joel.2.22	Lev.26.4-Lev.26.5	2
Joel.2.22	Ps.36.6	2
Joel.2.22	Ps.67.6	2
Joel.2.22	Ps.104.11-Ps.104.14	2
Joel.2.22	Ps.104.27-Ps.104.29	2
Joel.2.22	Ps.107.35-Ps.107.38	2
Joel.2.22	Ps.145.15-Ps.145.16	2
Joel.2.22	Ps.147.8-Ps.147.9	2
Joel.2.22	Isa.30.23-Isa.30.24	2
Joel.2.22	Isa.51.3	2
Joel.2.22	Ezek.34.26-Ezek.34.27	2
Joel.2.22	Ezek.36.8	2
Joel.2.22	Ezek.36.30	2
Joel.2.22	Ezek.36.35	2
Joel.2.22	Hos.14.5-Hos.14.7	2
Joel.2.22	Amos.9.14-Amos.9.15	2
Joel.2.22	Jonah.4.11	2
Joel.2.22	Hag.2.16	2
Joel.2.22	Mal.3.10-Mal.3.12	2
Joel.2.22	1Cor.3.7	2
Joel.2.23	Lev.26.4	5
Joel.2.23	Deut.11.14	4
Joel.2.23	Ps.149.2	4
Joel.2.23	Isa.41.16	4
Joel.2.23	Hos.6.3	4
Joel.2.23	Zech.10.7	4
Joel.2.23	Isa.12.2-Isa.12.6	3
Joel.2.23	Zech.10.1	3
Joel.2.23	Deut.28.12	2
Joel.2.23	Deut.32.2	2
Joel.2.23	Job.33.23	2
Joel.2.23	Ps.28.7	2
Joel.2.23	Ps.32.11-Ps.33.1	2
Joel.2.23	Ps.72.6-Ps.72.7	2
Joel.2.23	Ps.95.1-Ps.95.3	2
Joel.2.23	Ps.104.34	2
Joel.2.23	Prov.16.15	2
Joel.2.23	Isa.30.21	2
Joel.2.23	Isa.30.23	2
Joel.2.23	Isa.61.10	2
Joel.2.23	Jer.3.3	2
Joel.2.23	Jer.5.24	2
Joel.2.23	Lam.4.2	2
Joel.2.23	Joel.2.28-Joel.2.29	2
Joel.2.23	Amos.4.7	2
Joel.2.23	Hab.3.17-Hab.3.18	2
Joel.2.23	Zeph.3.14-Zeph.3.17	2
Joel.2.23	Zech.9.9	2
Joel.2.23	Zech.9.13	2
Joel.2.23	Luke.1.46-Luke.1.47	2
Joel.2.23	Gal.4.26-Gal.4.27	2
Joel.2.23	Eph.4.8-Eph.4.11	2
Joel.2.23	Phil.3.1	2
Joel.2.23	Phil.3.3	2
Joel.2.23	Phil.4.4	2
Joel.2.23	Jas.5.7-Jas.5.8	2
Joel.2.24	Lev.26.10	4
Joel.2.24	Amos.9.13	4
Joel.2.24	Mal.3.10	4
Joel.2.24	Prov.3.9-Prov.3.10	2
Joel.2.24	Joel.3.13	2
Joel.2.24	Joel.3.18	2
Joel.2.25	Joel.1.4-Joel.1.7	5
Joel.2.25	Joel.2.2-Joel.2.11	4
Joel.2.25	Zech.10.6	3
Joel.2.26	Lev.26.5	4
Joel.2.26	Isa.25.1	4
Joel.2.26	Deut.12.7	3
Joel.2.26	Ps.126.2-Ps.126.3	3
Joel.2.26	Isa.45.17	3
Joel.2.26	Isa.49.23	3
Joel.2.26	Gen.33.11	2
Joel.2.26	Lev.26.26	2
Joel.2.26	Deut.6.11-Deut.6.12	2
Joel.2.26	Deut.8.10	2
Joel.2.26	Deut.12.12	2
Joel.2.26	Deut.12.18	2
Joel.2.26	Deut.26.10-Deut.26.11	2
Joel.2.26	Neh.9.25	2
Joel.2.26	Ps.13.6	2
Joel.2.26	Ps.22.26	2
Joel.2.26	Ps.25.2-Ps.25.3	2
Joel.2.26	Ps.37.19	2
Joel.2.26	Ps.72.18	2
Joel.2.26	Ps.103.5	2
Joel.2.26	Ps.116.7	2
Joel.2.26	Prov.13.25	2
Joel.2.26	Song.5.1	2
Joel.2.26	Isa.29.22	2
Joel.2.26	Isa.54.4	2
Joel.2.26	Isa.55.2	2
Joel.2.26	Isa.62.8-Isa.62.9	2
Joel.2.26	Joel.2.20-Joel.2.21	2
Joel.2.26	Mic.6.14	2
Joel.2.26	Zeph.3.11	2
Joel.2.26	Zech.9.15	2
Joel.2.26	Zech.9.17	2
Joel.2.26	Rom.5.5	2
Joel.2.26	Rom.9.33	2
Joel.2.26	Rom.10.11	2
Joel.2.26	1Tim.4.3-1Tim.4.5	2
Joel.2.26	1Tim.6.17	2
Joel.2.26	1John.2.28	2
Joel.2.27	Joel.3.17	5
Joel.2.27	Lev.26.11-Lev.26.12	3
Joel.2.27	Isa.45.5	3
Joel.2.27	Joel.2.26	3
Joel.2.27	Deut.23.14	2
Joel.2.27	Ps.46.5	2
Joel.2.27	Ps.68.18	2
Joel.2.27	Isa.12.6	2
Joel.2.27	Isa.45.18	2
Joel.2.27	Isa.45.21-Isa.45.22	2
Joel.2.27	Isa.53.6	2
Joel.2.27	Ezek.37.26-Ezek.37.28	2
Joel.2.27	Ezek.39.22	2
Joel.2.27	Ezek.39.28	2
Joel.2.27	Zeph.3.17	2
Joel.2.27	2Cor.6.16	2
Joel.2.27	1Pet.2.6	2
Joel.2.27	Rev.21.3	2
Joel.2.28	Ezek.39.29	5
Joel.2.28	Isa.32.15	4
Joel.2.28	Isa.44.3	4
Joel.2.28	Zech.12.10	4
Joel.2.28	Isa.40.5	3
Joel.2.28	John.7.39	3
Joel.2.28	Acts.2.39	3
Joel.2.28	Acts.21.9	3
Joel.2.28	Gen.37.5-Gen.37.10	2
Joel.2.28	Num.12.6	2
Joel.2.28	Prov.1.23	2
Joel.2.28	Isa.49.6	2
Joel.2.28	Isa.54.13	2
Joel.2.28	Jer.23.28	2
Joel.2.28	Luke.3.6	2
Joel.2.28	Acts.2.2-Acts.2.4	2
Joel.2.28	Acts.2.16-Acts.2.21	2
Joel.2.28	Acts.2.33	2
Joel.2.28	Acts.10.44-Acts.10.47	2
Joel.2.28	Acts.11.15-Acts.11.18	2
Joel.2.28	Acts.15.7-Acts.15.8	2
Joel.2.28	Gal.3.28	2
Joel.2.29	1Cor.12.13	5
Joel.2.29	Gal.3.28	4
Joel.2.29	Col.3.11	2
Joel.2.30	Luke.21.11	5
Joel.2.30	Matt.24.29	3
Joel.2.30	Luke.21.25-Luke.21.26	3
Joel.2.30	Gen.19.28	2
Joel.2.30	Josh.8.20	2
Joel.2.30	Judg.20.38	2
Joel.2.30	Judg.20.40	2
Joel.2.30	Song.3.6	2
Joel.2.30	Mark.13.24-Mark.13.25	2
Joel.2.30	Acts.2.19-Acts.2.20	2
Joel.2.30	Rev.6.12-Rev.6.17	2
Joel.2.30	Rev.18.9	2
Joel.2.30	Rev.18.18	2
Joel.2.31	Mal.4.5	6
Joel.2.31	Isa.13.9-Isa.13.10	5
Joel.2.31	Joel.2.10	5
Joel.2.31	Mal.4.1	5
Joel.2.31	Matt.24.29	5
Joel.2.31	Joel.3.15	4
Joel.2.31	Zeph.1.14-Zeph.1.16	4
Joel.2.31	Luke.21.25	4
Joel.2.31	Rev.6.12-Rev.6.13	4
Joel.2.31	Isa.34.4-Isa.34.5	3
Joel.2.31	Joel.3.1	3
Joel.2.31	Matt.27.45	3
Joel.2.31	Mark.13.24-Mark.13.25	3
Joel.2.32	Isa.46.13	5
Joel.2.32	Obad.1.17	5
Joel.2.32	Isa.11.11	4
Joel.2.32	Jer.31.7	4
Joel.2.32	Rom.9.27	4
Joel.2.32	Rom.11.26	4
Joel.2.32	Jer.33.3	3
Joel.2.32	Mic.5.3	3
Joel.2.32	2Thess.2.13-2Thess.2.14	3
Joel.2.32	Ps.50.15	2
Joel.2.32	Isa.4.2	2
Joel.2.32	Isa.10.22	2
Joel.2.32	Isa.11.16	2
Joel.2.32	Isa.59.20-Isa.59.21	2
Joel.2.32	Obad.1.21	2
Joel.2.32	Mic.4.6-Mic.4.7	2
Joel.2.32	Mic.5.7-Mic.5.8	2
Joel.2.32	Zech.13.9	2
Joel.2.32	John.4.22	2
Joel.2.32	John.10.16	2
Joel.2.32	Acts.2.20-Acts.2.21	2
Joel.2.32	Acts.2.39	2
Joel.2.32	Acts.15.17	2
Joel.2.32	Rom.8.28-Rom.8.30	2
Joel.2.32	Rom.9.24	2
Joel.2.32	Rom.10.11-Rom.10.14	2
Joel.2.32	Rom.11.5	2
Joel.2.32	Rom.11.7	2
Joel.2.32	1Cor.1.2	2
Joel.2.32	Heb.12.22	2
Joel.3.1	Jer.16.15	4
Joel.3.1	Jer.30.3	4
Joel.3.1	Deut.30.3	2
Joel.3.1	2Chr.6.37-2Chr.6.38	2
Joel.3.1	Ps.14.7	2
Joel.3.1	Ps.85.1	2
Joel.3.1	Isa.11.11-Isa.11.16	2
Joel.3.1	Jer.23.3-Jer.23.8	2
Joel.3.1	Jer.29.14	2
Joel.3.1	Jer.30.18	2
Joel.3.1	Ezek.16.53	2
Joel.3.1	Ezek.37.21-Ezek.37.22	2
Joel.3.1	Ezek.38.14-Ezek.38.18	2
Joel.3.1	Ezek.39.25	2
Joel.3.1	Ezek.39.28-Ezek.39.29	2
Joel.3.1	Dan.12.1	2
Joel.3.1	Joel.2.29	2
Joel.3.1	Amos.9.14	2
Joel.3.1	Zeph.3.19-Zeph.3.20	2
Joel.3.2	Isa.66.16	4
Joel.3.2	Ezek.35.10	3
Joel.3.2	Ezek.38.22	3
Joel.3.2	Joel.3.12	3
Joel.3.2	Zeph.3.8	3
Joel.3.2	Zech.14.2-Zech.14.4	3
Joel.3.2	2Chr.20.26	2
Joel.3.2	Jer.12.14	2
Joel.3.2	Jer.25.31	2
Joel.3.2	Jer.49.1	2
Joel.3.2	Ezek.25.8	2
Joel.3.2	Ezek.36.5	2
Joel.3.2	Ezek.39.11	2
Joel.3.2	Amos.1.11	2
Joel.3.2	Obad.1.10-Obad.1.16	2
Joel.3.2	Zeph.2.8-Zeph.2.10	2
Joel.3.2	Zech.12.3-Zech.12.4	2
Joel.3.2	Rev.11.18	2
Joel.3.2	Rev.16.6	2
Joel.3.2	Rev.16.14	2
Joel.3.2	Rev.16.16	2
Joel.3.2	Rev.18.20-Rev.18.21	2
Joel.3.2	Rev.19.19-Rev.19.21	2
Joel.3.2	Rev.20.8	2
Joel.3.3	Amos.2.6	4
Joel.3.3	Obad.1.11	4
Joel.3.3	Nah.3.10	4
Joel.3.3	2Chr.28.8-2Chr.28.9	2
Joel.3.3	Rev.18.13	2
Joel.3.4	Isa.34.8	4
Joel.3.4	Isa.59.18	3
Joel.3.4	Amos.1.6-Amos.1.10	3
Joel.3.4	Deut.32.35	2
Joel.3.4	Judg.11.12	2
Joel.3.4	2Chr.21.16	2
Joel.3.4	2Chr.28.17-2Chr.28.18	2
Joel.3.4	Isa.23.1-Isa.23.2	2
Joel.3.4	Jer.47.4	2
Joel.3.4	Jer.51.6	2
Joel.3.4	Ezek.25.12-Ezek.25.17	2
Joel.3.4	Amos.1.12-Amos.1.14	2
Joel.3.4	Zech.9.2-Zech.9.8	2
Joel.3.4	Matt.11.21	2
Joel.3.4	Luke.18.7	2
Joel.3.4	Acts.9.4	2
Joel.3.4	2Thess.1.6	2
Joel.3.5	2Kgs.12.18	3
Joel.3.5	2Chr.21.16-2Chr.21.17	3
Joel.3.5	1Sam.5.2-1Sam.5.5	2
Joel.3.5	2Kgs.16.8	2
Joel.3.5	2Kgs.18.15-2Kgs.18.16	2
Joel.3.5	2Kgs.24.13	2
Joel.3.5	2Kgs.25.13-2Kgs.25.17	2
Joel.3.5	Jer.50.28	2
Joel.3.5	Jer.51.11	2
Joel.3.5	Dan.5.2-Dan.5.3	2
Joel.3.5	Dan.11.38	2
Joel.3.6	Ezek.27.13	3
Joel.3.6	Joel.3.3	3
Joel.3.6	Deut.28.32	2
Joel.3.6	Deut.28.68	2
Joel.3.6	Joel.3.8	2
Joel.3.7	Isa.43.5-Isa.43.6	4
Joel.3.7	Jer.23.8	4
Joel.3.7	Joel.3.4	3
Joel.3.7	2Thess.1.6	3
Joel.3.7	Judg.1.7	2
Joel.3.7	1Sam.15.33	2
Joel.3.7	Esth.7.10	2
Joel.3.7	Isa.11.12	2
Joel.3.7	Isa.49.12	2
Joel.3.7	Jer.30.10	2
Joel.3.7	Jer.30.16	2
Joel.3.7	Jer.31.8	2
Joel.3.7	Jer.32.37	2
Joel.3.7	Ezek.34.12-Ezek.34.13	2
Joel.3.7	Ezek.36.24	2
Joel.3.7	Ezek.38.8	2
Joel.3.7	Zech.10.6-Zech.10.10	2
Joel.3.7	Matt.7.2	2
Joel.3.7	Jas.2.13	2
Joel.3.7	Rev.13.10	2
Joel.3.7	Rev.16.6	2
Joel.3.7	Rev.19.2	2
Joel.3.8	Isa.60.14	4
Joel.3.8	Job.1.15	3
Joel.3.8	Deut.32.30	2
Joel.3.8	Judg.2.14	2
Joel.3.8	Judg.4.2	2
Joel.3.8	Judg.4.9	2
Joel.3.8	Isa.14.1-Isa.14.2	2
Joel.3.8	Jer.6.20	2
Joel.3.8	Ezek.23.42	2
Joel.3.9	Isa.8.9-Isa.8.10	3
Joel.3.9	Jer.46.3-Jer.46.4	3
Joel.3.9	Ezek.38.7	3
Joel.3.9	Ps.96.10	2
Joel.3.9	Isa.34.1	2
Joel.3.9	Jer.31.10	2
Joel.3.9	Jer.50.2	2
Joel.3.9	Ezek.21.21-Ezek.21.22	2
Joel.3.9	Mic.3.5	2
Joel.3.10	Isa.2.4	5
Joel.3.10	Mic.4.3	4
Joel.3.10	Zech.12.8	4
Joel.3.10	2Chr.25.8	2
Joel.3.10	Luke.22.36	2
Joel.3.11	Isa.13.3	4
Joel.3.11	Zeph.3.8	3
Joel.3.11	Ps.103.20	2
Joel.3.11	Isa.10.34	2
Joel.3.11	Isa.37.36	2
Joel.3.11	Ezek.38.9-Ezek.38.18	2
Joel.3.11	Joel.3.2	2
Joel.3.11	Mic.4.12	2
Joel.3.11	Zech.14.2-Zech.14.3	2
Joel.3.11	2Thess.1.7	2
Joel.3.11	Rev.16.14-Rev.16.16	2
Joel.3.11	Rev.19.14	2
Joel.3.11	Rev.19.19-Rev.19.20	2
Joel.3.11	Rev.20.8-Rev.20.9	2
Joel.3.12	Isa.2.4	5
Joel.3.12	Ps.96.13	4
Joel.3.12	Ps.98.9	4
Joel.3.12	Isa.3.13	4
Joel.3.12	Joel.3.2	4
Joel.3.12	Ps.7.6	3
Joel.3.12	Joel.3.14	3
Joel.3.12	Mic.4.3	3
Joel.3.12	2Chr.20.26	2
Joel.3.12	Ps.2.8-Ps.2.9	2
Joel.3.12	Ps.76.8-Ps.76.9	2
Joel.3.12	Ps.110.5-Ps.110.6	2
Joel.3.12	Ezek.30.3	2
Joel.3.12	Ezek.39.11	2
Joel.3.12	Zech.14.4	2
Joel.3.12	Rev.19.11	2
Joel.3.13	Hos.6.11	5
Joel.3.13	Isa.63.3	4
Joel.3.13	Jer.51.33	4
Joel.3.13	Matt.13.39	4
Joel.3.13	Rev.14.15-Rev.14.20	4
Joel.3.13	Gen.18.20	3
Joel.3.13	Lam.1.15	3
Joel.3.13	Mark.4.29	3
Joel.3.13	Gen.13.13	2
Joel.3.13	Gen.15.16	2
Joel.3.13	Deut.16.9	2
Joel.3.14	Isa.34.2-Isa.34.8	4
Joel.3.14	Joel.1.15	3
Joel.3.14	Joel.2.1	3
Joel.3.14	Joel.3.2	3
Joel.3.14	Ps.37.13	2
Joel.3.14	Isa.63.1-Isa.63.7	2
Joel.3.14	Ezek.38.8-Ezek.38.23	2
Joel.3.14	Ezek.39.8-Ezek.39.20	2
Joel.3.14	Phil.3.2	2
Joel.3.14	2Pet.3.7	2
Joel.3.14	Rev.16.14-Rev.16.16	2
Joel.3.14	Rev.19.19-Rev.19.21	2
Joel.3.15	Joel.2.10	4
Joel.3.15	Joel.2.31	3
Joel.3.15	Isa.13.10	2
Joel.3.15	Matt.24.29	2
Joel.3.15	Luke.21.25-Luke.21.26	2
Joel.3.15	Rev.6.12-Rev.6.13	2
Joel.3.16	Amos.1.2	5
Joel.3.16	Ezek.38.19	4
Joel.3.16	Joel.2.10-Joel.2.11	4
Joel.3.16	Ps.61.3	3
Joel.3.16	Isa.33.16	3
Joel.3.16	Hos.11.10	3
Joel.3.16	Hag.2.6	3
Joel.3.16	1Sam.15.29	2
Joel.3.16	Ps.18.2	2
Joel.3.16	Ps.29.11	2
Joel.3.16	Ps.46.1-Ps.46.11	2
Joel.3.16	Ps.91.1-Ps.91.2	2
Joel.3.16	Prov.18.10	2
Joel.3.16	Isa.33.21	2
Joel.3.16	Isa.42.13	2
Joel.3.16	Isa.51.5-Isa.51.6	2
Joel.3.16	Isa.51.16	2
Joel.3.16	Jer.16.19	2
Joel.3.16	Jer.25.30-Jer.25.31	2
Joel.3.16	Amos.3.8	2
Joel.3.16	Zech.10.6	2
Joel.3.16	Zech.10.12	2
Joel.3.16	Zech.12.5-Zech.12.8	2
Joel.3.16	Heb.12.26	2
Joel.3.16	Rev.11.13	2
Joel.3.16	Rev.11.19	2
Joel.3.16	Rev.16.18	2
Joel.3.17	Joel.2.27	5
Joel.3.17	Isa.4.3	4
Joel.3.17	Isa.52.1	4
Joel.3.17	Nah.1.15	4
Joel.3.17	Jer.31.23	3
Joel.3.17	Joel.3.21	3
Joel.3.17	Rev.21.27	3
Joel.3.17	Ps.9.11	2
Joel.3.17	Ps.76.2	2
Joel.3.17	Isa.12.6	2
Joel.3.17	Isa.35.8	2
Joel.3.17	Ezek.43.12	2
Joel.3.17	Ezek.48.35	2
Joel.3.17	Dan.11.45	2
Joel.3.17	Obad.1.16-Obad.1.17	2
Joel.3.17	Mic.4.7	2
Joel.3.17	Zeph.3.14-Zeph.3.16	2
Joel.3.17	Zech.8.3	2
Joel.3.17	Zech.14.20-Zech.14.21	2
Joel.3.18	Isa.30.25	5
Joel.3.18	Isa.35.6	4
Joel.3.18	Num.25.1	3
Joel.3.18	Ezek.47.1-Ezek.47.12	3
Joel.3.18	Rev.22.1-Rev.22.2	3
Joel.3.18	Exod.3.8	2
Joel.3.18	Job.29.6	2
Joel.3.18	Ps.46.4	2
Joel.3.18	Isa.41.17-Isa.41.18	2
Joel.3.18	Isa.55.12-Isa.55.13	2
Joel.3.18	Amos.9.13-Amos.9.14	2
Joel.3.18	Mic.6.5	2
Joel.3.18	Zech.14.8	2
Joel.3.19	Isa.19.1-Isa.19.15	3
Joel.3.19	Ps.137.7	2
Joel.3.19	Isa.11.15	2
Joel.3.19	Isa.34.1-Isa.34.17	2
Joel.3.19	Isa.63.1-Isa.63.6	2
Joel.3.19	Jer.49.17	2
Joel.3.19	Jer.51.35	2
Joel.3.19	Lam.4.21	2
Joel.3.19	Ezek.25.1-Ezek.25.17	2
Joel.3.19	Ezek.35.1-Ezek.35.15	2
Joel.3.19	Amos.1.11-Amos.1.12	2
Joel.3.19	Obad.1.1	2
Joel.3.19	Obad.1.10-Obad.1.16	2
Joel.3.19	Zech.10.10	2
Joel.3.19	Zech.14.18-Zech.14.19	2
Joel.3.19	Mal.1.3-Mal.1.4	2
Joel.3.19	2Thess.1.6	2
Joel.3.20	Ezek.37.25	4
Joel.3.20	Amos.9.15	4
Joel.3.20	Isa.33.20	2
Joel.3.21	Isa.4.4	4
Joel.3.21	Ezek.36.25	4
Joel.3.21	Ezek.36.29	3
Joel.3.21	Joel.3.17	3
Joel.3.21	Ezek.48.35	2
Joel.3.21	Matt.27.25	2
Joel.3.21	Rev.21.3